

================================================================
== Vivado HLS Report for 'projection_gp_swapRowAndColumn'
================================================================
* Date:           Wed Dec  2 15:09:02 2015

* Version:        2015.2 (Build 1266856 on Fri Jun 26 16:57:37 PM 2015)
* Project:        ProjectionGP_DIM_20_NUMBV_50
* Solution:       ProjectionGP_DIM_20_NUMBV_50
* Product family: artix7
* Target device:  xc7a200tfbg676-2


================================================================
== Performance Estimates
================================================================
+ Timing (ns): 
    * Summary: 
    +--------+-------+----------+------------+
    |  Clock | Target| Estimated| Uncertainty|
    +--------+-------+----------+------------+
    |ap_clk  |   5.00|      3.98|        0.62|
    +--------+-------+----------+------------+

+ Latency (clock cycles): 
    * Summary: 
    +-----+-----+-----+-----+---------+
    |  Latency  |  Interval | Pipeline|
    | min | max | min | max |   Type  |
    +-----+-----+-----+-----+---------+
    |  414|  414|  414|  414|   none  |
    +-----+-----+-----+-----+---------+

    + Detail: 
        * Instance: 
        N/A

        * Loop: 
        +----------+-----+-----+----------+-----------+-----------+------+----------+
        |          |  Latency  | Iteration|  Initiation Interval  | Trip |          |
        | Loop Name| min | max |  Latency |  achieved |   target  | Count| Pipelined|
        +----------+-----+-----+----------+-----------+-----------+------+----------+
        |- Loop 1  |  204|  204|         4|          -|          -|    51|    no    |
        |- Loop 2  |  204|  204|         4|          -|          -|    51|    no    |
        +----------+-----+-----+----------+-----------+-----------+------+----------+



================================================================
== Utilization Estimates
================================================================
* Summary: 
+-----------------+---------+-------+--------+--------+
|       Name      | BRAM_18K| DSP48E|   FF   |   LUT  |
+-----------------+---------+-------+--------+--------+
|Expression       |        -|      -|       -|       -|
|FIFO             |        -|      -|       -|       -|
|Instance         |        -|      -|       -|       -|
|Memory           |        -|      -|       -|       -|
|Multiplexer      |        -|      -|       -|       -|
|Register         |        -|      -|       -|       -|
+-----------------+---------+-------+--------+--------+
|Total            |        0|      0|       0|       0|
+-----------------+---------+-------+--------+--------+
|Available        |      730|    740|  269200|  129000|
+-----------------+---------+-------+--------+--------+
|Utilization (%)  |        0|      0|       0|       0|
+-----------------+---------+-------+--------+--------+

+ Detail: 
    * Instance: 
    N/A

    * Memory: 
    N/A

    * FIFO: 
    N/A

    * Expression: 
    N/A

    * Multiplexer: 
    N/A

    * Register: 
    N/A



================================================================
== Interface
================================================================
* Summary: 
N/A

============================================================
+ Verbose Summary: Synthesis Manager
============================================================
InlineROM: 1
ExposeGlobal: 0
============================================================
+ Verbose Summary: CDFG Model
============================================================
IsTopModel: 0
ResetActiveHigh: 1
IsCombinational: 0
IsDatapathOnly: 0
HasWiredReturn: 1
HasMFsm: 0
HasVarLatency: 1
IsPipeline: 0
IsRtlPipelined: 0
IsInstanceOverlapped: 0
IsDontTouch: 0
HasImplIP: 0
IsGatedGlobalClock: 0


============================================================
+ Verbose Summary: Schedule
============================================================
* Number of FSM states: 13
* Pipeline: 0
* Dataflow Pipeline: 0

* FSM state transitions: 
1 --> 
	2  / true
2 --> 
	3  / true
3 --> 
	4  / true
4 --> 
	5  / true
5 --> 
	6  / true
6 --> 
	7  / (!exitcond1)
	10  / (exitcond1)
7 --> 
	8  / true
8 --> 
	9  / true
9 --> 
	6  / true
10 --> 
	11  / (!exitcond)
11 --> 
	12  / true
12 --> 
	13  / true
13 --> 
	10  / true
* FSM state operations: 

 <State 1>: 2.69ns
ST_1: rowA_read [1/1] 0.87ns
:0  %rowA_read = call i32 @_ssdm_op_Read.ap_auto.i32(i32 %rowA)

ST_1: tmp [5/5] 1.82ns
:1  %tmp = mul i32 %rowA_read, 51


 <State 2>: 1.82ns
ST_2: tmp [4/5] 1.82ns
:1  %tmp = mul i32 %rowA_read, 51


 <State 3>: 1.82ns
ST_3: tmp [3/5] 1.82ns
:1  %tmp = mul i32 %rowA_read, 51


 <State 4>: 1.82ns
ST_4: tmp [2/5] 1.82ns
:1  %tmp = mul i32 %rowA_read, 51


 <State 5>: 1.82ns
ST_5: tmp [1/5] 1.82ns
:1  %tmp = mul i32 %rowA_read, 51

ST_5: stg_20 [1/1] 1.31ns
:2  br label %1


 <State 6>: 3.98ns
ST_6: i [1/1] 0.00ns
:0  %i = phi i6 [ 0, %0 ], [ %i_2, %2 ]

ST_6: i_cast4 [1/1] 0.00ns
:1  %i_cast4 = zext i6 %i to i12

ST_6: i_cast3 [1/1] 0.00ns
:2  %i_cast3 = zext i6 %i to i32

ST_6: exitcond1 [1/1] 1.89ns
:3  %exitcond1 = icmp eq i6 %i, -13

ST_6: stg_25 [1/1] 0.00ns
:4  call void (...)* @_ssdm_op_SpecLoopTripCount(i64 51, i64 51, i64 51)

ST_6: i_2 [1/1] 1.50ns
:5  %i_2 = add i6 %i, 1

ST_6: stg_27 [1/1] 1.31ns
:6  br i1 %exitcond1, label %.preheader, label %2

ST_6: tmp_6 [1/1] 2.10ns
:0  %tmp_6 = add i32 %i_cast3, %tmp

ST_6: tmp_7 [1/1] 0.00ns
:1  %tmp_7 = zext i32 %tmp_6 to i64

ST_6: pM_addr [1/1] 0.00ns
:2  %pM_addr = getelementptr [2601 x float]* %pM, i64 0, i64 %tmp_7

ST_6: tmp_8 [1/1] 1.60ns
:4  %tmp_8 = add i12 %i_cast4, -1546

ST_6: tmp_9 [1/1] 0.00ns
:5  %tmp_9 = zext i12 %tmp_8 to i64

ST_6: pM_addr_1 [1/1] 0.00ns
:6  %pM_addr_1 = getelementptr [2601 x float]* %pM, i64 0, i64 %tmp_9

ST_6: pM_load [2/2] 2.38ns
:7  %pM_load = load float* %pM_addr_1, align 4


 <State 7>: 2.38ns
ST_7: temp [2/2] 2.38ns
:3  %temp = load float* %pM_addr, align 4

ST_7: pM_load [1/2] 2.38ns
:7  %pM_load = load float* %pM_addr_1, align 4


 <State 8>: 2.38ns
ST_8: temp [1/2] 2.38ns
:3  %temp = load float* %pM_addr, align 4

ST_8: stg_38 [1/1] 2.38ns
:8  store float %pM_load, float* %pM_addr, align 4


 <State 9>: 2.38ns
ST_9: stg_39 [1/1] 2.38ns
:9  store float %temp, float* %pM_addr_1, align 4

ST_9: stg_40 [1/1] 0.00ns
:10  br label %1


 <State 10>: 3.98ns
ST_10: i1 [1/1] 0.00ns
.preheader:0  %i1 = phi i6 [ %i_3, %3 ], [ 0, %1 ]

ST_10: phi_mul [1/1] 0.00ns
.preheader:1  %phi_mul = phi i12 [ %next_mul, %3 ], [ 0, %1 ]

ST_10: exitcond [1/1] 1.89ns
.preheader:2  %exitcond = icmp eq i6 %i1, -13

ST_10: stg_44 [1/1] 0.00ns
.preheader:3  call void (...)* @_ssdm_op_SpecLoopTripCount(i64 51, i64 51, i64 51)

ST_10: i_3 [1/1] 1.50ns
.preheader:4  %i_3 = add i6 %i1, 1

ST_10: stg_46 [1/1] 0.00ns
.preheader:5  br i1 %exitcond, label %4, label %3

ST_10: next_mul [1/1] 1.60ns
:0  %next_mul = add i12 %phi_mul, 51

ST_10: tmp_cast5 [1/1] 0.00ns
:1  %tmp_cast5 = zext i12 %phi_mul to i32

ST_10: tmp_1 [1/1] 2.10ns
:2  %tmp_1 = add i32 %tmp_cast5, %rowA_read

ST_10: tmp_2 [1/1] 0.00ns
:3  %tmp_2 = zext i32 %tmp_1 to i64

ST_10: pM_addr_2 [1/1] 0.00ns
:4  %pM_addr_2 = getelementptr [2601 x float]* %pM, i64 0, i64 %tmp_2

ST_10: tmp_3 [1/1] 1.60ns
:6  %tmp_3 = add i12 %phi_mul, 50

ST_10: tmp_4 [1/1] 0.00ns
:7  %tmp_4 = zext i12 %tmp_3 to i64

ST_10: pM_addr_3 [1/1] 0.00ns
:8  %pM_addr_3 = getelementptr [2601 x float]* %pM, i64 0, i64 %tmp_4

ST_10: pM_load_2 [2/2] 2.38ns
:9  %pM_load_2 = load float* %pM_addr_3, align 4

ST_10: stg_56 [1/1] 0.00ns
:0  ret void


 <State 11>: 2.38ns
ST_11: temp_3 [2/2] 2.38ns
:5  %temp_3 = load float* %pM_addr_2, align 4

ST_11: pM_load_2 [1/2] 2.38ns
:9  %pM_load_2 = load float* %pM_addr_3, align 4


 <State 12>: 2.38ns
ST_12: temp_3 [1/2] 2.38ns
:5  %temp_3 = load float* %pM_addr_2, align 4

ST_12: stg_60 [1/1] 2.38ns
:10  store float %pM_load_2, float* %pM_addr_2, align 4


 <State 13>: 2.38ns
ST_13: stg_61 [1/1] 2.38ns
:11  store float %temp_3, float* %pM_addr_3, align 4

ST_13: stg_62 [1/1] 0.00ns
:12  br label %.preheader



============================================================
+ Verbose Summary: Binding
============================================================
N/A
* FSMD analyzer results:
  - Output states:
  - Chain level:
	State 1
	State 2
	State 3
	State 4
	State 5
	State 6
	State 7
	State 8
	State 9
	State 10
	State 11
	State 12
	State 13


============================================================
+ Verbose Summary: Datapath Resource usage 
============================================================
N/A
