

================================================================
== Vivado HLS Report for 'dummy_algorithm'
================================================================
* Date:           Wed Mar 30 10:21:11 2016

* Version:        2015.4 (Build 1412921 on Wed Nov 18 09:58:55 AM 2015)
* Project:        DummyAlgorithm
* Solution:       solution1
* Product family: artix7
* Target device:  xc7a200tfbg676-2


================================================================
== Performance Estimates
================================================================
+ Timing (ns): 
    * Summary: 
    +--------+-------+----------+------------+
    |  Clock | Target| Estimated| Uncertainty|
    +--------+-------+----------+------------+
    |ap_clk  |   5.00|      4.48|        0.62|
    +--------+-------+----------+------------+

+ Latency (clock cycles): 
    * Summary: 
    +-----+-----+-----+-----+---------+
    |  Latency  |  Interval | Pipeline|
    | min | max | min | max |   Type  |
    +-----+-----+-----+-----+---------+
    |   48|   71|   49|   72|   none  |
    +-----+-----+-----+-----+---------+

    + Detail: 
        * Instance: 
        N/A

        * Loop: 
        +----------+-----+-----+----------+-----------+-----------+------+----------+
        |          |  Latency  | Iteration|  Initiation Interval  | Trip |          |
        | Loop Name| min | max |  Latency |  achieved |   target  | Count| Pipelined|
        +----------+-----+-----+----------+-----------+-----------+------+----------+
        |- Loop 1  |   32|   32|        16|          -|          -|     2|    no    |
        |- Loop 2  |   32|   32|        16|          -|          -|     2|    no    |
        +----------+-----+-----+----------+-----------+-----------+------+----------+



================================================================
== Utilization Estimates
================================================================
* Summary: 
+-----------------+---------+-------+--------+--------+
|       Name      | BRAM_18K| DSP48E|   FF   |   LUT  |
+-----------------+---------+-------+--------+--------+
|DSP              |        -|      -|       -|       -|
|Expression       |        -|      -|       0|      98|
|FIFO             |        -|      -|       -|       -|
|Instance         |        2|     10|    1216|    1069|
|Memory           |        2|      -|       0|       0|
|Multiplexer      |        -|      -|       -|     552|
|Register         |        -|      -|     515|       -|
+-----------------+---------+-------+--------+--------+
|Total            |        4|     10|    1731|    1719|
+-----------------+---------+-------+--------+--------+
|Available        |      730|    740|  269200|  129000|
+-----------------+---------+-------+--------+--------+
|Utilization (%)  |    ~0   |      1|   ~0   |       1|
+-----------------+---------+-------+--------+--------+

+ Detail: 
    * Instance: 
    +-----------------------------------------------------+--------------------------------------------------+---------+-------+-----+-----+
    |                       Instance                      |                      Module                      | BRAM_18K| DSP48E|  FF | LUT |
    +-----------------------------------------------------+--------------------------------------------------+---------+-------+-----+-----+
    |dummy_algorithm_AXILiteS_s_axi_U                     |dummy_algorithm_AXILiteS_s_axi                    |        2|      0|  200|  242|
    |dummy_algorithm_fadd_32ns_32ns_32_9_full_dsp_U2      |dummy_algorithm_fadd_32ns_32ns_32_9_full_dsp      |        0|      2|  324|  236|
    |dummy_algorithm_faddfsub_32ns_32ns_32_9_full_dsp_U1  |dummy_algorithm_faddfsub_32ns_32ns_32_9_full_dsp  |        0|      2|  324|  236|
    |dummy_algorithm_fcmp_32ns_32ns_1_2_U5                |dummy_algorithm_fcmp_32ns_32ns_1_2                |        0|      0|   66|   67|
    |dummy_algorithm_fmul_32ns_32ns_32_5_max_dsp_U3       |dummy_algorithm_fmul_32ns_32ns_32_5_max_dsp       |        0|      3|  151|  144|
    |dummy_algorithm_fmul_32ns_32ns_32_5_max_dsp_U4       |dummy_algorithm_fmul_32ns_32ns_32_5_max_dsp       |        0|      3|  151|  144|
    +-----------------------------------------------------+--------------------------------------------------+---------+-------+-----+-----+
    |Total                                                |                                                  |        2|     10| 1216| 1069|
    +-----------------------------------------------------+--------------------------------------------------+---------+-------+-----+-----+

    * DSP48: 
    N/A

    * Memory: 
    +-----------+-------------------------+---------+---+----+------+-----+------+-------------+
    |   Memory  |          Module         | BRAM_18K| FF| LUT| Words| Bits| Banks| W*Bits*Banks|
    +-----------+-------------------------+---------+---+----+------+-----+------+-------------+
    |weights_U  |dummy_algorithm_weights  |        2|  0|   0|     3|   32|     1|           96|
    +-----------+-------------------------+---------+---+----+------+-----+------+-------------+
    |Total      |                         |        2|  0|   0|     3|   32|     1|           96|
    +-----------+-------------------------+---------+---+----+------+-----+------+-------------+

    * FIFO: 
    N/A

    * Expression: 
    +-----------------------+----------+-------+---+----+------------+------------+
    |     Variable Name     | Operation| DSP48E| FF| LUT| Bitwidth P0| Bitwidth P1|
    +-----------------------+----------+-------+---+----+------------+------------+
    |i_1_fu_273_p2          |     +    |      0|  0|   2|           2|           1|
    |i_fu_339_p2            |     +    |      0|  0|   2|           2|           1|
    |prediction_fu_325_p3   |  Select  |      0|  0|  32|           1|          30|
    |tmp_1_i1_fu_391_p3     |  Select  |      0|  0|  32|           1|          30|
    |tmp_12_fu_321_p2       |    and   |      0|  0|   1|           1|           1|
    |tmp_7_fu_387_p2        |    and   |      0|  0|   1|           1|           1|
    |exitcond_i7_fu_333_p2  |   icmp   |      0|  0|   2|           2|           3|
    |exitcond_i_fu_267_p2   |   icmp   |      0|  0|   2|           2|           3|
    |notlhs4_fu_369_p2      |   icmp   |      0|  0|   3|           8|           2|
    |notlhs_fu_303_p2       |   icmp   |      0|  0|   3|           8|           2|
    |notrhs5_fu_375_p2      |   icmp   |      0|  0|   8|          23|           1|
    |notrhs_fu_309_p2       |   icmp   |      0|  0|   8|          23|           1|
    |tmp_10_fu_315_p2       |    or    |      0|  0|   1|           1|           1|
    |tmp_5_fu_381_p2        |    or    |      0|  0|   1|           1|           1|
    +-----------------------+----------+-------+---+----+------------+------------+
    |Total                  |          |      0|  0|  98|          76|          78|
    +-----------------------+----------+-------+---+----+------------+------------+

    * Multiplexer: 
    +-------------------+-----+-----------+-----+-----------+
    |        Name       | LUT | Input Size| Bits| Total Bits|
    +-------------------+-----+-----------+-----+-----------+
    |ap_NS_fsm          |  189|         85|    1|         85|
    |grp_fu_215_opcode  |    2|          3|    2|          6|
    |grp_fu_215_p0      |   32|          6|   32|        192|
    |grp_fu_215_p1      |   32|          5|   32|        160|
    |grp_fu_225_p0      |   32|          3|   32|         96|
    |grp_fu_225_p1      |   32|          3|   32|         96|
    |i_i6_reg_204       |    2|          2|    2|          4|
    |i_i_reg_172        |    2|          2|    2|          4|
    |pX_address0        |    1|          5|    1|          5|
    |p_0_phi_fu_186_p4  |   32|          2|   32|         64|
    |p_0_reg_183        |   32|          2|   32|         64|
    |reg_244            |   32|          2|   32|         64|
    |sum_i5_reg_192     |   32|          2|   32|         64|
    |sum_i_reg_160      |   32|          2|   32|         64|
    |weights_address0   |    2|          5|    2|         10|
    |weights_address1   |    2|          4|    2|          8|
    |weights_d0         |   32|          3|   32|         96|
    |weights_d1         |   32|          3|   32|         96|
    +-------------------+-----+-----------+-----+-----------+
    |Total              |  552|        139|  364|       1178|
    +-------------------+-----+-----------+-----+-----------+

    * Register: 
    +------------------------+----+----+-----+-----------+
    |          Name          | FF | LUT| Bits| Const Bits|
    +------------------------+----+----+-----+-----------+
    |ap_CS_fsm               |  84|   0|   84|          0|
    |i_1_reg_416             |   2|   0|    2|          0|
    |i_i6_reg_204            |   2|   0|    2|          0|
    |i_i_reg_172             |   2|   0|    2|          0|
    |i_reg_484               |   2|   0|    2|          0|
    |pPredict_read_reg_403   |   1|   0|    1|          0|
    |pReset_read_reg_399     |   1|   0|    1|          0|
    |pX_load_1_reg_456       |  32|   0|   32|          0|
    |pY_read_reg_407         |  32|   0|   32|          0|
    |p_0_reg_183             |  32|   0|   32|          0|
    |prediction_reg_441      |   1|   0|   32|         31|
    |reg_238                 |  32|   0|   32|          0|
    |reg_244                 |  32|   0|   32|          0|
    |reg_252                 |  32|   0|   32|          0|
    |reg_257                 |  32|   0|   32|          0|
    |sum_i5_reg_192          |  32|   0|   32|          0|
    |sum_i_reg_160           |  32|   0|   32|          0|
    |tmp_10_reg_431          |   1|   0|    1|          0|
    |tmp_11_reg_436          |   1|   0|    1|          0|
    |tmp_4_1_reg_466         |  32|   0|   32|          0|
    |tmp_5_1_reg_476         |  32|   0|   32|          0|
    |tmp_5_reg_504           |   1|   0|    1|          0|
    |tmp_6_reg_509           |   1|   0|    1|          0|
    |weights_load_2_reg_461  |  32|   0|   32|          0|
    |weights_load_3_reg_471  |  32|   0|   32|          0|
    +------------------------+----+----+-----+-----------+
    |Total                   | 515|   0|  546|         31|
    +------------------------+----+----+-----+-----------+



================================================================
== Interface
================================================================
* Summary: 
+------------------------+-----+-----+------------+-----------------+--------------+
|        RTL Ports       | Dir | Bits|  Protocol  |  Source Object  |    C Type    |
+------------------------+-----+-----+------------+-----------------+--------------+
|s_axi_AXILiteS_AWVALID  |  in |    1|    s_axi   |     AXILiteS    |    scalar    |
|s_axi_AXILiteS_AWREADY  | out |    1|    s_axi   |     AXILiteS    |    scalar    |
|s_axi_AXILiteS_AWADDR   |  in |    6|    s_axi   |     AXILiteS    |    scalar    |
|s_axi_AXILiteS_WVALID   |  in |    1|    s_axi   |     AXILiteS    |    scalar    |
|s_axi_AXILiteS_WREADY   | out |    1|    s_axi   |     AXILiteS    |    scalar    |
|s_axi_AXILiteS_WDATA    |  in |   32|    s_axi   |     AXILiteS    |    scalar    |
|s_axi_AXILiteS_WSTRB    |  in |    4|    s_axi   |     AXILiteS    |    scalar    |
|s_axi_AXILiteS_ARVALID  |  in |    1|    s_axi   |     AXILiteS    |    scalar    |
|s_axi_AXILiteS_ARREADY  | out |    1|    s_axi   |     AXILiteS    |    scalar    |
|s_axi_AXILiteS_ARADDR   |  in |    6|    s_axi   |     AXILiteS    |    scalar    |
|s_axi_AXILiteS_RVALID   | out |    1|    s_axi   |     AXILiteS    |    scalar    |
|s_axi_AXILiteS_RREADY   |  in |    1|    s_axi   |     AXILiteS    |    scalar    |
|s_axi_AXILiteS_RDATA    | out |   32|    s_axi   |     AXILiteS    |    scalar    |
|s_axi_AXILiteS_RRESP    | out |    2|    s_axi   |     AXILiteS    |    scalar    |
|s_axi_AXILiteS_BVALID   | out |    1|    s_axi   |     AXILiteS    |    scalar    |
|s_axi_AXILiteS_BREADY   |  in |    1|    s_axi   |     AXILiteS    |    scalar    |
|s_axi_AXILiteS_BRESP    | out |    2|    s_axi   |     AXILiteS    |    scalar    |
|ap_clk                  |  in |    1| ap_ctrl_hs | dummy_algorithm | return value |
|ap_rst_n                |  in |    1| ap_ctrl_hs | dummy_algorithm | return value |
|interrupt               | out |    1| ap_ctrl_hs | dummy_algorithm | return value |
+------------------------+-----+-----+------------+-----------------+--------------+

