

================================================================
== Vivado HLS Report for 'dummy_algorithm'
================================================================
* Date:           Wed Mar 30 10:21:11 2016

* Version:        2015.4 (Build 1412921 on Wed Nov 18 09:58:55 AM 2015)
* Project:        DummyAlgorithm
* Solution:       solution1
* Product family: artix7
* Target device:  xc7a200tfbg676-2


================================================================
== Performance Estimates
================================================================
+ Timing (ns): 
    * Summary: 
    +--------+-------+----------+------------+
    |  Clock | Target| Estimated| Uncertainty|
    +--------+-------+----------+------------+
    |ap_clk  |   5.00|      4.48|        0.62|
    +--------+-------+----------+------------+

+ Latency (clock cycles): 
    * Summary: 
    +-----+-----+-----+-----+---------+
    |  Latency  |  Interval | Pipeline|
    | min | max | min | max |   Type  |
    +-----+-----+-----+-----+---------+
    |   48|   71|   49|   72|   none  |
    +-----+-----+-----+-----+---------+

    + Detail: 
        * Instance: 
        N/A

        * Loop: 
        +----------+-----+-----+----------+-----------+-----------+------+----------+
        |          |  Latency  | Iteration|  Initiation Interval  | Trip |          |
        | Loop Name| min | max |  Latency |  achieved |   target  | Count| Pipelined|
        +----------+-----+-----+----------+-----------+-----------+------+----------+
        |- Loop 1  |   32|   32|        16|          -|          -|     2|    no    |
        |- Loop 2  |   32|   32|        16|          -|          -|     2|    no    |
        +----------+-----+-----+----------+-----------+-----------+------+----------+



================================================================
== Utilization Estimates
================================================================
* Summary: 
+-----------------+---------+-------+--------+--------+
|       Name      | BRAM_18K| DSP48E|   FF   |   LUT  |
+-----------------+---------+-------+--------+--------+
|DSP              |        -|      -|       -|       -|
|Expression       |        -|      -|       0|      98|
|FIFO             |        -|      -|       -|       -|
|Instance         |        2|     10|    1216|    1069|
|Memory           |        2|      -|       0|       0|
|Multiplexer      |        -|      -|       -|     552|
|Register         |        -|      -|     515|       -|
+-----------------+---------+-------+--------+--------+
|Total            |        4|     10|    1731|    1719|
+-----------------+---------+-------+--------+--------+
|Available        |      730|    740|  269200|  129000|
+-----------------+---------+-------+--------+--------+
|Utilization (%)  |    ~0   |      1|   ~0   |       1|
+-----------------+---------+-------+--------+--------+

+ Detail: 
    * Instance: 
    +-----------------------------------------------------+--------------------------------------------------+---------+-------+-----+-----+
    |                       Instance                      |                      Module                      | BRAM_18K| DSP48E|  FF | LUT |
    +-----------------------------------------------------+--------------------------------------------------+---------+-------+-----+-----+
    |dummy_algorithm_AXILiteS_s_axi_U                     |dummy_algorithm_AXILiteS_s_axi                    |        2|      0|  200|  242|
    |dummy_algorithm_fadd_32ns_32ns_32_9_full_dsp_U2      |dummy_algorithm_fadd_32ns_32ns_32_9_full_dsp      |        0|      2|  324|  236|
    |dummy_algorithm_faddfsub_32ns_32ns_32_9_full_dsp_U1  |dummy_algorithm_faddfsub_32ns_32ns_32_9_full_dsp  |        0|      2|  324|  236|
    |dummy_algorithm_fcmp_32ns_32ns_1_2_U5                |dummy_algorithm_fcmp_32ns_32ns_1_2                |        0|      0|   66|   67|
    |dummy_algorithm_fmul_32ns_32ns_32_5_max_dsp_U3       |dummy_algorithm_fmul_32ns_32ns_32_5_max_dsp       |        0|      3|  151|  144|
    |dummy_algorithm_fmul_32ns_32ns_32_5_max_dsp_U4       |dummy_algorithm_fmul_32ns_32ns_32_5_max_dsp       |        0|      3|  151|  144|
    +-----------------------------------------------------+--------------------------------------------------+---------+-------+-----+-----+
    |Total                                                |                                                  |        2|     10| 1216| 1069|
    +-----------------------------------------------------+--------------------------------------------------+---------+-------+-----+-----+

    * DSP48: 
    N/A

    * Memory: 
    +-----------+-------------------------+---------+---+----+------+-----+------+-------------+
    |   Memory  |          Module         | BRAM_18K| FF| LUT| Words| Bits| Banks| W*Bits*Banks|
    +-----------+-------------------------+---------+---+----+------+-----+------+-------------+
    |weights_U  |dummy_algorithm_weights  |        2|  0|   0|     3|   32|     1|           96|
    +-----------+-------------------------+---------+---+----+------+-----+------+-------------+
    |Total      |                         |        2|  0|   0|     3|   32|     1|           96|
    +-----------+-------------------------+---------+---+----+------+-----+------+-------------+

    * FIFO: 
    N/A

    * Expression: 
    +-----------------------+----------+-------+---+----+------------+------------+
    |     Variable Name     | Operation| DSP48E| FF| LUT| Bitwidth P0| Bitwidth P1|
    +-----------------------+----------+-------+---+----+------------+------------+
    |i_1_fu_273_p2          |     +    |      0|  0|   2|           2|           1|
    |i_fu_339_p2            |     +    |      0|  0|   2|           2|           1|
    |prediction_fu_325_p3   |  Select  |      0|  0|  32|           1|          30|
    |tmp_1_i1_fu_391_p3     |  Select  |      0|  0|  32|           1|          30|
    |tmp_12_fu_321_p2       |    and   |      0|  0|   1|           1|           1|
    |tmp_7_fu_387_p2        |    and   |      0|  0|   1|           1|           1|
    |exitcond_i7_fu_333_p2  |   icmp   |      0|  0|   2|           2|           3|
    |exitcond_i_fu_267_p2   |   icmp   |      0|  0|   2|           2|           3|
    |notlhs4_fu_369_p2      |   icmp   |      0|  0|   3|           8|           2|
    |notlhs_fu_303_p2       |   icmp   |      0|  0|   3|           8|           2|
    |notrhs5_fu_375_p2      |   icmp   |      0|  0|   8|          23|           1|
    |notrhs_fu_309_p2       |   icmp   |      0|  0|   8|          23|           1|
    |tmp_10_fu_315_p2       |    or    |      0|  0|   1|           1|           1|
    |tmp_5_fu_381_p2        |    or    |      0|  0|   1|           1|           1|
    +-----------------------+----------+-------+---+----+------------+------------+
    |Total                  |          |      0|  0|  98|          76|          78|
    +-----------------------+----------+-------+---+----+------------+------------+

    * Multiplexer: 
    +-------------------+-----+-----------+-----+-----------+
    |        Name       | LUT | Input Size| Bits| Total Bits|
    +-------------------+-----+-----------+-----+-----------+
    |ap_NS_fsm          |  189|         85|    1|         85|
    |grp_fu_215_opcode  |    2|          3|    2|          6|
    |grp_fu_215_p0      |   32|          6|   32|        192|
    |grp_fu_215_p1      |   32|          5|   32|        160|
    |grp_fu_225_p0      |   32|          3|   32|         96|
    |grp_fu_225_p1      |   32|          3|   32|         96|
    |i_i6_reg_204       |    2|          2|    2|          4|
    |i_i_reg_172        |    2|          2|    2|          4|
    |pX_address0        |    1|          5|    1|          5|
    |p_0_phi_fu_186_p4  |   32|          2|   32|         64|
    |p_0_reg_183        |   32|          2|   32|         64|
    |reg_244            |   32|          2|   32|         64|
    |sum_i5_reg_192     |   32|          2|   32|         64|
    |sum_i_reg_160      |   32|          2|   32|         64|
    |weights_address0   |    2|          5|    2|         10|
    |weights_address1   |    2|          4|    2|          8|
    |weights_d0         |   32|          3|   32|         96|
    |weights_d1         |   32|          3|   32|         96|
    +-------------------+-----+-----------+-----+-----------+
    |Total              |  552|        139|  364|       1178|
    +-------------------+-----+-----------+-----+-----------+

    * Register: 
    +------------------------+----+----+-----+-----------+
    |          Name          | FF | LUT| Bits| Const Bits|
    +------------------------+----+----+-----+-----------+
    |ap_CS_fsm               |  84|   0|   84|          0|
    |i_1_reg_416             |   2|   0|    2|          0|
    |i_i6_reg_204            |   2|   0|    2|          0|
    |i_i_reg_172             |   2|   0|    2|          0|
    |i_reg_484               |   2|   0|    2|          0|
    |pPredict_read_reg_403   |   1|   0|    1|          0|
    |pReset_read_reg_399     |   1|   0|    1|          0|
    |pX_load_1_reg_456       |  32|   0|   32|          0|
    |pY_read_reg_407         |  32|   0|   32|          0|
    |p_0_reg_183             |  32|   0|   32|          0|
    |prediction_reg_441      |   1|   0|   32|         31|
    |reg_238                 |  32|   0|   32|          0|
    |reg_244                 |  32|   0|   32|          0|
    |reg_252                 |  32|   0|   32|          0|
    |reg_257                 |  32|   0|   32|          0|
    |sum_i5_reg_192          |  32|   0|   32|          0|
    |sum_i_reg_160           |  32|   0|   32|          0|
    |tmp_10_reg_431          |   1|   0|    1|          0|
    |tmp_11_reg_436          |   1|   0|    1|          0|
    |tmp_4_1_reg_466         |  32|   0|   32|          0|
    |tmp_5_1_reg_476         |  32|   0|   32|          0|
    |tmp_5_reg_504           |   1|   0|    1|          0|
    |tmp_6_reg_509           |   1|   0|    1|          0|
    |weights_load_2_reg_461  |  32|   0|   32|          0|
    |weights_load_3_reg_471  |  32|   0|   32|          0|
    +------------------------+----+----+-----+-----------+
    |Total                   | 515|   0|  546|         31|
    +------------------------+----+----+-----+-----------+



================================================================
== Interface
================================================================
* Summary: 
+------------------------+-----+-----+------------+-----------------+--------------+
|        RTL Ports       | Dir | Bits|  Protocol  |  Source Object  |    C Type    |
+------------------------+-----+-----+------------+-----------------+--------------+
|s_axi_AXILiteS_AWVALID  |  in |    1|    s_axi   |     AXILiteS    |    scalar    |
|s_axi_AXILiteS_AWREADY  | out |    1|    s_axi   |     AXILiteS    |    scalar    |
|s_axi_AXILiteS_AWADDR   |  in |    6|    s_axi   |     AXILiteS    |    scalar    |
|s_axi_AXILiteS_WVALID   |  in |    1|    s_axi   |     AXILiteS    |    scalar    |
|s_axi_AXILiteS_WREADY   | out |    1|    s_axi   |     AXILiteS    |    scalar    |
|s_axi_AXILiteS_WDATA    |  in |   32|    s_axi   |     AXILiteS    |    scalar    |
|s_axi_AXILiteS_WSTRB    |  in |    4|    s_axi   |     AXILiteS    |    scalar    |
|s_axi_AXILiteS_ARVALID  |  in |    1|    s_axi   |     AXILiteS    |    scalar    |
|s_axi_AXILiteS_ARREADY  | out |    1|    s_axi   |     AXILiteS    |    scalar    |
|s_axi_AXILiteS_ARADDR   |  in |    6|    s_axi   |     AXILiteS    |    scalar    |
|s_axi_AXILiteS_RVALID   | out |    1|    s_axi   |     AXILiteS    |    scalar    |
|s_axi_AXILiteS_RREADY   |  in |    1|    s_axi   |     AXILiteS    |    scalar    |
|s_axi_AXILiteS_RDATA    | out |   32|    s_axi   |     AXILiteS    |    scalar    |
|s_axi_AXILiteS_RRESP    | out |    2|    s_axi   |     AXILiteS    |    scalar    |
|s_axi_AXILiteS_BVALID   | out |    1|    s_axi   |     AXILiteS    |    scalar    |
|s_axi_AXILiteS_BREADY   |  in |    1|    s_axi   |     AXILiteS    |    scalar    |
|s_axi_AXILiteS_BRESP    | out |    2|    s_axi   |     AXILiteS    |    scalar    |
|ap_clk                  |  in |    1| ap_ctrl_hs | dummy_algorithm | return value |
|ap_rst_n                |  in |    1| ap_ctrl_hs | dummy_algorithm | return value |
|interrupt               | out |    1| ap_ctrl_hs | dummy_algorithm | return value |
+------------------------+-----+-----+------------+-----------------+--------------+

============================================================
+ Verbose Summary: Synthesis Manager
============================================================
InlineROM: 1
ExposeGlobal: 0
============================================================
+ Verbose Summary: CDFG Model
============================================================
IsTopModel: 1
ResetActiveHigh: 1
IsCombinational: 2
IsDatapathOnly: 2
HasWiredReturn: 1
HasMFsm: 0
HasVarLatency: 1
IsPipeline: 0
IsRtlPipelined: 0
IsInstanceOverlapped: 0
IsDontTouch: 0
HasImplIP: 0
IsGatedGlobalClock: 0


============================================================
+ Verbose Summary: Schedule
============================================================
* Number of FSM states: 84
* Pipeline: 0
* Dataflow Pipeline: 0

* FSM state transitions: 
1 --> 
	2  / true
2 --> 
	3  / (!pPredict_read)
	56  / (pPredict_read)
3 --> 
	4  / (!exitcond_i)
	19  / (exitcond_i)
4 --> 
	5  / true
5 --> 
	6  / true
6 --> 
	7  / true
7 --> 
	8  / true
8 --> 
	9  / true
9 --> 
	10  / true
10 --> 
	11  / true
11 --> 
	12  / true
12 --> 
	13  / true
13 --> 
	14  / true
14 --> 
	15  / true
15 --> 
	16  / true
16 --> 
	17  / true
17 --> 
	18  / true
18 --> 
	3  / true
19 --> 
	20  / true
20 --> 
	21  / true
21 --> 
	22  / true
22 --> 
	23  / true
23 --> 
	24  / true
24 --> 
	25  / true
25 --> 
	26  / true
26 --> 
	27  / true
27 --> 
	28  / true
28 --> 
	29  / true
29 --> 
	30  / true
30 --> 
	31  / true
31 --> 
	32  / true
32 --> 
	33  / true
33 --> 
	34  / true
34 --> 
	35  / true
35 --> 
	36  / true
36 --> 
	37  / true
37 --> 
	38  / true
38 --> 
	39  / true
39 --> 
	40  / true
40 --> 
	41  / true
41 --> 
	42  / true
42 --> 
	43  / true
43 --> 
	44  / true
44 --> 
	45  / true
45 --> 
	46  / true
46 --> 
	47  / true
47 --> 
	48  / true
48 --> 
	49  / true
49 --> 
	50  / true
50 --> 
	51  / true
51 --> 
	52  / true
52 --> 
	53  / true
53 --> 
	54  / true
54 --> 
	55  / true
55 --> 
56 --> 
	57  / (!exitcond_i7)
	72  / (exitcond_i7)
57 --> 
	58  / true
58 --> 
	59  / true
59 --> 
	60  / true
60 --> 
	61  / true
61 --> 
	62  / true
62 --> 
	63  / true
63 --> 
	64  / true
64 --> 
	65  / true
65 --> 
	66  / true
66 --> 
	67  / true
67 --> 
	68  / true
68 --> 
	69  / true
69 --> 
	70  / true
70 --> 
	71  / true
71 --> 
	56  / true
72 --> 
	73  / true
73 --> 
	74  / true
74 --> 
	75  / true
75 --> 
	76  / true
76 --> 
	77  / true
77 --> 
	78  / true
78 --> 
	79  / true
79 --> 
	80  / true
80 --> 
	81  / true
81 --> 
	82  / true
82 --> 
	83  / true
83 --> 
	84  / true
84 --> 
	55  / true
* FSM state operations: 

 <State 1>: 2.39ns
ST_1: stg_85 [1/1] 0.00ns
:0  call void (...)* @_ssdm_op_SpecBitsMap([2 x float]* %pX) nounwind, !map !7

ST_1: stg_86 [1/1] 0.00ns
:1  call void (...)* @_ssdm_op_SpecBitsMap(float %pY) nounwind, !map !13

ST_1: stg_87 [1/1] 0.00ns
:2  call void (...)* @_ssdm_op_SpecBitsMap(i1 %pPredict) nounwind, !map !19

ST_1: stg_88 [1/1] 0.00ns
:3  call void (...)* @_ssdm_op_SpecBitsMap(i1 %pReset) nounwind, !map !23

ST_1: stg_89 [1/1] 0.00ns
:4  call void (...)* @_ssdm_op_SpecBitsMap(float 0.000000e+00) nounwind, !map !27

ST_1: stg_90 [1/1] 0.00ns
:5  call void (...)* @_ssdm_op_SpecTopModule([16 x i8]* @dummy_algorithm_str) nounwind

ST_1: pReset_read [1/1] 1.00ns
:6  %pReset_read = call i1 @_ssdm_op_Read.s_axilite.i1(i1 %pReset) nounwind

ST_1: pPredict_read [1/1] 1.00ns
:7  %pPredict_read = call i1 @_ssdm_op_Read.s_axilite.i1(i1 %pPredict) nounwind

ST_1: pY_read [1/1] 1.00ns
:8  %pY_read = call float @_ssdm_op_Read.s_axilite.float(float %pY) nounwind

ST_1: empty [1/1] 0.00ns
:9  %empty = call i32 (...)* @_ssdm_op_SpecMemCore([2 x float]* %pX, [1 x i8]* @p_str3, [7 x i8]* @RAM_1P_str, [1 x i8]* @p_str3, i32 -1, [1 x i8]* @p_str3, [1 x i8]* @p_str3, [1 x i8]* @p_str3) nounwind

ST_1: stg_95 [1/1] 0.00ns
:10  call void (...)* @_ssdm_op_SpecInterface([2 x float]* %pX, [10 x i8]* @p_str, i32 0, i32 0, i32 0, i32 2, [1 x i8]* @p_str1, [1 x i8]* @p_str1, [1 x i8]* @p_str1, [1 x i8]* @p_str1) nounwind

ST_1: stg_96 [1/1] 0.00ns
:11  call void (...)* @_ssdm_op_SpecInterface(float %pY, [10 x i8]* @p_str, i32 0, i32 0, i32 0, i32 0, [1 x i8]* @p_str1, [1 x i8]* @p_str1, [1 x i8]* @p_str1, [1 x i8]* @p_str1) nounwind

ST_1: stg_97 [1/1] 0.00ns
:12  call void (...)* @_ssdm_op_SpecInterface(i1 %pPredict, [10 x i8]* @p_str, i32 0, i32 0, i32 0, i32 0, [1 x i8]* @p_str1, [1 x i8]* @p_str1, [1 x i8]* @p_str1, [1 x i8]* @p_str1) nounwind

ST_1: stg_98 [1/1] 0.00ns
:13  call void (...)* @_ssdm_op_SpecInterface(i1 %pReset, [10 x i8]* @p_str, i32 0, i32 0, i32 0, i32 0, [1 x i8]* @p_str1, [1 x i8]* @p_str1, [1 x i8]* @p_str1, [1 x i8]* @p_str1) nounwind

ST_1: stg_99 [1/1] 0.00ns
:14  call void (...)* @_ssdm_op_SpecInterface(i32 0, [10 x i8]* @p_str, i32 0, i32 0, i32 0, i32 0, [1 x i8]* @p_str1, [1 x i8]* @p_str1, [1 x i8]* @p_str1, [1 x i8]* @p_str1) nounwind

ST_1: stg_100 [1/1] 0.00ns
:15  br i1 %pReset_read, label %.preheader.0, label %.loopexit

ST_1: stg_101 [1/1] 2.39ns
.preheader.0:0  store float 0.000000e+00, float* getelementptr inbounds ([3 x float]* @weights, i64 0, i64 0), align 4


 <State 2>: 2.39ns
ST_2: stg_102 [1/1] 2.39ns
.preheader.0:1  store float 0.000000e+00, float* getelementptr inbounds ([3 x float]* @weights, i64 0, i64 1), align 4

ST_2: stg_103 [1/1] 2.39ns
.preheader.0:2  store float 0.000000e+00, float* getelementptr inbounds ([3 x float]* @weights, i64 0, i64 2), align 4

ST_2: stg_104 [1/1] 0.00ns
.preheader.0:3  br label %.loopexit

ST_2: stg_105 [1/1] 1.31ns
.loopexit:0  br i1 %pPredict_read, label %.preheader, label %.preheader21


 <State 3>: 2.39ns
ST_3: sum_i [1/1] 0.00ns
.preheader21:0  %sum_i = phi float [ %sum_3, %1 ], [ 0.000000e+00, %.loopexit ]

ST_3: i_i [1/1] 0.00ns
.preheader21:1  %i_i = phi i2 [ %i_1, %1 ], [ 0, %.loopexit ]

ST_3: exitcond_i [1/1] 1.47ns
.preheader21:2  %exitcond_i = icmp eq i2 %i_i, -2

ST_3: empty_4 [1/1] 0.00ns
.preheader21:3  %empty_4 = call i32 (...)* @_ssdm_op_SpecLoopTripCount(i64 2, i64 2, i64 2) nounwind

ST_3: i_1 [1/1] 0.70ns
.preheader21:4  %i_1 = add i2 %i_i, 1

ST_3: stg_111 [1/1] 0.00ns
.preheader21:5  br i1 %exitcond_i, label %predict.exit, label %1

ST_3: tmp_2_i [1/1] 0.00ns
:0  %tmp_2_i = zext i2 %i_i to i64

ST_3: pX_addr_3 [1/1] 0.00ns
:1  %pX_addr_3 = getelementptr [2 x float]* %pX, i64 0, i64 %tmp_2_i

ST_3: pX_load_3 [2/2] 2.39ns
:2  %pX_load_3 = load float* %pX_addr_3, align 4

ST_3: weights_addr_1 [1/1] 0.00ns
:3  %weights_addr_1 = getelementptr inbounds [3 x float]* @weights, i64 0, i64 %tmp_2_i

ST_3: weights_load_5 [2/2] 2.39ns
:4  %weights_load_5 = load float* %weights_addr_1, align 4

ST_3: weights_load_4 [2/2] 2.39ns
predict.exit:0  %weights_load_4 = load float* getelementptr inbounds ([3 x float]* @weights, i64 0, i64 2), align 4


 <State 4>: 2.39ns
ST_4: pX_load_3 [1/2] 2.39ns
:2  %pX_load_3 = load float* %pX_addr_3, align 4

ST_4: weights_load_5 [1/2] 2.39ns
:4  %weights_load_5 = load float* %weights_addr_1, align 4


 <State 5>: 3.66ns
ST_5: tmp_3_i [5/5] 3.66ns
:5  %tmp_3_i = fmul float %pX_load_3, %weights_load_5


 <State 6>: 3.66ns
ST_6: tmp_3_i [4/5] 3.66ns
:5  %tmp_3_i = fmul float %pX_load_3, %weights_load_5


 <State 7>: 3.66ns
ST_7: tmp_3_i [3/5] 3.66ns
:5  %tmp_3_i = fmul float %pX_load_3, %weights_load_5


 <State 8>: 3.66ns
ST_8: tmp_3_i [2/5] 3.66ns
:5  %tmp_3_i = fmul float %pX_load_3, %weights_load_5


 <State 9>: 3.66ns
ST_9: tmp_3_i [1/5] 3.66ns
:5  %tmp_3_i = fmul float %pX_load_3, %weights_load_5


 <State 10>: 4.48ns
ST_10: sum_3 [9/9] 4.48ns
:6  %sum_3 = fadd float %sum_i, %tmp_3_i


 <State 11>: 3.51ns
ST_11: sum_3 [8/9] 3.51ns
:6  %sum_3 = fadd float %sum_i, %tmp_3_i


 <State 12>: 3.51ns
ST_12: sum_3 [7/9] 3.51ns
:6  %sum_3 = fadd float %sum_i, %tmp_3_i


 <State 13>: 3.51ns
ST_13: sum_3 [6/9] 3.51ns
:6  %sum_3 = fadd float %sum_i, %tmp_3_i


 <State 14>: 3.51ns
ST_14: sum_3 [5/9] 3.51ns
:6  %sum_3 = fadd float %sum_i, %tmp_3_i


 <State 15>: 3.51ns
ST_15: sum_3 [4/9] 3.51ns
:6  %sum_3 = fadd float %sum_i, %tmp_3_i


 <State 16>: 3.51ns
ST_16: sum_3 [3/9] 3.51ns
:6  %sum_3 = fadd float %sum_i, %tmp_3_i


 <State 17>: 3.51ns
ST_17: sum_3 [2/9] 3.51ns
:6  %sum_3 = fadd float %sum_i, %tmp_3_i


 <State 18>: 3.51ns
ST_18: sum_3 [1/9] 3.51ns
:6  %sum_3 = fadd float %sum_i, %tmp_3_i

ST_18: stg_134 [1/1] 0.00ns
:7  br label %.preheader21


 <State 19>: 2.39ns
ST_19: weights_load_4 [1/2] 2.39ns
predict.exit:0  %weights_load_4 = load float* getelementptr inbounds ([3 x float]* @weights, i64 0, i64 2), align 4


 <State 20>: 4.48ns
ST_20: sum_2 [9/9] 4.48ns
predict.exit:1  %sum_2 = fadd float %sum_i, %weights_load_4


 <State 21>: 3.51ns
ST_21: sum_2 [8/9] 3.51ns
predict.exit:1  %sum_2 = fadd float %sum_i, %weights_load_4


 <State 22>: 3.51ns
ST_22: sum_2 [7/9] 3.51ns
predict.exit:1  %sum_2 = fadd float %sum_i, %weights_load_4


 <State 23>: 3.51ns
ST_23: sum_2 [6/9] 3.51ns
predict.exit:1  %sum_2 = fadd float %sum_i, %weights_load_4


 <State 24>: 3.51ns
ST_24: sum_2 [5/9] 3.51ns
predict.exit:1  %sum_2 = fadd float %sum_i, %weights_load_4


 <State 25>: 3.51ns
ST_25: sum_2 [4/9] 3.51ns
predict.exit:1  %sum_2 = fadd float %sum_i, %weights_load_4


 <State 26>: 3.51ns
ST_26: sum_2 [3/9] 3.51ns
predict.exit:1  %sum_2 = fadd float %sum_i, %weights_load_4


 <State 27>: 3.51ns
ST_27: sum_2 [2/9] 3.51ns
predict.exit:1  %sum_2 = fadd float %sum_i, %weights_load_4


 <State 28>: 3.51ns
ST_28: sum_2 [1/9] 3.51ns
predict.exit:1  %sum_2 = fadd float %sum_i, %weights_load_4


 <State 29>: 4.25ns
ST_29: sum_2_to_int [1/1] 0.00ns
predict.exit:2  %sum_2_to_int = bitcast float %sum_2 to i32

ST_29: tmp_8 [1/1] 0.00ns
predict.exit:3  %tmp_8 = call i8 @_ssdm_op_PartSelect.i8.i32.i32.i32(i32 %sum_2_to_int, i32 23, i32 30)

ST_29: tmp_9 [1/1] 0.00ns
predict.exit:4  %tmp_9 = trunc i32 %sum_2_to_int to i23

ST_29: notlhs [1/1] 1.99ns
predict.exit:5  %notlhs = icmp ne i8 %tmp_8, -1

ST_29: notrhs [1/1] 2.45ns
predict.exit:6  %notrhs = icmp eq i23 %tmp_9, 0

ST_29: tmp_10 [1/1] 1.15ns
predict.exit:7  %tmp_10 = or i1 %notrhs, %notlhs

ST_29: tmp_11 [2/2] 4.25ns
predict.exit:8  %tmp_11 = fcmp oge float %sum_2, 0.000000e+00


 <State 30>: 4.25ns
ST_30: tmp_11 [1/2] 4.25ns
predict.exit:8  %tmp_11 = fcmp oge float %sum_2, 0.000000e+00


 <State 31>: 2.30ns
ST_31: tmp_12 [1/1] 1.15ns
predict.exit:9  %tmp_12 = and i1 %tmp_10, %tmp_11

ST_31: prediction [1/1] 1.15ns
predict.exit:10  %prediction = select i1 %tmp_12, float 1.000000e+00, float -1.000000e+00


 <State 32>: 4.48ns
ST_32: tmp_1 [9/9] 4.48ns
predict.exit:11  %tmp_1 = fsub float %pY_read, %prediction


 <State 33>: 3.51ns
ST_33: tmp_1 [8/9] 3.51ns
predict.exit:11  %tmp_1 = fsub float %pY_read, %prediction


 <State 34>: 3.51ns
ST_34: tmp_1 [7/9] 3.51ns
predict.exit:11  %tmp_1 = fsub float %pY_read, %prediction


 <State 35>: 3.51ns
ST_35: tmp_1 [6/9] 3.51ns
predict.exit:11  %tmp_1 = fsub float %pY_read, %prediction


 <State 36>: 3.51ns
ST_36: tmp_1 [5/9] 3.51ns
predict.exit:11  %tmp_1 = fsub float %pY_read, %prediction


 <State 37>: 3.51ns
ST_37: tmp_1 [4/9] 3.51ns
predict.exit:11  %tmp_1 = fsub float %pY_read, %prediction


 <State 38>: 3.51ns
ST_38: tmp_1 [3/9] 3.51ns
predict.exit:11  %tmp_1 = fsub float %pY_read, %prediction

ST_38: pX_addr [1/1] 0.00ns
predict.exit:12  %pX_addr = getelementptr [2 x float]* %pX, i64 0, i64 0

ST_38: pX_load [2/2] 2.39ns
predict.exit:13  %pX_load = load float* %pX_addr, align 4


 <State 39>: 3.51ns
ST_39: tmp_1 [2/9] 3.51ns
predict.exit:11  %tmp_1 = fsub float %pY_read, %prediction

ST_39: pX_load [1/2] 2.39ns
predict.exit:13  %pX_load = load float* %pX_addr, align 4

ST_39: pX_addr_1 [1/1] 0.00ns
predict.exit:18  %pX_addr_1 = getelementptr [2 x float]* %pX, i64 0, i64 1

ST_39: pX_load_1 [2/2] 2.39ns
predict.exit:19  %pX_load_1 = load float* %pX_addr_1, align 4


 <State 40>: 3.51ns
ST_40: tmp_1 [1/9] 3.51ns
predict.exit:11  %tmp_1 = fsub float %pY_read, %prediction

ST_40: pX_load_1 [1/2] 2.39ns
predict.exit:19  %pX_load_1 = load float* %pX_addr_1, align 4


 <State 41>: 4.48ns
ST_41: tmp_s [5/5] 3.66ns
predict.exit:14  %tmp_s = fmul float %tmp_1, %pX_load

ST_41: tmp_4_1 [5/5] 3.66ns
predict.exit:20  %tmp_4_1 = fmul float %tmp_1, %pX_load_1

ST_41: tmp_2 [9/9] 4.48ns
predict.exit:24  %tmp_2 = fadd float %weights_load_4, %tmp_1


 <State 42>: 3.66ns
ST_42: tmp_s [4/5] 3.66ns
predict.exit:14  %tmp_s = fmul float %tmp_1, %pX_load

ST_42: tmp_4_1 [4/5] 3.66ns
predict.exit:20  %tmp_4_1 = fmul float %tmp_1, %pX_load_1

ST_42: tmp_2 [8/9] 3.51ns
predict.exit:24  %tmp_2 = fadd float %weights_load_4, %tmp_1


 <State 43>: 3.66ns
ST_43: tmp_s [3/5] 3.66ns
predict.exit:14  %tmp_s = fmul float %tmp_1, %pX_load

ST_43: tmp_4_1 [3/5] 3.66ns
predict.exit:20  %tmp_4_1 = fmul float %tmp_1, %pX_load_1

ST_43: tmp_2 [7/9] 3.51ns
predict.exit:24  %tmp_2 = fadd float %weights_load_4, %tmp_1


 <State 44>: 3.66ns
ST_44: tmp_s [2/5] 3.66ns
predict.exit:14  %tmp_s = fmul float %tmp_1, %pX_load

ST_44: weights_load_2 [2/2] 2.39ns
predict.exit:15  %weights_load_2 = load float* getelementptr inbounds ([3 x float]* @weights, i64 0, i64 0), align 4

ST_44: tmp_4_1 [2/5] 3.66ns
predict.exit:20  %tmp_4_1 = fmul float %tmp_1, %pX_load_1

ST_44: weights_load_3 [2/2] 2.39ns
predict.exit:21  %weights_load_3 = load float* getelementptr inbounds ([3 x float]* @weights, i64 0, i64 1), align 4

ST_44: tmp_2 [6/9] 3.51ns
predict.exit:24  %tmp_2 = fadd float %weights_load_4, %tmp_1


 <State 45>: 3.66ns
ST_45: tmp_s [1/5] 3.66ns
predict.exit:14  %tmp_s = fmul float %tmp_1, %pX_load

ST_45: weights_load_2 [1/2] 2.39ns
predict.exit:15  %weights_load_2 = load float* getelementptr inbounds ([3 x float]* @weights, i64 0, i64 0), align 4

ST_45: tmp_4_1 [1/5] 3.66ns
predict.exit:20  %tmp_4_1 = fmul float %tmp_1, %pX_load_1

ST_45: weights_load_3 [1/2] 2.39ns
predict.exit:21  %weights_load_3 = load float* getelementptr inbounds ([3 x float]* @weights, i64 0, i64 1), align 4

ST_45: tmp_2 [5/9] 3.51ns
predict.exit:24  %tmp_2 = fadd float %weights_load_4, %tmp_1


 <State 46>: 4.48ns
ST_46: tmp_3 [9/9] 4.48ns
predict.exit:16  %tmp_3 = fadd float %weights_load_2, %tmp_s

ST_46: tmp_5_1 [9/9] 3.51ns
predict.exit:22  %tmp_5_1 = fadd float %weights_load_3, %tmp_4_1

ST_46: tmp_2 [4/9] 3.51ns
predict.exit:24  %tmp_2 = fadd float %weights_load_4, %tmp_1


 <State 47>: 3.51ns
ST_47: tmp_3 [8/9] 3.51ns
predict.exit:16  %tmp_3 = fadd float %weights_load_2, %tmp_s

ST_47: tmp_5_1 [8/9] 3.51ns
predict.exit:22  %tmp_5_1 = fadd float %weights_load_3, %tmp_4_1

ST_47: tmp_2 [3/9] 3.51ns
predict.exit:24  %tmp_2 = fadd float %weights_load_4, %tmp_1


 <State 48>: 3.51ns
ST_48: tmp_3 [7/9] 3.51ns
predict.exit:16  %tmp_3 = fadd float %weights_load_2, %tmp_s

ST_48: tmp_5_1 [7/9] 3.51ns
predict.exit:22  %tmp_5_1 = fadd float %weights_load_3, %tmp_4_1

ST_48: tmp_2 [2/9] 3.51ns
predict.exit:24  %tmp_2 = fadd float %weights_load_4, %tmp_1


 <State 49>: 3.51ns
ST_49: tmp_3 [6/9] 3.51ns
predict.exit:16  %tmp_3 = fadd float %weights_load_2, %tmp_s

ST_49: tmp_5_1 [6/9] 3.51ns
predict.exit:22  %tmp_5_1 = fadd float %weights_load_3, %tmp_4_1

ST_49: tmp_2 [1/9] 3.51ns
predict.exit:24  %tmp_2 = fadd float %weights_load_4, %tmp_1


 <State 50>: 3.51ns
ST_50: tmp_3 [5/9] 3.51ns
predict.exit:16  %tmp_3 = fadd float %weights_load_2, %tmp_s

ST_50: tmp_5_1 [5/9] 3.51ns
predict.exit:22  %tmp_5_1 = fadd float %weights_load_3, %tmp_4_1

ST_50: stg_203 [1/1] 2.39ns
predict.exit:25  store float %tmp_2, float* getelementptr inbounds ([3 x float]* @weights, i64 0, i64 2), align 4


 <State 51>: 3.51ns
ST_51: tmp_3 [4/9] 3.51ns
predict.exit:16  %tmp_3 = fadd float %weights_load_2, %tmp_s

ST_51: tmp_5_1 [4/9] 3.51ns
predict.exit:22  %tmp_5_1 = fadd float %weights_load_3, %tmp_4_1


 <State 52>: 3.51ns
ST_52: tmp_3 [3/9] 3.51ns
predict.exit:16  %tmp_3 = fadd float %weights_load_2, %tmp_s

ST_52: tmp_5_1 [3/9] 3.51ns
predict.exit:22  %tmp_5_1 = fadd float %weights_load_3, %tmp_4_1


 <State 53>: 3.51ns
ST_53: tmp_3 [2/9] 3.51ns
predict.exit:16  %tmp_3 = fadd float %weights_load_2, %tmp_s

ST_53: tmp_5_1 [2/9] 3.51ns
predict.exit:22  %tmp_5_1 = fadd float %weights_load_3, %tmp_4_1


 <State 54>: 3.51ns
ST_54: tmp_3 [1/9] 3.51ns
predict.exit:16  %tmp_3 = fadd float %weights_load_2, %tmp_s

ST_54: tmp_5_1 [1/9] 3.51ns
predict.exit:22  %tmp_5_1 = fadd float %weights_load_3, %tmp_4_1


 <State 55>: 2.39ns
ST_55: stg_212 [1/1] 2.39ns
predict.exit:17  store float %tmp_3, float* getelementptr inbounds ([3 x float]* @weights, i64 0, i64 0), align 4

ST_55: stg_213 [1/1] 2.39ns
predict.exit:23  store float %tmp_5_1, float* getelementptr inbounds ([3 x float]* @weights, i64 0, i64 1), align 4

ST_55: stg_214 [1/1] 1.31ns
predict.exit:26  br label %3

ST_55: p_0 [1/1] 0.00ns
:0  %p_0 = phi float [ %tmp_1_i1, %predict.exit20 ], [ %pY_read, %predict.exit ]

ST_55: stg_216 [1/1] 0.00ns
:1  ret float %p_0


 <State 56>: 2.39ns
ST_56: sum_i5 [1/1] 0.00ns
.preheader:0  %sum_i5 = phi float [ %sum_1, %2 ], [ 0.000000e+00, %.loopexit ]

ST_56: i_i6 [1/1] 0.00ns
.preheader:1  %i_i6 = phi i2 [ %i, %2 ], [ 0, %.loopexit ]

ST_56: exitcond_i7 [1/1] 1.47ns
.preheader:2  %exitcond_i7 = icmp eq i2 %i_i6, -2

ST_56: empty_5 [1/1] 0.00ns
.preheader:3  %empty_5 = call i32 (...)* @_ssdm_op_SpecLoopTripCount(i64 2, i64 2, i64 2) nounwind

ST_56: i [1/1] 0.70ns
.preheader:4  %i = add i2 %i_i6, 1

ST_56: stg_222 [1/1] 0.00ns
.preheader:5  br i1 %exitcond_i7, label %predict.exit20, label %2

ST_56: tmp_2_i8 [1/1] 0.00ns
:0  %tmp_2_i8 = zext i2 %i_i6 to i64

ST_56: pX_addr_2 [1/1] 0.00ns
:1  %pX_addr_2 = getelementptr [2 x float]* %pX, i64 0, i64 %tmp_2_i8

ST_56: pX_load_2 [2/2] 2.39ns
:2  %pX_load_2 = load float* %pX_addr_2, align 4

ST_56: weights_addr [1/1] 0.00ns
:3  %weights_addr = getelementptr inbounds [3 x float]* @weights, i64 0, i64 %tmp_2_i8

ST_56: weights_load_1 [2/2] 2.39ns
:4  %weights_load_1 = load float* %weights_addr, align 4

ST_56: weights_load [2/2] 2.39ns
predict.exit20:0  %weights_load = load float* getelementptr inbounds ([3 x float]* @weights, i64 0, i64 2), align 4


 <State 57>: 2.39ns
ST_57: pX_load_2 [1/2] 2.39ns
:2  %pX_load_2 = load float* %pX_addr_2, align 4

ST_57: weights_load_1 [1/2] 2.39ns
:4  %weights_load_1 = load float* %weights_addr, align 4


 <State 58>: 3.66ns
ST_58: tmp_3_i1 [5/5] 3.66ns
:5  %tmp_3_i1 = fmul float %pX_load_2, %weights_load_1


 <State 59>: 3.66ns
ST_59: tmp_3_i1 [4/5] 3.66ns
:5  %tmp_3_i1 = fmul float %pX_load_2, %weights_load_1


 <State 60>: 3.66ns
ST_60: tmp_3_i1 [3/5] 3.66ns
:5  %tmp_3_i1 = fmul float %pX_load_2, %weights_load_1


 <State 61>: 3.66ns
ST_61: tmp_3_i1 [2/5] 3.66ns
:5  %tmp_3_i1 = fmul float %pX_load_2, %weights_load_1


 <State 62>: 3.66ns
ST_62: tmp_3_i1 [1/5] 3.66ns
:5  %tmp_3_i1 = fmul float %pX_load_2, %weights_load_1


 <State 63>: 4.48ns
ST_63: sum_1 [9/9] 4.48ns
:6  %sum_1 = fadd float %sum_i5, %tmp_3_i1


 <State 64>: 3.51ns
ST_64: sum_1 [8/9] 3.51ns
:6  %sum_1 = fadd float %sum_i5, %tmp_3_i1


 <State 65>: 3.51ns
ST_65: sum_1 [7/9] 3.51ns
:6  %sum_1 = fadd float %sum_i5, %tmp_3_i1


 <State 66>: 3.51ns
ST_66: sum_1 [6/9] 3.51ns
:6  %sum_1 = fadd float %sum_i5, %tmp_3_i1


 <State 67>: 3.51ns
ST_67: sum_1 [5/9] 3.51ns
:6  %sum_1 = fadd float %sum_i5, %tmp_3_i1


 <State 68>: 3.51ns
ST_68: sum_1 [4/9] 3.51ns
:6  %sum_1 = fadd float %sum_i5, %tmp_3_i1


 <State 69>: 3.51ns
ST_69: sum_1 [3/9] 3.51ns
:6  %sum_1 = fadd float %sum_i5, %tmp_3_i1


 <State 70>: 3.51ns
ST_70: sum_1 [2/9] 3.51ns
:6  %sum_1 = fadd float %sum_i5, %tmp_3_i1


 <State 71>: 3.51ns
ST_71: sum_1 [1/9] 3.51ns
:6  %sum_1 = fadd float %sum_i5, %tmp_3_i1

ST_71: stg_245 [1/1] 0.00ns
:7  br label %.preheader


 <State 72>: 2.39ns
ST_72: weights_load [1/2] 2.39ns
predict.exit20:0  %weights_load = load float* getelementptr inbounds ([3 x float]* @weights, i64 0, i64 2), align 4


 <State 73>: 4.48ns
ST_73: sum [9/9] 4.48ns
predict.exit20:1  %sum = fadd float %sum_i5, %weights_load


 <State 74>: 3.51ns
ST_74: sum [8/9] 3.51ns
predict.exit20:1  %sum = fadd float %sum_i5, %weights_load


 <State 75>: 3.51ns
ST_75: sum [7/9] 3.51ns
predict.exit20:1  %sum = fadd float %sum_i5, %weights_load


 <State 76>: 3.51ns
ST_76: sum [6/9] 3.51ns
predict.exit20:1  %sum = fadd float %sum_i5, %weights_load


 <State 77>: 3.51ns
ST_77: sum [5/9] 3.51ns
predict.exit20:1  %sum = fadd float %sum_i5, %weights_load


 <State 78>: 3.51ns
ST_78: sum [4/9] 3.51ns
predict.exit20:1  %sum = fadd float %sum_i5, %weights_load


 <State 79>: 3.51ns
ST_79: sum [3/9] 3.51ns
predict.exit20:1  %sum = fadd float %sum_i5, %weights_load


 <State 80>: 3.51ns
ST_80: sum [2/9] 3.51ns
predict.exit20:1  %sum = fadd float %sum_i5, %weights_load


 <State 81>: 3.51ns
ST_81: sum [1/9] 3.51ns
predict.exit20:1  %sum = fadd float %sum_i5, %weights_load


 <State 82>: 4.25ns
ST_82: sum_to_int [1/1] 0.00ns
predict.exit20:2  %sum_to_int = bitcast float %sum to i32

ST_82: tmp [1/1] 0.00ns
predict.exit20:3  %tmp = call i8 @_ssdm_op_PartSelect.i8.i32.i32.i32(i32 %sum_to_int, i32 23, i32 30)

ST_82: tmp_4 [1/1] 0.00ns
predict.exit20:4  %tmp_4 = trunc i32 %sum_to_int to i23

ST_82: notlhs4 [1/1] 1.99ns
predict.exit20:5  %notlhs4 = icmp ne i8 %tmp, -1

ST_82: notrhs5 [1/1] 2.45ns
predict.exit20:6  %notrhs5 = icmp eq i23 %tmp_4, 0

ST_82: tmp_5 [1/1] 1.15ns
predict.exit20:7  %tmp_5 = or i1 %notrhs5, %notlhs4

ST_82: tmp_6 [2/2] 4.25ns
predict.exit20:8  %tmp_6 = fcmp oge float %sum, 0.000000e+00


 <State 83>: 4.25ns
ST_83: tmp_6 [1/2] 4.25ns
predict.exit20:8  %tmp_6 = fcmp oge float %sum, 0.000000e+00


 <State 84>: 3.61ns
ST_84: tmp_7 [1/1] 1.15ns
predict.exit20:9  %tmp_7 = and i1 %tmp_5, %tmp_6

ST_84: tmp_1_i1 [1/1] 1.15ns
predict.exit20:10  %tmp_1_i1 = select i1 %tmp_7, float 1.000000e+00, float -1.000000e+00

ST_84: stg_266 [1/1] 1.31ns
predict.exit20:11  br label %3



============================================================
+ Verbose Summary: Binding
============================================================
STG Binding: 
---------------- STG Properties BEGIN ----------------
- Is combinational: 0
- Is one-state seq: 0
- Is datapath-only: 0
- Is clock enabled: 0
- Is pipelined: 0
- Is top level: 1
Port [ Return ] is wired: 1; IO mode=ap_ctrl_hs:ce=0
Port [ pX]:  wired=1; compound=1; hidden=0; nouse=0; global=0; static=0; extern=0; dir=0; type=1; mode=0x7fad5eca0db0; pingpong=0; private_global=0; MemPort=[1]; IO mode=ap_memory:ce=0
Port [ pY]:  wired=1; compound=0; hidden=0; nouse=0; global=0; static=0; extern=0; dir=0; type=0; mode=0x7fad5eba8030; pingpong=0; private_global=0; IO mode=ap_none:ce=0
Port [ pPredict]:  wired=1; compound=0; hidden=0; nouse=0; global=0; static=0; extern=0; dir=0; type=0; mode=0x7fad5eb663c0; pingpong=0; private_global=0; IO mode=ap_none:ce=0
Port [ pReset]:  wired=1; compound=0; hidden=0; nouse=0; global=0; static=0; extern=0; dir=0; type=0; mode=0x7fad5ee05930; pingpong=0; private_global=0; IO mode=ap_none:ce=0
Port [ weights]:  wired=0; compound=1; hidden=1; nouse=0; global=1; static=0; extern=0; dir=2; type=1; mode=0x7fad5ed95960; pingpong=0; private_global=1; linkage=0; visibility=0; MemPort=[22]; IO mode=ap_memory:ce=0
---------------- STG Properties END ------------------

---------------- Datapath Model BEGIN ----------------

<LifeTime>
<method=bitvector/>
stg_85         (specbitsmap      ) [ 0000000000000000000000000000000000000000000000000000000000000000000000000000000000000]
stg_86         (specbitsmap      ) [ 0000000000000000000000000000000000000000000000000000000000000000000000000000000000000]
stg_87         (specbitsmap      ) [ 0000000000000000000000000000000000000000000000000000000000000000000000000000000000000]
stg_88         (specbitsmap      ) [ 0000000000000000000000000000000000000000000000000000000000000000000000000000000000000]
stg_89         (specbitsmap      ) [ 0000000000000000000000000000000000000000000000000000000000000000000000000000000000000]
stg_90         (spectopmodule    ) [ 0000000000000000000000000000000000000000000000000000000000000000000000000000000000000]
pReset_read    (read             ) [ 0110000000000000000000000000000000000000000000000000000000000000000000000000000000000]
pPredict_read  (read             ) [ 0011111111111111111111111111111111111111111111111111111111111111111111111111111111111]
pY_read        (read             ) [ 0011111111111111111111111111111111111111111111111111111111111111111111111111111111111]
empty          (specmemcore      ) [ 0000000000000000000000000000000000000000000000000000000000000000000000000000000000000]
stg_95         (specinterface    ) [ 0000000000000000000000000000000000000000000000000000000000000000000000000000000000000]
stg_96         (specinterface    ) [ 0000000000000000000000000000000000000000000000000000000000000000000000000000000000000]
stg_97         (specinterface    ) [ 0000000000000000000000000000000000000000000000000000000000000000000000000000000000000]
stg_98         (specinterface    ) [ 0000000000000000000000000000000000000000000000000000000000000000000000000000000000000]
stg_99         (specinterface    ) [ 0000000000000000000000000000000000000000000000000000000000000000000000000000000000000]
stg_100        (br               ) [ 0000000000000000000000000000000000000000000000000000000000000000000000000000000000000]
stg_101        (store            ) [ 0000000000000000000000000000000000000000000000000000000000000000000000000000000000000]
stg_102        (store            ) [ 0000000000000000000000000000000000000000000000000000000000000000000000000000000000000]
stg_103        (store            ) [ 0000000000000000000000000000000000000000000000000000000000000000000000000000000000000]
stg_104        (br               ) [ 0000000000000000000000000000000000000000000000000000000000000000000000000000000000000]
stg_105        (br               ) [ 0011111111111111111000000000000000000000000000000000000011111111111111110000000000000]
sum_i          (phi              ) [ 0001111111111111111111111111100000000000000000000000000000000000000000000000000000000]
i_i            (phi              ) [ 0001000000000000000000000000000000000000000000000000000000000000000000000000000000000]
exitcond_i     (icmp             ) [ 0001111111111111111000000000000000000000000000000000000000000000000000000000000000000]
empty_4        (speclooptripcount) [ 0000000000000000000000000000000000000000000000000000000000000000000000000000000000000]
i_1            (add              ) [ 0011111111111111111000000000000000000000000000000000000000000000000000000000000000000]
stg_111        (br               ) [ 0000000000000000000000000000000000000000000000000000000000000000000000000000000000000]
tmp_2_i        (zext             ) [ 0000000000000000000000000000000000000000000000000000000000000000000000000000000000000]
pX_addr_3      (getelementptr    ) [ 0000100000000000000000000000000000000000000000000000000000000000000000000000000000000]
weights_addr_1 (getelementptr    ) [ 0000100000000000000000000000000000000000000000000000000000000000000000000000000000000]
pX_load_3      (load             ) [ 0000011111000000000000000000000000000000000000000000000000000000000000000000000000000]
weights_load_5 (load             ) [ 0000011111000000000000000000000000000000000000000000000000000000000000000000000000000]
tmp_3_i        (fmul             ) [ 0000000000111111111000000000000000000000000000000000000000000000000000000000000000000]
sum_3          (fadd             ) [ 0011111111111111111000000000000000000000000000000000000000000000000000000000000000000]
stg_134        (br               ) [ 0011111111111111111000000000000000000000000000000000000000000000000000000000000000000]
weights_load_4 (load             ) [ 0000000000000000000011111111111111111111111111111100000000000000000000000000000000000]
sum_2          (fadd             ) [ 0000000000000000000000000000011000000000000000000000000000000000000000000000000000000]
sum_2_to_int   (bitcast          ) [ 0000000000000000000000000000000000000000000000000000000000000000000000000000000000000]
tmp_8          (partselect       ) [ 0000000000000000000000000000000000000000000000000000000000000000000000000000000000000]
tmp_9          (trunc            ) [ 0000000000000000000000000000000000000000000000000000000000000000000000000000000000000]
notlhs         (icmp             ) [ 0000000000000000000000000000000000000000000000000000000000000000000000000000000000000]
notrhs         (icmp             ) [ 0000000000000000000000000000000000000000000000000000000000000000000000000000000000000]
tmp_10         (or               ) [ 0000000000000000000000000000001100000000000000000000000000000000000000000000000000000]
tmp_11         (fcmp             ) [ 0000000000000000000000000000000100000000000000000000000000000000000000000000000000000]
tmp_12         (and              ) [ 0000000000000000000000000000000000000000000000000000000000000000000000000000000000000]
prediction     (select           ) [ 0000000000000000000000000000000011111111100000000000000000000000000000000000000000000]
pX_addr        (getelementptr    ) [ 0000000000000000000000000000000000000001000000000000000000000000000000000000000000000]
pX_load        (load             ) [ 0000000000000000000000000000000000000000111111000000000000000000000000000000000000000]
pX_addr_1      (getelementptr    ) [ 0000000000000000000000000000000000000000100000000000000000000000000000000000000000000]
tmp_1          (fsub             ) [ 0000000000000000000000000000000000000000011111111100000000000000000000000000000000000]
pX_load_1      (load             ) [ 0000000000000000000000000000000000000000011111000000000000000000000000000000000000000]
tmp_s          (fmul             ) [ 0000000000000000000000000000000000000000000000111111111000000000000000000000000000000]
weights_load_2 (load             ) [ 0000000000000000000000000000000000000000000000111111111000000000000000000000000000000]
tmp_4_1        (fmul             ) [ 0000000000000000000000000000000000000000000000111111111000000000000000000000000000000]
weights_load_3 (load             ) [ 0000000000000000000000000000000000000000000000111111111000000000000000000000000000000]
tmp_2          (fadd             ) [ 0000000000000000000000000000000000000000000000000010000000000000000000000000000000000]
stg_203        (store            ) [ 0000000000000000000000000000000000000000000000000000000000000000000000000000000000000]
tmp_3          (fadd             ) [ 0000000000000000000000000000000000000000000000000000000100000000000000000000000000000]
tmp_5_1        (fadd             ) [ 0000000000000000000000000000000000000000000000000000000100000000000000000000000000000]
stg_212        (store            ) [ 0000000000000000000000000000000000000000000000000000000000000000000000000000000000000]
stg_213        (store            ) [ 0000000000000000000000000000000000000000000000000000000000000000000000000000000000000]
stg_214        (br               ) [ 0000000000000000000000000000000000000000000000000000000000000000000000000000000000000]
p_0            (phi              ) [ 0000000000000000000000000000000000000000000000000000000100000000000000000000000000000]
stg_216        (ret              ) [ 0000000000000000000000000000000000000000000000000000000000000000000000000000000000000]
sum_i5         (phi              ) [ 0000000000000000000000000000000000000000000000000000000011111111111111111111111111000]
i_i6           (phi              ) [ 0000000000000000000000000000000000000000000000000000000010000000000000000000000000000]
exitcond_i7    (icmp             ) [ 0000000000000000000000000000000000000000000000000000000011111111111111110000000000000]
empty_5        (speclooptripcount) [ 0000000000000000000000000000000000000000000000000000000000000000000000000000000000000]
i              (add              ) [ 0010000000000000000000000000000000000000000000000000000011111111111111110000000000000]
stg_222        (br               ) [ 0000000000000000000000000000000000000000000000000000000000000000000000000000000000000]
tmp_2_i8       (zext             ) [ 0000000000000000000000000000000000000000000000000000000000000000000000000000000000000]
pX_addr_2      (getelementptr    ) [ 0000000000000000000000000000000000000000000000000000000001000000000000000000000000000]
weights_addr   (getelementptr    ) [ 0000000000000000000000000000000000000000000000000000000001000000000000000000000000000]
pX_load_2      (load             ) [ 0000000000000000000000000000000000000000000000000000000000111110000000000000000000000]
weights_load_1 (load             ) [ 0000000000000000000000000000000000000000000000000000000000111110000000000000000000000]
tmp_3_i1       (fmul             ) [ 0000000000000000000000000000000000000000000000000000000000000001111111110000000000000]
sum_1          (fadd             ) [ 0010000000000000000000000000000000000000000000000000000011111111111111110000000000000]
stg_245        (br               ) [ 0010000000000000000000000000000000000000000000000000000011111111111111110000000000000]
weights_load   (load             ) [ 0000000000000000000000000000000000000000000000000000000000000000000000000111111111000]
sum            (fadd             ) [ 0000000000000000000000000000000000000000000000000000000000000000000000000000000000110]
sum_to_int     (bitcast          ) [ 0000000000000000000000000000000000000000000000000000000000000000000000000000000000000]
tmp            (partselect       ) [ 0000000000000000000000000000000000000000000000000000000000000000000000000000000000000]
tmp_4          (trunc            ) [ 0000000000000000000000000000000000000000000000000000000000000000000000000000000000000]
notlhs4        (icmp             ) [ 0000000000000000000000000000000000000000000000000000000000000000000000000000000000000]
notrhs5        (icmp             ) [ 0000000000000000000000000000000000000000000000000000000000000000000000000000000000000]
tmp_5          (or               ) [ 0000000000000000000000000000000000000000000000000000000000000000000000000000000000011]
tmp_6          (fcmp             ) [ 0000000000000000000000000000000000000000000000000000000000000000000000000000000000001]
tmp_7          (and              ) [ 0000000000000000000000000000000000000000000000000000000000000000000000000000000000000]
tmp_1_i1       (select           ) [ 0000000000000000000000000000000000000000000000000000000100000000000000000000000000001]
stg_266        (br               ) [ 0000000000000000000000000000000000000000000000000000000100000000000000000000000000001]
</LifeTime>

<model>

<comp_list>
<comp id="0" class="1000" name="pX">
<pin_list>
<pin id="1" dir="1" index="0" bw="1" slack="0"/>
</pin_list>
<bind>
<StgValue><ssdm name="pX"/><MemPortTyVec>1 </MemPortTyVec>
</StgValue>
</bind>
</comp>

<comp id="2" class="1000" name="pY">
<pin_list>
<pin id="3" dir="1" index="0" bw="1" slack="0"/>
</pin_list>
<bind>
<StgValue><ssdm name="pY"/></StgValue>
</bind>
</comp>

<comp id="4" class="1000" name="pPredict">
<pin_list>
<pin id="5" dir="1" index="0" bw="1" slack="0"/>
</pin_list>
<bind>
<StgValue><ssdm name="pPredict"/></StgValue>
</bind>
</comp>

<comp id="6" class="1000" name="pReset">
<pin_list>
<pin id="7" dir="1" index="0" bw="1" slack="0"/>
</pin_list>
<bind>
<StgValue><ssdm name="pReset"/></StgValue>
</bind>
</comp>

<comp id="8" class="1000" name="weights">
<pin_list>
<pin id="9" dir="1" index="0" bw="1" slack="0"/>
</pin_list>
<bind>
<StgValue><ssdm name="weights"/><MemPortTyVec>2 2 </MemPortTyVec>
</StgValue>
</bind>
</comp>

<comp id="10" class="1001" name="const_10">
<pin_list>
<pin id="11" dir="1" index="0" bw="1" slack="2147483647"/>
</pin_list>
<bind>
<StgValue><ssdm name="_ssdm_op_SpecBitsMap"/></StgValue>
</bind>
</comp>

<comp id="12" class="1001" name="const_12">
<pin_list>
<pin id="13" dir="1" index="0" bw="1" slack="0"/>
</pin_list>
<bind>
<StgValue><ssdm name=""/></StgValue>
</bind>
</comp>

<comp id="14" class="1001" name="const_14">
<pin_list>
<pin id="15" dir="1" index="0" bw="1" slack="2147483647"/>
</pin_list>
<bind>
<StgValue><ssdm name="_ssdm_op_SpecTopModule"/></StgValue>
</bind>
</comp>

<comp id="16" class="1001" name="const_16">
<pin_list>
<pin id="17" dir="1" index="0" bw="1" slack="2147483647"/>
</pin_list>
<bind>
<StgValue><ssdm name="dummy_algorithm_str"/></StgValue>
</bind>
</comp>

<comp id="18" class="1001" name="const_18">
<pin_list>
<pin id="19" dir="1" index="0" bw="1" slack="0"/>
</pin_list>
<bind>
<StgValue><ssdm name="_ssdm_op_Read.s_axilite.i1"/></StgValue>
</bind>
</comp>

<comp id="20" class="1001" name="const_20">
<pin_list>
<pin id="21" dir="1" index="0" bw="1" slack="0"/>
</pin_list>
<bind>
<StgValue><ssdm name="_ssdm_op_Read.s_axilite.float"/></StgValue>
</bind>
</comp>

<comp id="22" class="1001" name="const_22">
<pin_list>
<pin id="23" dir="1" index="0" bw="1" slack="2147483647"/>
</pin_list>
<bind>
<StgValue><ssdm name="_ssdm_op_SpecMemCore"/></StgValue>
</bind>
</comp>

<comp id="24" class="1001" name="const_24">
<pin_list>
<pin id="25" dir="1" index="0" bw="1" slack="2147483647"/>
</pin_list>
<bind>
<StgValue><ssdm name="p_str3"/></StgValue>
</bind>
</comp>

<comp id="26" class="1001" name="const_26">
<pin_list>
<pin id="27" dir="1" index="0" bw="1" slack="2147483647"/>
</pin_list>
<bind>
<StgValue><ssdm name="RAM_1P_str"/></StgValue>
</bind>
</comp>

<comp id="28" class="1001" name="const_28">
<pin_list>
<pin id="29" dir="1" index="0" bw="1" slack="2147483647"/>
</pin_list>
<bind>
<StgValue><ssdm name=""/></StgValue>
</bind>
</comp>

<comp id="30" class="1001" name="const_30">
<pin_list>
<pin id="31" dir="1" index="0" bw="1" slack="2147483647"/>
</pin_list>
<bind>
<StgValue><ssdm name="_ssdm_op_SpecInterface"/></StgValue>
</bind>
</comp>

<comp id="32" class="1001" name="const_32">
<pin_list>
<pin id="33" dir="1" index="0" bw="1" slack="2147483647"/>
</pin_list>
<bind>
<StgValue><ssdm name="p_str"/></StgValue>
</bind>
</comp>

<comp id="34" class="1001" name="const_34">
<pin_list>
<pin id="35" dir="1" index="0" bw="1" slack="2147483647"/>
</pin_list>
<bind>
<StgValue><ssdm name=""/></StgValue>
</bind>
</comp>

<comp id="36" class="1001" name="const_36">
<pin_list>
<pin id="37" dir="1" index="0" bw="1" slack="2147483647"/>
</pin_list>
<bind>
<StgValue><ssdm name=""/></StgValue>
</bind>
</comp>

<comp id="38" class="1001" name="const_38">
<pin_list>
<pin id="39" dir="1" index="0" bw="1" slack="2147483647"/>
</pin_list>
<bind>
<StgValue><ssdm name="p_str1"/></StgValue>
</bind>
</comp>

<comp id="40" class="1001" name="const_40">
<pin_list>
<pin id="41" dir="1" index="0" bw="1" slack="0"/>
</pin_list>
<bind>
<StgValue><ssdm name=""/></StgValue>
</bind>
</comp>

<comp id="42" class="1001" name="const_42">
<pin_list>
<pin id="43" dir="1" index="0" bw="1" slack="0"/>
</pin_list>
<bind>
<StgValue><ssdm name=""/></StgValue>
</bind>
</comp>

<comp id="44" class="1001" name="const_44">
<pin_list>
<pin id="45" dir="1" index="0" bw="1" slack="0"/>
</pin_list>
<bind>
<StgValue><ssdm name=""/></StgValue>
</bind>
</comp>

<comp id="46" class="1001" name="const_46">
<pin_list>
<pin id="47" dir="1" index="0" bw="1" slack="1"/>
</pin_list>
<bind>
<StgValue><ssdm name=""/></StgValue>
</bind>
</comp>

<comp id="48" class="1001" name="const_48">
<pin_list>
<pin id="49" dir="1" index="0" bw="1" slack="0"/>
</pin_list>
<bind>
<StgValue><ssdm name=""/></StgValue>
</bind>
</comp>

<comp id="50" class="1001" name="const_50">
<pin_list>
<pin id="51" dir="1" index="0" bw="1" slack="2147483647"/>
</pin_list>
<bind>
<StgValue><ssdm name="_ssdm_op_SpecLoopTripCount"/></StgValue>
</bind>
</comp>

<comp id="52" class="1001" name="const_52">
<pin_list>
<pin id="53" dir="1" index="0" bw="1" slack="2147483647"/>
</pin_list>
<bind>
<StgValue><ssdm name=""/></StgValue>
</bind>
</comp>

<comp id="54" class="1001" name="const_54">
<pin_list>
<pin id="55" dir="1" index="0" bw="1" slack="0"/>
</pin_list>
<bind>
<StgValue><ssdm name=""/></StgValue>
</bind>
</comp>

<comp id="56" class="1001" name="const_56">
<pin_list>
<pin id="57" dir="1" index="0" bw="1" slack="0"/>
</pin_list>
<bind>
<StgValue><ssdm name=""/></StgValue>
</bind>
</comp>

<comp id="58" class="1001" name="const_58">
<pin_list>
<pin id="59" dir="1" index="0" bw="1" slack="0"/>
</pin_list>
<bind>
<StgValue><ssdm name="_ssdm_op_PartSelect.i8.i32.i32.i32"/></StgValue>
</bind>
</comp>

<comp id="60" class="1001" name="const_60">
<pin_list>
<pin id="61" dir="1" index="0" bw="1" slack="0"/>
</pin_list>
<bind>
<StgValue><ssdm name=""/></StgValue>
</bind>
</comp>

<comp id="62" class="1001" name="const_62">
<pin_list>
<pin id="63" dir="1" index="0" bw="1" slack="0"/>
</pin_list>
<bind>
<StgValue><ssdm name=""/></StgValue>
</bind>
</comp>

<comp id="64" class="1001" name="const_64">
<pin_list>
<pin id="65" dir="1" index="0" bw="1" slack="0"/>
</pin_list>
<bind>
<StgValue><ssdm name=""/></StgValue>
</bind>
</comp>

<comp id="66" class="1001" name="const_66">
<pin_list>
<pin id="67" dir="1" index="0" bw="1" slack="0"/>
</pin_list>
<bind>
<StgValue><ssdm name=""/></StgValue>
</bind>
</comp>

<comp id="68" class="1001" name="const_68">
<pin_list>
<pin id="69" dir="1" index="0" bw="1" slack="0"/>
</pin_list>
<bind>
<StgValue><ssdm name=""/></StgValue>
</bind>
</comp>

<comp id="70" class="1001" name="const_70">
<pin_list>
<pin id="71" dir="1" index="0" bw="1" slack="0"/>
</pin_list>
<bind>
<StgValue><ssdm name=""/></StgValue>
</bind>
</comp>

<comp id="72" class="1001" name="const_72">
<pin_list>
<pin id="73" dir="1" index="0" bw="1" slack="0"/>
</pin_list>
<bind>
<StgValue><ssdm name=""/></StgValue>
</bind>
</comp>

<comp id="74" class="1004" name="pReset_read_read_fu_74">
<pin_list>
<pin id="75" dir="0" index="0" bw="1" slack="0"/>
<pin id="76" dir="0" index="1" bw="1" slack="0"/>
<pin id="77" dir="1" index="2" bw="1" slack="1"/>
</pin_list>
<bind>
<opcode="read(1150) " fcode="read"/>
<opset="pReset_read/1 "/>
</bind>
</comp>

<comp id="80" class="1004" name="pPredict_read_read_fu_80">
<pin_list>
<pin id="81" dir="0" index="0" bw="1" slack="0"/>
<pin id="82" dir="0" index="1" bw="1" slack="0"/>
<pin id="83" dir="1" index="2" bw="1" slack="1"/>
</pin_list>
<bind>
<opcode="read(1150) " fcode="read"/>
<opset="pPredict_read/1 "/>
</bind>
</comp>

<comp id="86" class="1004" name="pY_read_read_fu_86">
<pin_list>
<pin id="87" dir="0" index="0" bw="32" slack="0"/>
<pin id="88" dir="0" index="1" bw="32" slack="0"/>
<pin id="89" dir="1" index="2" bw="32" slack="16"/>
</pin_list>
<bind>
<opcode="read(1150) " fcode="read"/>
<opset="pY_read/1 "/>
</bind>
</comp>

<comp id="92" class="1004" name="grp_access_fu_92">
<pin_list>
<pin id="93" dir="0" index="0" bw="32" slack="0"/>
<pin id="94" dir="0" index="1" bw="32" slack="0"/>
<pin id="99" dir="0" index="3" bw="32" slack="0"/>
<pin id="100" dir="0" index="4" bw="32" slack="0"/>
<pin id="95" dir="1" index="2" bw="32" slack="1"/>
<pin id="101" dir="1" index="5" bw="32" slack="1"/>
</pin_list>
<bind>
<opcode="load(27) store(28) " fcode="load"/>
<opset="stg_101/1 stg_102/2 stg_103/2 weights_load_5/3 weights_load_4/3 weights_load_2/44 weights_load_3/44 stg_203/50 stg_212/55 stg_213/55 weights_load_1/56 weights_load/56 "/>
</bind>
</comp>

<comp id="104" class="1004" name="pX_addr_3_gep_fu_104">
<pin_list>
<pin id="105" dir="0" index="0" bw="32" slack="0"/>
<pin id="106" dir="0" index="1" bw="1" slack="0"/>
<pin id="107" dir="0" index="2" bw="2" slack="0"/>
<pin id="108" dir="1" index="3" bw="1" slack="0"/>
</pin_list>
<bind>
<opcode="getelementptr(29) " fcode="getelementptr"/>
<opset="pX_addr_3/3 "/>
</bind>
</comp>

<comp id="111" class="1004" name="grp_access_fu_111">
<pin_list>
<pin id="112" dir="0" index="0" bw="1" slack="0"/>
<pin id="113" dir="0" index="1" bw="32" slack="2147483647"/>
<pin id="114" dir="1" index="2" bw="32" slack="1"/>
</pin_list>
<bind>
<opcode="load(27) " fcode="load"/>
<opset="pX_load_3/3 pX_load/38 pX_load_1/39 pX_load_2/56 "/>
</bind>
</comp>

<comp id="116" class="1004" name="weights_addr_1_gep_fu_116">
<pin_list>
<pin id="117" dir="0" index="0" bw="32" slack="0"/>
<pin id="118" dir="0" index="1" bw="1" slack="0"/>
<pin id="119" dir="0" index="2" bw="2" slack="0"/>
<pin id="120" dir="1" index="3" bw="2" slack="0"/>
</pin_list>
<bind>
<opcode="getelementptr(29) " fcode="getelementptr"/>
<opset="weights_addr_1/3 "/>
</bind>
</comp>

<comp id="124" class="1004" name="pX_addr_gep_fu_124">
<pin_list>
<pin id="125" dir="0" index="0" bw="32" slack="0"/>
<pin id="126" dir="0" index="1" bw="1" slack="0"/>
<pin id="127" dir="0" index="2" bw="1" slack="0"/>
<pin id="128" dir="1" index="3" bw="1" slack="0"/>
</pin_list>
<bind>
<opcode="getelementptr(29) " fcode="getelementptr"/>
<opset="pX_addr/38 "/>
</bind>
</comp>

<comp id="133" class="1004" name="pX_addr_1_gep_fu_133">
<pin_list>
<pin id="134" dir="0" index="0" bw="32" slack="0"/>
<pin id="135" dir="0" index="1" bw="1" slack="0"/>
<pin id="136" dir="0" index="2" bw="2" slack="0"/>
<pin id="137" dir="1" index="3" bw="1" slack="0"/>
</pin_list>
<bind>
<opcode="getelementptr(29) " fcode="getelementptr"/>
<opset="pX_addr_1/39 "/>
</bind>
</comp>

<comp id="144" class="1004" name="pX_addr_2_gep_fu_144">
<pin_list>
<pin id="145" dir="0" index="0" bw="32" slack="0"/>
<pin id="146" dir="0" index="1" bw="1" slack="0"/>
<pin id="147" dir="0" index="2" bw="2" slack="0"/>
<pin id="148" dir="1" index="3" bw="1" slack="0"/>
</pin_list>
<bind>
<opcode="getelementptr(29) " fcode="getelementptr"/>
<opset="pX_addr_2/56 "/>
</bind>
</comp>

<comp id="152" class="1004" name="weights_addr_gep_fu_152">
<pin_list>
<pin id="153" dir="0" index="0" bw="32" slack="0"/>
<pin id="154" dir="0" index="1" bw="1" slack="0"/>
<pin id="155" dir="0" index="2" bw="2" slack="0"/>
<pin id="156" dir="1" index="3" bw="2" slack="0"/>
</pin_list>
<bind>
<opcode="getelementptr(29) " fcode="getelementptr"/>
<opset="weights_addr/56 "/>
</bind>
</comp>

<comp id="160" class="1005" name="sum_i_reg_160">
<pin_list>
<pin id="161" dir="0" index="0" bw="32" slack="1"/>
<pin id="162" dir="1" index="1" bw="32" slack="1"/>
</pin_list>
<bind>
<opset="sum_i (phireg) "/>
</bind>
</comp>

<comp id="164" class="1004" name="sum_i_phi_fu_164">
<pin_list>
<pin id="165" dir="0" index="0" bw="32" slack="1"/>
<pin id="166" dir="0" index="1" bw="0" slack="2147483647"/>
<pin id="167" dir="0" index="2" bw="32" slack="1"/>
<pin id="168" dir="0" index="3" bw="0" slack="2147483647"/>
<pin id="169" dir="1" index="4" bw="32" slack="2"/>
</pin_list>
<bind>
<opcode="phi(47) " fcode="phi"/>
<opset="sum_i/3 "/>
</bind>
</comp>

<comp id="172" class="1005" name="i_i_reg_172">
<pin_list>
<pin id="173" dir="0" index="0" bw="2" slack="1"/>
<pin id="174" dir="1" index="1" bw="2" slack="1"/>
</pin_list>
<bind>
<opset="i_i (phireg) "/>
</bind>
</comp>

<comp id="176" class="1004" name="i_i_phi_fu_176">
<pin_list>
<pin id="177" dir="0" index="0" bw="2" slack="0"/>
<pin id="178" dir="0" index="1" bw="0" slack="2147483647"/>
<pin id="179" dir="0" index="2" bw="1" slack="1"/>
<pin id="180" dir="0" index="3" bw="0" slack="2147483647"/>
<pin id="181" dir="1" index="4" bw="2" slack="0"/>
</pin_list>
<bind>
<opcode="phi(47) " fcode="phi"/>
<opset="i_i/3 "/>
</bind>
</comp>

<comp id="183" class="1005" name="p_0_reg_183">
<pin_list>
<pin id="184" dir="0" index="0" bw="32" slack="2147483647"/>
<pin id="185" dir="1" index="1" bw="32" slack="2147483647"/>
</pin_list>
<bind>
<opset="p_0 (phireg) "/>
</bind>
</comp>

<comp id="186" class="1004" name="p_0_phi_fu_186">
<pin_list>
<pin id="187" dir="0" index="0" bw="32" slack="24"/>
<pin id="188" dir="0" index="1" bw="0" slack="2147483647"/>
<pin id="189" dir="0" index="2" bw="32" slack="39"/>
<pin id="190" dir="0" index="3" bw="0" slack="2147483647"/>
<pin id="191" dir="1" index="4" bw="32" slack="2147483647"/>
</pin_list>
<bind>
<opcode="phi(47) " fcode="phi"/>
<opset="p_0/55 "/>
</bind>
</comp>

<comp id="192" class="1005" name="sum_i5_reg_192">
<pin_list>
<pin id="193" dir="0" index="0" bw="32" slack="1"/>
<pin id="194" dir="1" index="1" bw="32" slack="1"/>
</pin_list>
<bind>
<opset="sum_i5 (phireg) "/>
</bind>
</comp>

<comp id="196" class="1004" name="sum_i5_phi_fu_196">
<pin_list>
<pin id="197" dir="0" index="0" bw="32" slack="1"/>
<pin id="198" dir="0" index="1" bw="0" slack="2147483647"/>
<pin id="199" dir="0" index="2" bw="32" slack="1"/>
<pin id="200" dir="0" index="3" bw="0" slack="2147483647"/>
<pin id="201" dir="1" index="4" bw="32" slack="2"/>
</pin_list>
<bind>
<opcode="phi(47) " fcode="phi"/>
<opset="sum_i5/56 "/>
</bind>
</comp>

<comp id="204" class="1005" name="i_i6_reg_204">
<pin_list>
<pin id="205" dir="0" index="0" bw="2" slack="1"/>
<pin id="206" dir="1" index="1" bw="2" slack="1"/>
</pin_list>
<bind>
<opset="i_i6 (phireg) "/>
</bind>
</comp>

<comp id="208" class="1004" name="i_i6_phi_fu_208">
<pin_list>
<pin id="209" dir="0" index="0" bw="2" slack="0"/>
<pin id="210" dir="0" index="1" bw="0" slack="2147483647"/>
<pin id="211" dir="0" index="2" bw="1" slack="1"/>
<pin id="212" dir="0" index="3" bw="0" slack="2147483647"/>
<pin id="213" dir="1" index="4" bw="2" slack="0"/>
</pin_list>
<bind>
<opcode="phi(47) " fcode="phi"/>
<opset="i_i6/56 "/>
</bind>
</comp>

<comp id="215" class="1004" name="grp_fu_215">
<pin_list>
<pin id="216" dir="0" index="0" bw="32" slack="1"/>
<pin id="217" dir="0" index="1" bw="32" slack="1"/>
<pin id="218" dir="1" index="2" bw="32" slack="1"/>
</pin_list>
<bind>
<opcode="fadd(9) fsub(11) " fcode="fadd"/>
<opset="sum_3/10 sum_2/20 tmp_1/32 tmp_2/41 tmp_3/46 sum_1/63 sum/73 "/>
</bind>
</comp>

<comp id="220" class="1004" name="grp_fu_220">
<pin_list>
<pin id="221" dir="0" index="0" bw="32" slack="1"/>
<pin id="222" dir="0" index="1" bw="32" slack="1"/>
<pin id="223" dir="1" index="2" bw="32" slack="1"/>
</pin_list>
<bind>
<opcode="fadd(9) " fcode="fadd"/>
<opset="tmp_5_1/46 "/>
</bind>
</comp>

<comp id="225" class="1004" name="grp_fu_225">
<pin_list>
<pin id="226" dir="0" index="0" bw="32" slack="1"/>
<pin id="227" dir="0" index="1" bw="32" slack="1"/>
<pin id="228" dir="1" index="2" bw="32" slack="1"/>
</pin_list>
<bind>
<opcode="fmul(13) " fcode="fmul"/>
<opset="tmp_3_i/5 tmp_s/41 tmp_3_i1/58 "/>
</bind>
</comp>

<comp id="229" class="1004" name="grp_fu_229">
<pin_list>
<pin id="230" dir="0" index="0" bw="32" slack="1"/>
<pin id="231" dir="0" index="1" bw="32" slack="1"/>
<pin id="232" dir="1" index="2" bw="32" slack="1"/>
</pin_list>
<bind>
<opcode="fmul(13) " fcode="fmul"/>
<opset="tmp_4_1/41 "/>
</bind>
</comp>

<comp id="233" class="1004" name="grp_fu_233">
<pin_list>
<pin id="234" dir="0" index="0" bw="32" slack="1"/>
<pin id="235" dir="0" index="1" bw="32" slack="0"/>
<pin id="236" dir="1" index="2" bw="1" slack="1"/>
</pin_list>
<bind>
<opcode="fcmp(46) " fcode="fcmp"/>
<opset="tmp_11/29 tmp_6/82 "/>
</bind>
</comp>

<comp id="238" class="1005" name="reg_238">
<pin_list>
<pin id="239" dir="0" index="0" bw="32" slack="1"/>
<pin id="240" dir="1" index="1" bw="32" slack="1"/>
</pin_list>
<bind>
<opset="pX_load_3 pX_load pX_load_2 "/>
</bind>
</comp>

<comp id="244" class="1005" name="reg_244">
<pin_list>
<pin id="245" dir="0" index="0" bw="32" slack="1"/>
<pin id="246" dir="1" index="1" bw="32" slack="1"/>
</pin_list>
<bind>
<opset="weights_load_5 weights_load_4 weights_load_1 weights_load "/>
</bind>
</comp>

<comp id="252" class="1005" name="reg_252">
<pin_list>
<pin id="253" dir="0" index="0" bw="32" slack="1"/>
<pin id="254" dir="1" index="1" bw="32" slack="1"/>
</pin_list>
<bind>
<opset="tmp_3_i tmp_s tmp_3_i1 "/>
</bind>
</comp>

<comp id="257" class="1005" name="reg_257">
<pin_list>
<pin id="258" dir="0" index="0" bw="32" slack="1"/>
<pin id="259" dir="1" index="1" bw="32" slack="1"/>
</pin_list>
<bind>
<opset="sum_3 sum_2 tmp_1 tmp_2 tmp_3 sum "/>
</bind>
</comp>

<comp id="267" class="1004" name="exitcond_i_fu_267">
<pin_list>
<pin id="268" dir="0" index="0" bw="2" slack="0"/>
<pin id="269" dir="0" index="1" bw="2" slack="0"/>
<pin id="270" dir="1" index="2" bw="1" slack="2147483647"/>
</pin_list>
<bind>
<opcode="icmp(45) " fcode="icmp"/>
<opset="exitcond_i/3 "/>
</bind>
</comp>

<comp id="273" class="1004" name="i_1_fu_273">
<pin_list>
<pin id="274" dir="0" index="0" bw="2" slack="0"/>
<pin id="275" dir="0" index="1" bw="1" slack="0"/>
<pin id="276" dir="1" index="2" bw="2" slack="0"/>
</pin_list>
<bind>
<opcode="add(8) " fcode="add"/>
<opset="i_1/3 "/>
</bind>
</comp>

<comp id="279" class="1004" name="tmp_2_i_fu_279">
<pin_list>
<pin id="280" dir="0" index="0" bw="2" slack="0"/>
<pin id="281" dir="1" index="1" bw="64" slack="0"/>
</pin_list>
<bind>
<opcode="zext(34) " fcode="zext"/>
<opset="tmp_2_i/3 "/>
</bind>
</comp>

<comp id="285" class="1004" name="sum_2_to_int_fu_285">
<pin_list>
<pin id="286" dir="0" index="0" bw="32" slack="1"/>
<pin id="287" dir="1" index="1" bw="32" slack="0"/>
</pin_list>
<bind>
<opcode="bitcast(44) " fcode="bitcast"/>
<opset="sum_2_to_int/29 "/>
</bind>
</comp>

<comp id="289" class="1004" name="tmp_8_fu_289">
<pin_list>
<pin id="290" dir="0" index="0" bw="8" slack="0"/>
<pin id="291" dir="0" index="1" bw="32" slack="0"/>
<pin id="292" dir="0" index="2" bw="6" slack="0"/>
<pin id="293" dir="0" index="3" bw="6" slack="0"/>
<pin id="294" dir="1" index="4" bw="8" slack="0"/>
</pin_list>
<bind>
<opcode="partselect(1002) " fcode="partselect"/>
<opset="tmp_8/29 "/>
</bind>
</comp>

<comp id="299" class="1004" name="tmp_9_fu_299">
<pin_list>
<pin id="300" dir="0" index="0" bw="32" slack="0"/>
<pin id="301" dir="1" index="1" bw="23" slack="0"/>
</pin_list>
<bind>
<opcode="trunc(33) " fcode="trunc"/>
<opset="tmp_9/29 "/>
</bind>
</comp>

<comp id="303" class="1004" name="notlhs_fu_303">
<pin_list>
<pin id="304" dir="0" index="0" bw="8" slack="0"/>
<pin id="305" dir="0" index="1" bw="8" slack="0"/>
<pin id="306" dir="1" index="2" bw="1" slack="0"/>
</pin_list>
<bind>
<opcode="icmp(45) " fcode="icmp"/>
<opset="notlhs/29 "/>
</bind>
</comp>

<comp id="309" class="1004" name="notrhs_fu_309">
<pin_list>
<pin id="310" dir="0" index="0" bw="23" slack="0"/>
<pin id="311" dir="0" index="1" bw="23" slack="0"/>
<pin id="312" dir="1" index="2" bw="1" slack="0"/>
</pin_list>
<bind>
<opcode="icmp(45) " fcode="icmp"/>
<opset="notrhs/29 "/>
</bind>
</comp>

<comp id="315" class="1004" name="tmp_10_fu_315">
<pin_list>
<pin id="316" dir="0" index="0" bw="1" slack="0"/>
<pin id="317" dir="0" index="1" bw="1" slack="0"/>
<pin id="318" dir="1" index="2" bw="1" slack="2"/>
</pin_list>
<bind>
<opcode="or(24) " fcode="or"/>
<opset="tmp_10/29 "/>
</bind>
</comp>

<comp id="321" class="1004" name="tmp_12_fu_321">
<pin_list>
<pin id="322" dir="0" index="0" bw="1" slack="2"/>
<pin id="323" dir="0" index="1" bw="1" slack="1"/>
<pin id="324" dir="1" index="2" bw="1" slack="0"/>
</pin_list>
<bind>
<opcode="and(23) " fcode="and"/>
<opset="tmp_12/31 "/>
</bind>
</comp>

<comp id="325" class="1004" name="prediction_fu_325">
<pin_list>
<pin id="326" dir="0" index="0" bw="1" slack="0"/>
<pin id="327" dir="0" index="1" bw="32" slack="0"/>
<pin id="328" dir="0" index="2" bw="32" slack="0"/>
<pin id="329" dir="1" index="3" bw="32" slack="1"/>
</pin_list>
<bind>
<opcode="select(49) " fcode="select"/>
<opset="prediction/31 "/>
</bind>
</comp>

<comp id="333" class="1004" name="exitcond_i7_fu_333">
<pin_list>
<pin id="334" dir="0" index="0" bw="2" slack="0"/>
<pin id="335" dir="0" index="1" bw="2" slack="0"/>
<pin id="336" dir="1" index="2" bw="1" slack="2147483647"/>
</pin_list>
<bind>
<opcode="icmp(45) " fcode="icmp"/>
<opset="exitcond_i7/56 "/>
</bind>
</comp>

<comp id="339" class="1004" name="i_fu_339">
<pin_list>
<pin id="340" dir="0" index="0" bw="2" slack="0"/>
<pin id="341" dir="0" index="1" bw="1" slack="0"/>
<pin id="342" dir="1" index="2" bw="2" slack="0"/>
</pin_list>
<bind>
<opcode="add(8) " fcode="add"/>
<opset="i/56 "/>
</bind>
</comp>

<comp id="345" class="1004" name="tmp_2_i8_fu_345">
<pin_list>
<pin id="346" dir="0" index="0" bw="2" slack="0"/>
<pin id="347" dir="1" index="1" bw="64" slack="0"/>
</pin_list>
<bind>
<opcode="zext(34) " fcode="zext"/>
<opset="tmp_2_i8/56 "/>
</bind>
</comp>

<comp id="351" class="1004" name="sum_to_int_fu_351">
<pin_list>
<pin id="352" dir="0" index="0" bw="32" slack="1"/>
<pin id="353" dir="1" index="1" bw="32" slack="0"/>
</pin_list>
<bind>
<opcode="bitcast(44) " fcode="bitcast"/>
<opset="sum_to_int/82 "/>
</bind>
</comp>

<comp id="355" class="1004" name="tmp_fu_355">
<pin_list>
<pin id="356" dir="0" index="0" bw="8" slack="0"/>
<pin id="357" dir="0" index="1" bw="32" slack="0"/>
<pin id="358" dir="0" index="2" bw="6" slack="0"/>
<pin id="359" dir="0" index="3" bw="6" slack="0"/>
<pin id="360" dir="1" index="4" bw="8" slack="0"/>
</pin_list>
<bind>
<opcode="partselect(1002) " fcode="partselect"/>
<opset="tmp/82 "/>
</bind>
</comp>

<comp id="365" class="1004" name="tmp_4_fu_365">
<pin_list>
<pin id="366" dir="0" index="0" bw="32" slack="0"/>
<pin id="367" dir="1" index="1" bw="23" slack="0"/>
</pin_list>
<bind>
<opcode="trunc(33) " fcode="trunc"/>
<opset="tmp_4/82 "/>
</bind>
</comp>

<comp id="369" class="1004" name="notlhs4_fu_369">
<pin_list>
<pin id="370" dir="0" index="0" bw="8" slack="0"/>
<pin id="371" dir="0" index="1" bw="8" slack="0"/>
<pin id="372" dir="1" index="2" bw="1" slack="0"/>
</pin_list>
<bind>
<opcode="icmp(45) " fcode="icmp"/>
<opset="notlhs4/82 "/>
</bind>
</comp>

<comp id="375" class="1004" name="notrhs5_fu_375">
<pin_list>
<pin id="376" dir="0" index="0" bw="23" slack="0"/>
<pin id="377" dir="0" index="1" bw="23" slack="0"/>
<pin id="378" dir="1" index="2" bw="1" slack="0"/>
</pin_list>
<bind>
<opcode="icmp(45) " fcode="icmp"/>
<opset="notrhs5/82 "/>
</bind>
</comp>

<comp id="381" class="1004" name="tmp_5_fu_381">
<pin_list>
<pin id="382" dir="0" index="0" bw="1" slack="0"/>
<pin id="383" dir="0" index="1" bw="1" slack="0"/>
<pin id="384" dir="1" index="2" bw="1" slack="2"/>
</pin_list>
<bind>
<opcode="or(24) " fcode="or"/>
<opset="tmp_5/82 "/>
</bind>
</comp>

<comp id="387" class="1004" name="tmp_7_fu_387">
<pin_list>
<pin id="388" dir="0" index="0" bw="1" slack="2"/>
<pin id="389" dir="0" index="1" bw="1" slack="1"/>
<pin id="390" dir="1" index="2" bw="1" slack="0"/>
</pin_list>
<bind>
<opcode="and(23) " fcode="and"/>
<opset="tmp_7/84 "/>
</bind>
</comp>

<comp id="391" class="1004" name="tmp_1_i1_fu_391">
<pin_list>
<pin id="392" dir="0" index="0" bw="1" slack="0"/>
<pin id="393" dir="0" index="1" bw="32" slack="0"/>
<pin id="394" dir="0" index="2" bw="32" slack="0"/>
<pin id="395" dir="1" index="3" bw="32" slack="24"/>
</pin_list>
<bind>
<opcode="select(49) " fcode="select"/>
<opset="tmp_1_i1/84 "/>
</bind>
</comp>

<comp id="399" class="1005" name="pReset_read_reg_399">
<pin_list>
<pin id="400" dir="0" index="0" bw="1" slack="1"/>
<pin id="401" dir="1" index="1" bw="1" slack="2147483647"/>
</pin_list>
<bind>
<opset="pReset_read "/>
</bind>
</comp>

<comp id="403" class="1005" name="pPredict_read_reg_403">
<pin_list>
<pin id="404" dir="0" index="0" bw="1" slack="1"/>
<pin id="405" dir="1" index="1" bw="1" slack="2147483647"/>
</pin_list>
<bind>
<opset="pPredict_read "/>
</bind>
</comp>

<comp id="407" class="1005" name="pY_read_reg_407">
<pin_list>
<pin id="408" dir="0" index="0" bw="32" slack="16"/>
<pin id="409" dir="1" index="1" bw="32" slack="16"/>
</pin_list>
<bind>
<opset="pY_read "/>
</bind>
</comp>

<comp id="416" class="1005" name="i_1_reg_416">
<pin_list>
<pin id="417" dir="0" index="0" bw="2" slack="0"/>
<pin id="418" dir="1" index="1" bw="2" slack="0"/>
</pin_list>
<bind>
<opset="i_1 "/>
</bind>
</comp>

<comp id="421" class="1005" name="pX_addr_3_reg_421">
<pin_list>
<pin id="422" dir="0" index="0" bw="1" slack="1"/>
<pin id="423" dir="1" index="1" bw="1" slack="1"/>
</pin_list>
<bind>
<opset="pX_addr_3 "/>
</bind>
</comp>

<comp id="426" class="1005" name="weights_addr_1_reg_426">
<pin_list>
<pin id="427" dir="0" index="0" bw="2" slack="1"/>
<pin id="428" dir="1" index="1" bw="2" slack="1"/>
</pin_list>
<bind>
<opset="weights_addr_1 "/>
</bind>
</comp>

<comp id="431" class="1005" name="tmp_10_reg_431">
<pin_list>
<pin id="432" dir="0" index="0" bw="1" slack="2"/>
<pin id="433" dir="1" index="1" bw="1" slack="2"/>
</pin_list>
<bind>
<opset="tmp_10 "/>
</bind>
</comp>

<comp id="436" class="1005" name="tmp_11_reg_436">
<pin_list>
<pin id="437" dir="0" index="0" bw="1" slack="1"/>
<pin id="438" dir="1" index="1" bw="1" slack="1"/>
</pin_list>
<bind>
<opset="tmp_11 "/>
</bind>
</comp>

<comp id="441" class="1005" name="prediction_reg_441">
<pin_list>
<pin id="442" dir="0" index="0" bw="32" slack="1"/>
<pin id="443" dir="1" index="1" bw="32" slack="1"/>
</pin_list>
<bind>
<opset="prediction "/>
</bind>
</comp>

<comp id="446" class="1005" name="pX_addr_reg_446">
<pin_list>
<pin id="447" dir="0" index="0" bw="1" slack="1"/>
<pin id="448" dir="1" index="1" bw="1" slack="1"/>
</pin_list>
<bind>
<opset="pX_addr "/>
</bind>
</comp>

<comp id="451" class="1005" name="pX_addr_1_reg_451">
<pin_list>
<pin id="452" dir="0" index="0" bw="1" slack="1"/>
<pin id="453" dir="1" index="1" bw="1" slack="1"/>
</pin_list>
<bind>
<opset="pX_addr_1 "/>
</bind>
</comp>

<comp id="456" class="1005" name="pX_load_1_reg_456">
<pin_list>
<pin id="457" dir="0" index="0" bw="32" slack="1"/>
<pin id="458" dir="1" index="1" bw="32" slack="1"/>
</pin_list>
<bind>
<opset="pX_load_1 "/>
</bind>
</comp>

<comp id="461" class="1005" name="weights_load_2_reg_461">
<pin_list>
<pin id="462" dir="0" index="0" bw="32" slack="1"/>
<pin id="463" dir="1" index="1" bw="32" slack="1"/>
</pin_list>
<bind>
<opset="weights_load_2 "/>
</bind>
</comp>

<comp id="466" class="1005" name="tmp_4_1_reg_466">
<pin_list>
<pin id="467" dir="0" index="0" bw="32" slack="1"/>
<pin id="468" dir="1" index="1" bw="32" slack="1"/>
</pin_list>
<bind>
<opset="tmp_4_1 "/>
</bind>
</comp>

<comp id="471" class="1005" name="weights_load_3_reg_471">
<pin_list>
<pin id="472" dir="0" index="0" bw="32" slack="1"/>
<pin id="473" dir="1" index="1" bw="32" slack="1"/>
</pin_list>
<bind>
<opset="weights_load_3 "/>
</bind>
</comp>

<comp id="476" class="1005" name="tmp_5_1_reg_476">
<pin_list>
<pin id="477" dir="0" index="0" bw="32" slack="1"/>
<pin id="478" dir="1" index="1" bw="32" slack="1"/>
</pin_list>
<bind>
<opset="tmp_5_1 "/>
</bind>
</comp>

<comp id="484" class="1005" name="i_reg_484">
<pin_list>
<pin id="485" dir="0" index="0" bw="2" slack="0"/>
<pin id="486" dir="1" index="1" bw="2" slack="0"/>
</pin_list>
<bind>
<opset="i "/>
</bind>
</comp>

<comp id="489" class="1005" name="pX_addr_2_reg_489">
<pin_list>
<pin id="490" dir="0" index="0" bw="1" slack="1"/>
<pin id="491" dir="1" index="1" bw="1" slack="1"/>
</pin_list>
<bind>
<opset="pX_addr_2 "/>
</bind>
</comp>

<comp id="494" class="1005" name="weights_addr_reg_494">
<pin_list>
<pin id="495" dir="0" index="0" bw="2" slack="1"/>
<pin id="496" dir="1" index="1" bw="2" slack="1"/>
</pin_list>
<bind>
<opset="weights_addr "/>
</bind>
</comp>

<comp id="499" class="1005" name="sum_1_reg_499">
<pin_list>
<pin id="500" dir="0" index="0" bw="32" slack="1"/>
<pin id="501" dir="1" index="1" bw="32" slack="1"/>
</pin_list>
<bind>
<opset="sum_1 "/>
</bind>
</comp>

<comp id="504" class="1005" name="tmp_5_reg_504">
<pin_list>
<pin id="505" dir="0" index="0" bw="1" slack="2"/>
<pin id="506" dir="1" index="1" bw="1" slack="2"/>
</pin_list>
<bind>
<opset="tmp_5 "/>
</bind>
</comp>

<comp id="509" class="1005" name="tmp_6_reg_509">
<pin_list>
<pin id="510" dir="0" index="0" bw="1" slack="1"/>
<pin id="511" dir="1" index="1" bw="1" slack="1"/>
</pin_list>
<bind>
<opset="tmp_6 "/>
</bind>
</comp>

<comp id="514" class="1005" name="tmp_1_i1_reg_514">
<pin_list>
<pin id="515" dir="0" index="0" bw="32" slack="24"/>
<pin id="516" dir="1" index="1" bw="32" slack="24"/>
</pin_list>
<bind>
<opset="tmp_1_i1 "/>
</bind>
</comp>

</comp_list>

<net_list>
<net id="78"><net_src comp="18" pin="0"/><net_sink comp="74" pin=0"/></net>

<net id="79"><net_src comp="6" pin="0"/><net_sink comp="74" pin=1"/></net>

<net id="84"><net_src comp="18" pin="0"/><net_sink comp="80" pin=0"/></net>

<net id="85"><net_src comp="4" pin="0"/><net_sink comp="80" pin=1"/></net>

<net id="90"><net_src comp="20" pin="0"/><net_sink comp="86" pin=0"/></net>

<net id="91"><net_src comp="2" pin="0"/><net_sink comp="86" pin=1"/></net>

<net id="96"><net_src comp="12" pin="0"/><net_sink comp="92" pin=1"/></net>

<net id="97"><net_src comp="40" pin="0"/><net_sink comp="92" pin=0"/></net>

<net id="98"><net_src comp="42" pin="0"/><net_sink comp="92" pin=0"/></net>

<net id="102"><net_src comp="12" pin="0"/><net_sink comp="92" pin=4"/></net>

<net id="103"><net_src comp="44" pin="0"/><net_sink comp="92" pin=3"/></net>

<net id="109"><net_src comp="0" pin="0"/><net_sink comp="104" pin=0"/></net>

<net id="110"><net_src comp="56" pin="0"/><net_sink comp="104" pin=1"/></net>

<net id="115"><net_src comp="104" pin="3"/><net_sink comp="111" pin=0"/></net>

<net id="121"><net_src comp="8" pin="0"/><net_sink comp="116" pin=0"/></net>

<net id="122"><net_src comp="56" pin="0"/><net_sink comp="116" pin=1"/></net>

<net id="123"><net_src comp="116" pin="3"/><net_sink comp="92" pin=3"/></net>

<net id="129"><net_src comp="0" pin="0"/><net_sink comp="124" pin=0"/></net>

<net id="130"><net_src comp="56" pin="0"/><net_sink comp="124" pin=1"/></net>

<net id="131"><net_src comp="56" pin="0"/><net_sink comp="124" pin=2"/></net>

<net id="132"><net_src comp="124" pin="3"/><net_sink comp="111" pin=0"/></net>

<net id="138"><net_src comp="0" pin="0"/><net_sink comp="133" pin=0"/></net>

<net id="139"><net_src comp="56" pin="0"/><net_sink comp="133" pin=1"/></net>

<net id="140"><net_src comp="72" pin="0"/><net_sink comp="133" pin=2"/></net>

<net id="141"><net_src comp="133" pin="3"/><net_sink comp="111" pin=0"/></net>

<net id="142"><net_src comp="42" pin="0"/><net_sink comp="92" pin=3"/></net>

<net id="143"><net_src comp="44" pin="0"/><net_sink comp="92" pin=0"/></net>

<net id="149"><net_src comp="0" pin="0"/><net_sink comp="144" pin=0"/></net>

<net id="150"><net_src comp="56" pin="0"/><net_sink comp="144" pin=1"/></net>

<net id="151"><net_src comp="144" pin="3"/><net_sink comp="111" pin=0"/></net>

<net id="157"><net_src comp="8" pin="0"/><net_sink comp="152" pin=0"/></net>

<net id="158"><net_src comp="56" pin="0"/><net_sink comp="152" pin=1"/></net>

<net id="159"><net_src comp="152" pin="3"/><net_sink comp="92" pin=0"/></net>

<net id="163"><net_src comp="12" pin="0"/><net_sink comp="160" pin=0"/></net>

<net id="170"><net_src comp="160" pin="1"/><net_sink comp="164" pin=2"/></net>

<net id="171"><net_src comp="164" pin="4"/><net_sink comp="160" pin=0"/></net>

<net id="175"><net_src comp="46" pin="0"/><net_sink comp="172" pin=0"/></net>

<net id="182"><net_src comp="172" pin="1"/><net_sink comp="176" pin=2"/></net>

<net id="195"><net_src comp="12" pin="0"/><net_sink comp="192" pin=0"/></net>

<net id="202"><net_src comp="192" pin="1"/><net_sink comp="196" pin=2"/></net>

<net id="203"><net_src comp="196" pin="4"/><net_sink comp="192" pin=0"/></net>

<net id="207"><net_src comp="46" pin="0"/><net_sink comp="204" pin=0"/></net>

<net id="214"><net_src comp="204" pin="1"/><net_sink comp="208" pin=2"/></net>

<net id="219"><net_src comp="160" pin="1"/><net_sink comp="215" pin=0"/></net>

<net id="224"><net_src comp="192" pin="1"/><net_sink comp="215" pin=0"/></net>

<net id="237"><net_src comp="12" pin="0"/><net_sink comp="233" pin=1"/></net>

<net id="241"><net_src comp="111" pin="2"/><net_sink comp="238" pin=0"/></net>

<net id="242"><net_src comp="238" pin="1"/><net_sink comp="225" pin=0"/></net>

<net id="243"><net_src comp="238" pin="1"/><net_sink comp="225" pin=1"/></net>

<net id="247"><net_src comp="92" pin="5"/><net_sink comp="244" pin=0"/></net>

<net id="248"><net_src comp="244" pin="1"/><net_sink comp="225" pin=1"/></net>

<net id="249"><net_src comp="244" pin="1"/><net_sink comp="215" pin=1"/></net>

<net id="250"><net_src comp="244" pin="1"/><net_sink comp="215" pin=0"/></net>

<net id="251"><net_src comp="92" pin="2"/><net_sink comp="244" pin=0"/></net>

<net id="255"><net_src comp="225" pin="2"/><net_sink comp="252" pin=0"/></net>

<net id="256"><net_src comp="252" pin="1"/><net_sink comp="215" pin=1"/></net>

<net id="260"><net_src comp="215" pin="2"/><net_sink comp="257" pin=0"/></net>

<net id="261"><net_src comp="257" pin="1"/><net_sink comp="164" pin=0"/></net>

<net id="262"><net_src comp="257" pin="1"/><net_sink comp="233" pin=0"/></net>

<net id="263"><net_src comp="257" pin="1"/><net_sink comp="225" pin=0"/></net>

<net id="264"><net_src comp="257" pin="1"/><net_sink comp="229" pin=0"/></net>

<net id="265"><net_src comp="257" pin="1"/><net_sink comp="215" pin=1"/></net>

<net id="266"><net_src comp="257" pin="1"/><net_sink comp="92" pin=1"/></net>

<net id="271"><net_src comp="176" pin="4"/><net_sink comp="267" pin=0"/></net>

<net id="272"><net_src comp="48" pin="0"/><net_sink comp="267" pin=1"/></net>

<net id="277"><net_src comp="176" pin="4"/><net_sink comp="273" pin=0"/></net>

<net id="278"><net_src comp="54" pin="0"/><net_sink comp="273" pin=1"/></net>

<net id="282"><net_src comp="176" pin="4"/><net_sink comp="279" pin=0"/></net>

<net id="283"><net_src comp="279" pin="1"/><net_sink comp="104" pin=2"/></net>

<net id="284"><net_src comp="279" pin="1"/><net_sink comp="116" pin=2"/></net>

<net id="288"><net_src comp="257" pin="1"/><net_sink comp="285" pin=0"/></net>

<net id="295"><net_src comp="58" pin="0"/><net_sink comp="289" pin=0"/></net>

<net id="296"><net_src comp="285" pin="1"/><net_sink comp="289" pin=1"/></net>

<net id="297"><net_src comp="60" pin="0"/><net_sink comp="289" pin=2"/></net>

<net id="298"><net_src comp="62" pin="0"/><net_sink comp="289" pin=3"/></net>

<net id="302"><net_src comp="285" pin="1"/><net_sink comp="299" pin=0"/></net>

<net id="307"><net_src comp="289" pin="4"/><net_sink comp="303" pin=0"/></net>

<net id="308"><net_src comp="64" pin="0"/><net_sink comp="303" pin=1"/></net>

<net id="313"><net_src comp="299" pin="1"/><net_sink comp="309" pin=0"/></net>

<net id="314"><net_src comp="66" pin="0"/><net_sink comp="309" pin=1"/></net>

<net id="319"><net_src comp="309" pin="2"/><net_sink comp="315" pin=0"/></net>

<net id="320"><net_src comp="303" pin="2"/><net_sink comp="315" pin=1"/></net>

<net id="330"><net_src comp="321" pin="2"/><net_sink comp="325" pin=0"/></net>

<net id="331"><net_src comp="68" pin="0"/><net_sink comp="325" pin=1"/></net>

<net id="332"><net_src comp="70" pin="0"/><net_sink comp="325" pin=2"/></net>

<net id="337"><net_src comp="208" pin="4"/><net_sink comp="333" pin=0"/></net>

<net id="338"><net_src comp="48" pin="0"/><net_sink comp="333" pin=1"/></net>

<net id="343"><net_src comp="208" pin="4"/><net_sink comp="339" pin=0"/></net>

<net id="344"><net_src comp="54" pin="0"/><net_sink comp="339" pin=1"/></net>

<net id="348"><net_src comp="208" pin="4"/><net_sink comp="345" pin=0"/></net>

<net id="349"><net_src comp="345" pin="1"/><net_sink comp="144" pin=2"/></net>

<net id="350"><net_src comp="345" pin="1"/><net_sink comp="152" pin=2"/></net>

<net id="354"><net_src comp="257" pin="1"/><net_sink comp="351" pin=0"/></net>

<net id="361"><net_src comp="58" pin="0"/><net_sink comp="355" pin=0"/></net>

<net id="362"><net_src comp="351" pin="1"/><net_sink comp="355" pin=1"/></net>

<net id="363"><net_src comp="60" pin="0"/><net_sink comp="355" pin=2"/></net>

<net id="364"><net_src comp="62" pin="0"/><net_sink comp="355" pin=3"/></net>

<net id="368"><net_src comp="351" pin="1"/><net_sink comp="365" pin=0"/></net>

<net id="373"><net_src comp="355" pin="4"/><net_sink comp="369" pin=0"/></net>

<net id="374"><net_src comp="64" pin="0"/><net_sink comp="369" pin=1"/></net>

<net id="379"><net_src comp="365" pin="1"/><net_sink comp="375" pin=0"/></net>

<net id="380"><net_src comp="66" pin="0"/><net_sink comp="375" pin=1"/></net>

<net id="385"><net_src comp="375" pin="2"/><net_sink comp="381" pin=0"/></net>

<net id="386"><net_src comp="369" pin="2"/><net_sink comp="381" pin=1"/></net>

<net id="396"><net_src comp="387" pin="2"/><net_sink comp="391" pin=0"/></net>

<net id="397"><net_src comp="68" pin="0"/><net_sink comp="391" pin=1"/></net>

<net id="398"><net_src comp="70" pin="0"/><net_sink comp="391" pin=2"/></net>

<net id="402"><net_src comp="74" pin="2"/><net_sink comp="399" pin=0"/></net>

<net id="406"><net_src comp="80" pin="2"/><net_sink comp="403" pin=0"/></net>

<net id="410"><net_src comp="86" pin="2"/><net_sink comp="407" pin=0"/></net>

<net id="411"><net_src comp="407" pin="1"/><net_sink comp="215" pin=0"/></net>

<net id="412"><net_src comp="407" pin="1"/><net_sink comp="186" pin=2"/></net>

<net id="419"><net_src comp="273" pin="2"/><net_sink comp="416" pin=0"/></net>

<net id="420"><net_src comp="416" pin="1"/><net_sink comp="176" pin=0"/></net>

<net id="424"><net_src comp="104" pin="3"/><net_sink comp="421" pin=0"/></net>

<net id="425"><net_src comp="421" pin="1"/><net_sink comp="111" pin=0"/></net>

<net id="429"><net_src comp="116" pin="3"/><net_sink comp="426" pin=0"/></net>

<net id="430"><net_src comp="426" pin="1"/><net_sink comp="92" pin=3"/></net>

<net id="434"><net_src comp="315" pin="2"/><net_sink comp="431" pin=0"/></net>

<net id="435"><net_src comp="431" pin="1"/><net_sink comp="321" pin=0"/></net>

<net id="439"><net_src comp="233" pin="2"/><net_sink comp="436" pin=0"/></net>

<net id="440"><net_src comp="436" pin="1"/><net_sink comp="321" pin=1"/></net>

<net id="444"><net_src comp="325" pin="3"/><net_sink comp="441" pin=0"/></net>

<net id="445"><net_src comp="441" pin="1"/><net_sink comp="215" pin=1"/></net>

<net id="449"><net_src comp="124" pin="3"/><net_sink comp="446" pin=0"/></net>

<net id="450"><net_src comp="446" pin="1"/><net_sink comp="111" pin=0"/></net>

<net id="454"><net_src comp="133" pin="3"/><net_sink comp="451" pin=0"/></net>

<net id="455"><net_src comp="451" pin="1"/><net_sink comp="111" pin=0"/></net>

<net id="459"><net_src comp="111" pin="2"/><net_sink comp="456" pin=0"/></net>

<net id="460"><net_src comp="456" pin="1"/><net_sink comp="229" pin=1"/></net>

<net id="464"><net_src comp="92" pin="2"/><net_sink comp="461" pin=0"/></net>

<net id="465"><net_src comp="461" pin="1"/><net_sink comp="215" pin=0"/></net>

<net id="469"><net_src comp="229" pin="2"/><net_sink comp="466" pin=0"/></net>

<net id="470"><net_src comp="466" pin="1"/><net_sink comp="220" pin=1"/></net>

<net id="474"><net_src comp="92" pin="5"/><net_sink comp="471" pin=0"/></net>

<net id="475"><net_src comp="471" pin="1"/><net_sink comp="220" pin=0"/></net>

<net id="479"><net_src comp="220" pin="2"/><net_sink comp="476" pin=0"/></net>

<net id="480"><net_src comp="476" pin="1"/><net_sink comp="92" pin=4"/></net>

<net id="487"><net_src comp="339" pin="2"/><net_sink comp="484" pin=0"/></net>

<net id="488"><net_src comp="484" pin="1"/><net_sink comp="208" pin=0"/></net>

<net id="492"><net_src comp="144" pin="3"/><net_sink comp="489" pin=0"/></net>

<net id="493"><net_src comp="489" pin="1"/><net_sink comp="111" pin=0"/></net>

<net id="497"><net_src comp="152" pin="3"/><net_sink comp="494" pin=0"/></net>

<net id="498"><net_src comp="494" pin="1"/><net_sink comp="92" pin=0"/></net>

<net id="502"><net_src comp="215" pin="2"/><net_sink comp="499" pin=0"/></net>

<net id="503"><net_src comp="499" pin="1"/><net_sink comp="196" pin=0"/></net>

<net id="507"><net_src comp="381" pin="2"/><net_sink comp="504" pin=0"/></net>

<net id="508"><net_src comp="504" pin="1"/><net_sink comp="387" pin=0"/></net>

<net id="512"><net_src comp="233" pin="2"/><net_sink comp="509" pin=0"/></net>

<net id="513"><net_src comp="509" pin="1"/><net_sink comp="387" pin=1"/></net>

<net id="517"><net_src comp="391" pin="3"/><net_sink comp="514" pin=0"/></net>

<net id="518"><net_src comp="514" pin="1"/><net_sink comp="186" pin=0"/></net>

</net_list>

</model> 
---------------- Datapath Model END ------------------

* FSMD analyzer results:
  - Output states:
  - Chain level:
	State 1
	State 2
	State 3
		exitcond_i : 1
		i_1 : 1
		stg_111 : 2
		tmp_2_i : 1
		pX_addr_3 : 2
		pX_load_3 : 3
		weights_addr_1 : 2
		weights_load_5 : 3
	State 4
	State 5
	State 6
	State 7
	State 8
	State 9
	State 10
	State 11
	State 12
	State 13
	State 14
	State 15
	State 16
	State 17
	State 18
	State 19
	State 20
	State 21
	State 22
	State 23
	State 24
	State 25
	State 26
	State 27
	State 28
	State 29
		tmp_8 : 1
		tmp_9 : 1
		notlhs : 2
		notrhs : 2
		tmp_10 : 3
	State 30
	State 31
	State 32
	State 33
	State 34
	State 35
	State 36
	State 37
	State 38
		pX_load : 1
	State 39
		pX_load_1 : 1
	State 40
	State 41
	State 42
	State 43
	State 44
	State 45
	State 46
	State 47
	State 48
	State 49
	State 50
	State 51
	State 52
	State 53
	State 54
	State 55
		p_0 : 1
		stg_216 : 2
	State 56
		exitcond_i7 : 1
		i : 1
		stg_222 : 2
		tmp_2_i8 : 1
		pX_addr_2 : 2
		pX_load_2 : 3
		weights_addr : 2
		weights_load_1 : 3
	State 57
	State 58
	State 59
	State 60
	State 61
	State 62
	State 63
	State 64
	State 65
	State 66
	State 67
	State 68
	State 69
	State 70
	State 71
	State 72
	State 73
	State 74
	State 75
	State 76
	State 77
	State 78
	State 79
	State 80
	State 81
	State 82
		tmp : 1
		tmp_4 : 1
		notlhs4 : 2
		notrhs5 : 2
		tmp_5 : 3
	State 83
	State 84


============================================================
+ Verbose Summary: Datapath Resource usage 
============================================================

* Functional unit list:
|----------|--------------------------|---------|---------|---------|
| Operation|      Functional Unit     |  DSP48E |    FF   |   LUT   |
|----------|--------------------------|---------|---------|---------|
|   fadd   |        grp_fu_215        |    2    |   324   |   236   |
|          |        grp_fu_220        |    2    |   324   |   236   |
|----------|--------------------------|---------|---------|---------|
|   fmul   |        grp_fu_225        |    3    |   151   |   144   |
|          |        grp_fu_229        |    3    |   151   |   144   |
|----------|--------------------------|---------|---------|---------|
|   fcmp   |        grp_fu_233        |    0    |    66   |    67   |
|----------|--------------------------|---------|---------|---------|
|  select  |     prediction_fu_325    |    0    |    0    |    32   |
|          |      tmp_1_i1_fu_391     |    0    |    0    |    32   |
|----------|--------------------------|---------|---------|---------|
|          |     exitcond_i_fu_267    |    0    |    0    |    1    |
|          |       notlhs_fu_303      |    0    |    0    |    3    |
|   icmp   |       notrhs_fu_309      |    0    |    0    |    8    |
|          |    exitcond_i7_fu_333    |    0    |    0    |    1    |
|          |      notlhs4_fu_369      |    0    |    0    |    3    |
|          |      notrhs5_fu_375      |    0    |    0    |    8    |
|----------|--------------------------|---------|---------|---------|
|    add   |        i_1_fu_273        |    0    |    0    |    2    |
|          |         i_fu_339         |    0    |    0    |    2    |
|----------|--------------------------|---------|---------|---------|
|    or    |       tmp_10_fu_315      |    0    |    0    |    1    |
|          |       tmp_5_fu_381       |    0    |    0    |    1    |
|----------|--------------------------|---------|---------|---------|
|    and   |       tmp_12_fu_321      |    0    |    0    |    1    |
|          |       tmp_7_fu_387       |    0    |    0    |    1    |
|----------|--------------------------|---------|---------|---------|
|          |  pReset_read_read_fu_74  |    0    |    0    |    0    |
|   read   | pPredict_read_read_fu_80 |    0    |    0    |    0    |
|          |    pY_read_read_fu_86    |    0    |    0    |    0    |
|----------|--------------------------|---------|---------|---------|
|   zext   |      tmp_2_i_fu_279      |    0    |    0    |    0    |
|          |      tmp_2_i8_fu_345     |    0    |    0    |    0    |
|----------|--------------------------|---------|---------|---------|
|partselect|       tmp_8_fu_289       |    0    |    0    |    0    |
|          |        tmp_fu_355        |    0    |    0    |    0    |
|----------|--------------------------|---------|---------|---------|
|   trunc  |       tmp_9_fu_299       |    0    |    0    |    0    |
|          |       tmp_4_fu_365       |    0    |    0    |    0    |
|----------|--------------------------|---------|---------|---------|
|   Total  |                          |    10   |   1016  |   923   |
|----------|--------------------------|---------|---------|---------|

Memories:
+-------+--------+--------+--------+
|       |  BRAM  |   FF   |   LUT  |
+-------+--------+--------+--------+
|weights|    2   |    0   |    0   |
+-------+--------+--------+--------+
| Total |    2   |    0   |    0   |
+-------+--------+--------+--------+

* Register list:
+----------------------+--------+
|                      |   FF   |
+----------------------+--------+
|      i_1_reg_416     |    2   |
|     i_i6_reg_204     |    2   |
|      i_i_reg_172     |    2   |
|       i_reg_484      |    2   |
| pPredict_read_reg_403|    1   |
|  pReset_read_reg_399 |    1   |
|   pX_addr_1_reg_451  |    1   |
|   pX_addr_2_reg_489  |    1   |
|   pX_addr_3_reg_421  |    1   |
|    pX_addr_reg_446   |    1   |
|   pX_load_1_reg_456  |   32   |
|    pY_read_reg_407   |   32   |
|      p_0_reg_183     |   32   |
|  prediction_reg_441  |   32   |
|        reg_238       |   32   |
|        reg_244       |   32   |
|        reg_252       |   32   |
|        reg_257       |   32   |
|     sum_1_reg_499    |   32   |
|    sum_i5_reg_192    |   32   |
|     sum_i_reg_160    |   32   |
|    tmp_10_reg_431    |    1   |
|    tmp_11_reg_436    |    1   |
|   tmp_1_i1_reg_514   |   32   |
|    tmp_4_1_reg_466   |   32   |
|    tmp_5_1_reg_476   |   32   |
|     tmp_5_reg_504    |    1   |
|     tmp_6_reg_509    |    1   |
|weights_addr_1_reg_426|    2   |
| weights_addr_reg_494 |    2   |
|weights_load_2_reg_461|   32   |
|weights_load_3_reg_471|   32   |
+----------------------+--------+
|         Total        |   534  |
+----------------------+--------+

* Multiplexer (MUX) list: 
|-------------------|------|------|------|--------||---------||---------|
|        Comp       |  Pin | Size |  BW  | S x BW ||  Delay  ||   LUT   |
|-------------------|------|------|------|--------||---------||---------|
|  grp_access_fu_92 |  p0  |   5  |  32  |   160  ||    32   |
|  grp_access_fu_92 |  p1  |   2  |  32  |   64   ||    32   |
|  grp_access_fu_92 |  p3  |   4  |  32  |   128  ||    32   |
|  grp_access_fu_92 |  p4  |   2  |  32  |   64   ||    32   |
| grp_access_fu_111 |  p0  |   8  |   1  |    8   ||    2    |
|   sum_i_reg_160   |  p0  |   2  |  32  |   64   ||    32   |
|   sum_i5_reg_192  |  p0  |   2  |  32  |   64   ||    32   |
|     grp_fu_215    |  p0  |   5  |  32  |   160  ||    32   |
|     grp_fu_215    |  p1  |   4  |  32  |   128  ||    32   |
|     grp_fu_225    |  p0  |   2  |  32  |   64   ||    32   |
|     grp_fu_225    |  p1  |   2  |  32  |   64   ||    32   |
|      reg_244      |  p0  |   2  |  32  |   64   ||    32   |
|-------------------|------|------|------|--------||---------||---------|
|       Total       |      |      |      |  1032  ||  16.656 ||   354   |
|-------------------|------|------|------|--------||---------||---------|



* Summary:
+-----------+--------+--------+--------+--------+--------+
|           |  BRAM  | DSP48E |  Delay |   FF   |   LUT  |
+-----------+--------+--------+--------+--------+--------+
|  Function |    -   |   10   |    -   |  1016  |   923  |
|   Memory  |    2   |    -   |    -   |    0   |    0   |
|Multiplexer|    -   |    -   |   16   |    -   |   354  |
|  Register |    -   |    -   |    -   |   534  |    -   |
+-----------+--------+--------+--------+--------+--------+
|   Total   |    2   |   10   |   16   |  1550  |  1277  |
+-----------+--------+--------+--------+--------+--------+
