

================================================================
== Vivado HLS Report for 'projection_gp_swapRowAndColumn'
================================================================
* Date:           Mon Feb 22 15:23:25 2016

* Version:        2015.4 (Build 1412921 on Wed Nov 18 09:58:55 AM 2015)
* Project:        ProjectionGP
* Solution:       solution1
* Product family: artix7
* Target device:  xc7a35ticsg324-1l


================================================================
== Performance Estimates
================================================================
+ Timing (ns): 
    * Summary: 
    +--------+-------+----------+------------+
    |  Clock | Target| Estimated| Uncertainty|
    +--------+-------+----------+------------+
    |ap_clk  |   5.00|      3.97|        0.62|
    +--------+-------+----------+------------+

+ Latency (clock cycles): 
    * Summary: 
    +-----+-----+-----+-----+---------+
    |  Latency  |  Interval | Pipeline|
    | min | max | min | max |   Type  |
    +-----+-----+-----+-----+---------+
    |  416|  416|  416|  416|   none  |
    +-----+-----+-----+-----+---------+

    + Detail: 
        * Instance: 
        N/A

        * Loop: 
        +----------+-----+-----+----------+-----------+-----------+------+----------+
        |          |  Latency  | Iteration|  Initiation Interval  | Trip |          |
        | Loop Name| min | max |  Latency |  achieved |   target  | Count| Pipelined|
        +----------+-----+-----+----------+-----------+-----------+------+----------+
        |- Loop 1  |  205|  205|         5|          -|          -|    41|    no    |
        |- Loop 2  |  205|  205|         5|          -|          -|    41|    no    |
        +----------+-----+-----+----------+-----------+-----------+------+----------+



================================================================
== Utilization Estimates
================================================================
* Summary: 
+-----------------+---------+-------+-------+-------+
|       Name      | BRAM_18K| DSP48E|   FF  |  LUT  |
+-----------------+---------+-------+-------+-------+
|DSP              |        -|      -|      -|      -|
|Expression       |        -|      -|      0|    114|
|FIFO             |        -|      -|      -|      -|
|Instance         |        -|      2|      0|      0|
|Memory           |        -|      -|      -|      -|
|Multiplexer      |        -|      -|      -|     44|
|Register         |        -|      -|    190|      -|
+-----------------+---------+-------+-------+-------+
|Total            |        0|      2|    190|    158|
+-----------------+---------+-------+-------+-------+
|Available        |      100|     90|  41600|  20800|
+-----------------+---------+-------+-------+-------+
|Utilization (%)  |        0|      2|   ~0  |   ~0  |
+-----------------+---------+-------+-------+-------+

+ Detail: 
    * Instance: 
    +-----------------------------------+--------------------------------+---------+-------+---+----+
    |              Instance             |             Module             | BRAM_18K| DSP48E| FF| LUT|
    +-----------------------------------+--------------------------------+---------+-------+---+----+
    |projection_gp_mul_32s_7ns_32_5_U1  |projection_gp_mul_32s_7ns_32_5  |        0|      2|  0|   0|
    +-----------------------------------+--------------------------------+---------+-------+---+----+
    |Total                              |                                |        0|      2|  0|   0|
    +-----------------------------------+--------------------------------+---------+-------+---+----+

    * DSP48: 
    N/A

    * Memory: 
    N/A

    * FIFO: 
    N/A

    * Expression: 
    +---------------------+----------+-------+---+----+------------+------------+
    |    Variable Name    | Operation| DSP48E| FF| LUT| Bitwidth P0| Bitwidth P1|
    +---------------------+----------+-------+---+----+------------+------------+
    |i_7_fu_126_p2        |     +    |      0|  0|   6|           6|           1|
    |i_8_fu_162_p2        |     +    |      0|  0|   6|           6|           1|
    |next_mul_fu_168_p2   |     +    |      0|  0|  11|          11|           6|
    |tmp_51_fu_142_p2     |     +    |      0|  0|  10|          10|          10|
    |tmp_54_fu_178_p2     |     +    |      0|  0|  32|          32|          32|
    |tmp_56_fu_188_p2     |     +    |      0|  0|  11|          11|           6|
    |tmp_s_fu_132_p2      |     +    |      0|  0|  32|          32|          32|
    |exitcond1_fu_120_p2  |   icmp   |      0|  0|   3|           6|           6|
    |exitcond_fu_156_p2   |   icmp   |      0|  0|   3|           6|           6|
    +---------------------+----------+-------+---+----+------------+------------+
    |Total                |          |      0|  0| 114|         120|         100|
    +---------------------+----------+-------+---+----+------------+------------+

    * Multiplexer: 
    +----------------+----+-----------+-----+-----------+
    |      Name      | LUT| Input Size| Bits| Total Bits|
    +----------------+----+-----------+-----+-----------+
    |ap_NS_fsm       |  10|         16|    1|         16|
    |i1_reg_79       |   6|          2|    6|         12|
    |i_reg_68        |   6|          2|    6|         12|
    |pM_address0     |  11|          7|   11|         77|
    |phi_mul_reg_90  |  11|          2|   11|         22|
    +----------------+----+-----------+-----+-----------+
    |Total           |  44|         29|   35|        139|
    +----------------+----+-----------+-----+-----------+

    * Register: 
    +-------------------+----+----+-----+-----------+
    |        Name       | FF | LUT| Bits| Const Bits|
    +-------------------+----+----+-----+-----------+
    |ap_CS_fsm          |  15|   0|   15|          0|
    |i1_reg_79          |   6|   0|    6|          0|
    |i_7_reg_212        |   6|   0|    6|          0|
    |i_8_reg_235        |   6|   0|    6|          0|
    |i_reg_68           |   6|   0|    6|          0|
    |next_mul_reg_240   |  11|   0|   11|          0|
    |pM_addr_1_reg_227  |  11|   0|   11|          0|
    |pM_addr_2_reg_245  |  11|   0|   11|          0|
    |pM_addr_3_reg_255  |  11|   0|   11|          0|
    |pM_addr_reg_217    |  11|   0|   11|          0|
    |phi_mul_reg_90     |  11|   0|   11|          0|
    |reg_101            |  32|   0|   32|          0|
    |tmp_51_reg_222     |  10|   0|   10|          0|
    |tmp_56_reg_250     |  11|   0|   11|          0|
    |tmp_reg_204        |  32|   0|   32|          0|
    +-------------------+----+----+-----+-----------+
    |Total              | 190|   0|  190|          0|
    +-------------------+----+----+-----+-----------+



================================================================
== Interface
================================================================
* Summary: 
+-------------+-----+-----+------------+--------------------------------+--------------+
|  RTL Ports  | Dir | Bits|  Protocol  |          Source Object         |    C Type    |
+-------------+-----+-----+------------+--------------------------------+--------------+
|ap_clk       |  in |    1| ap_ctrl_hs | projection_gp_swapRowAndColumn | return value |
|ap_rst       |  in |    1| ap_ctrl_hs | projection_gp_swapRowAndColumn | return value |
|ap_start     |  in |    1| ap_ctrl_hs | projection_gp_swapRowAndColumn | return value |
|ap_done      | out |    1| ap_ctrl_hs | projection_gp_swapRowAndColumn | return value |
|ap_idle      | out |    1| ap_ctrl_hs | projection_gp_swapRowAndColumn | return value |
|ap_ready     | out |    1| ap_ctrl_hs | projection_gp_swapRowAndColumn | return value |
|pM_address0  | out |   11|  ap_memory |               pM               |     array    |
|pM_ce0       | out |    1|  ap_memory |               pM               |     array    |
|pM_we0       | out |    1|  ap_memory |               pM               |     array    |
|pM_d0        | out |   32|  ap_memory |               pM               |     array    |
|pM_q0        |  in |   32|  ap_memory |               pM               |     array    |
|rowA         |  in |   32|   ap_none  |              rowA              |    scalar    |
+-------------+-----+-----+------------+--------------------------------+--------------+

