
****** Webtalk v2015.4 (64-bit)
  **** SW Build 1412921 on Wed Nov 18 09:44:32 MST 2015
  **** IP Build 1412160 on Tue Nov 17 13:47:24 MST 2015
    ** Copyright 1986-2015 Xilinx, Inc. All Rights Reserved.

source /home/buschjae/projects/masterarbeit/masterarbeit-work/boards/artix_7_evaluation_board/microblaze_low_power_pgp_dim_13/microblaze_low_power_pgp_dim_13.hw/webtalk/labtool_webtalk.tcl -notrace
INFO: [Common 17-206] Exiting Webtalk at Mon Feb 22 13:07:08 2016...
