

================================================================
== Vivado HLS Report for 'projection_gp_K'
================================================================
* Date:           Tue Jan 12 17:53:38 2016

* Version:        2015.2 (Build 1266856 on Fri Jun 26 16:57:37 PM 2015)
* Project:        Projection_GP_NO_OPTIMIZATION
* Solution:       solution1
* Product family: artix7
* Target device:  xc7a200tfbg676-2


================================================================
== Performance Estimates
================================================================
+ Timing (ns): 
    * Summary: 
    +--------+-------+----------+------------+
    |  Clock | Target| Estimated| Uncertainty|
    +--------+-------+----------+------------+
    |ap_clk  |   5.00|      3.98|        0.62|
    +--------+-------+----------+------------+

+ Latency (clock cycles): 
    * Summary: 
    +-----+-----+-----+-----+---------+
    |  Latency  |  Interval | Pipeline|
    | min | max | min | max |   Type  |
    +-----+-----+-----+-----+---------+
    |  228|  228|  228|  228|   none  |
    +-----+-----+-----+-----+---------+

    + Detail: 
        * Instance: 
        N/A

        * Loop: 
        +----------+-----+-----+----------+-----------+-----------+------+----------+
        |          |  Latency  | Iteration|  Initiation Interval  | Trip |          |
        | Loop Name| min | max |  Latency |  achieved |   target  | Count| Pipelined|
        +----------+-----+-----+----------+-----------+-----------+------+----------+
        |- Loop 1  |  204|  204|        25|          9|          1|    21|    yes   |
        +----------+-----+-----+----------+-----------+-----------+------+----------+



================================================================
== Utilization Estimates
================================================================
* Summary: 
+-----------------+---------+-------+--------+--------+
|       Name      | BRAM_18K| DSP48E|   FF   |   LUT  |
+-----------------+---------+-------+--------+--------+
|Expression       |        -|      -|       -|       -|
|FIFO             |        -|      -|       -|       -|
|Instance         |        -|      -|       -|       -|
|Memory           |        -|      -|       -|       -|
|Multiplexer      |        -|      -|       -|       -|
|Register         |        -|      -|       -|       -|
+-----------------+---------+-------+--------+--------+
|Total            |        0|      0|       0|       0|
+-----------------+---------+-------+--------+--------+
|Available        |      730|    740|  269200|  129000|
+-----------------+---------+-------+--------+--------+
|Utilization (%)  |        0|      0|       0|       0|
+-----------------+---------+-------+--------+--------+

+ Detail: 
    * Instance: 
    N/A

    * Memory: 
    N/A

    * FIFO: 
    N/A

    * Expression: 
    N/A

    * Multiplexer: 
    N/A

    * Register: 
    N/A



================================================================
== Interface
================================================================
* Summary: 
N/A

============================================================
+ Verbose Summary: Synthesis Manager
============================================================
InlineROM: 1
ExposeGlobal: 0
============================================================
+ Verbose Summary: CDFG Model
============================================================
IsTopModel: 0
ResetActiveHigh: 1
IsCombinational: 0
IsDatapathOnly: 0
HasWiredReturn: 1
HasMFsm: 0
HasVarLatency: 1
IsPipeline: 0
IsRtlPipelined: 0
IsInstanceOverlapped: 0
IsDontTouch: 0
HasImplIP: 0
IsGatedGlobalClock: 0

+ Individual pipeline summary: 
  * Pipeline-0: initiation interval (II) = 9, depth = 25


============================================================
+ Verbose Summary: Schedule
============================================================
* Number of FSM states: 49
* Pipeline: 1
  Pipeline-0: II = 9, D = 25, States = { 2 3 4 5 6 7 8 9 10 11 12 13 14 15 16 17 18 19 20 21 22 23 24 25 26 }
* Dataflow Pipeline: 0

* FSM state transitions: 
1 --> 
	2  / true
2 --> 
	27  / (exitcond)
	3  / (!exitcond)
3 --> 
	4  / true
4 --> 
	5  / true
5 --> 
	6  / true
6 --> 
	7  / true
7 --> 
	8  / true
8 --> 
	9  / true
9 --> 
	10  / true
10 --> 
	11  / true
11 --> 
	12  / true
12 --> 
	13  / true
13 --> 
	14  / true
14 --> 
	15  / true
15 --> 
	16  / true
16 --> 
	17  / true
17 --> 
	18  / true
18 --> 
	19  / true
19 --> 
	20  / true
20 --> 
	21  / true
21 --> 
	22  / true
22 --> 
	23  / true
23 --> 
	24  / true
24 --> 
	25  / true
25 --> 
	26  / true
26 --> 
	2  / true
27 --> 
	28  / true
28 --> 
	29  / true
29 --> 
	30  / true
30 --> 
	31  / true
31 --> 
	32  / true
32 --> 
	33  / true
33 --> 
	34  / true
34 --> 
	35  / true
35 --> 
	36  / true
36 --> 
	37  / true
37 --> 
	38  / true
38 --> 
	39  / true
39 --> 
	40  / true
40 --> 
	41  / true
41 --> 
	42  / true
42 --> 
	43  / true
43 --> 
	44  / true
44 --> 
	45  / true
45 --> 
	46  / true
46 --> 
	47  / true
47 --> 
	48  / true
48 --> 
	49  / true
49 --> 
* FSM state operations: 

 <State 1>: 2.06ns
ST_1: empty [1/1] 0.00ns
:0  %empty = call i32 (...)* @_ssdm_op_SpecMemCore([21 x float]* %pX2, [1 x i8]* @p_str3, [7 x i8]* @RAM_1P_str, [1 x i8]* @p_str3, i32 -1, [1 x i8]* @p_str3, [1 x i8]* @p_str3, [1 x i8]* @p_str3)

ST_1: tmp_152_read [1/1] 2.06ns
:1  %tmp_152_read = call i13 @_ssdm_op_Read.ap_auto.i13(i13 %tmp_152)

ST_1: tmp [1/1] 0.00ns
:2  %tmp = trunc i13 %tmp_152_read to i12

ST_1: stg_53 [1/1] 1.31ns
:3  br label %1


 <State 2>: 3.98ns
ST_2: sum [1/1] 0.00ns
:0  %sum = phi float [ 0.000000e+00, %0 ], [ %sum_1, %2 ]

ST_2: i [1/1] 0.00ns
:1  %i = phi i5 [ 0, %0 ], [ %i_1, %2 ]

ST_2: exitcond [1/1] 1.84ns
:2  %exitcond = icmp eq i5 %i, -11

ST_2: i_1 [1/1] 1.50ns
:3  %i_1 = add i5 %i, 1

ST_2: stg_58 [1/1] 0.00ns
:4  br i1 %exitcond, label %3, label %2

ST_2: tmp_2 [1/1] 0.00ns
:3  %tmp_2 = zext i5 %i to i64

ST_2: tmp_2_cast [1/1] 0.00ns
:4  %tmp_2_cast = zext i5 %i to i12

ST_2: sum1 [1/1] 1.60ns
:5  %sum1 = add i12 %tmp_2_cast, %tmp

ST_2: sum1_cast [1/1] 0.00ns
:6  %sum1_cast = zext i12 %sum1 to i64

ST_2: pX1_addr [1/1] 0.00ns
:7  %pX1_addr = getelementptr [2121 x float]* %pX1, i64 0, i64 %sum1_cast

ST_2: pX1_load [2/2] 2.38ns
:8  %pX1_load = load float* %pX1_addr, align 4

ST_2: pX2_addr [1/1] 0.00ns
:9  %pX2_addr = getelementptr [21 x float]* %pX2, i64 0, i64 %tmp_2

ST_2: pX2_load [2/2] 2.39ns
:10  %pX2_load = load float* %pX2_addr, align 4


 <State 3>: 2.39ns
ST_3: pX1_load [1/2] 2.38ns
:8  %pX1_load = load float* %pX1_addr, align 4

ST_3: pX2_load [1/2] 2.39ns
:10  %pX2_load = load float* %pX2_addr, align 4


 <State 4>: 3.51ns
ST_4: val [9/9] 3.51ns
:11  %val = fsub float %pX1_load, %pX2_load


 <State 5>: 3.51ns
ST_5: val [8/9] 3.51ns
:11  %val = fsub float %pX1_load, %pX2_load


 <State 6>: 3.51ns
ST_6: val [7/9] 3.51ns
:11  %val = fsub float %pX1_load, %pX2_load


 <State 7>: 3.51ns
ST_7: val [6/9] 3.51ns
:11  %val = fsub float %pX1_load, %pX2_load


 <State 8>: 3.51ns
ST_8: val [5/9] 3.51ns
:11  %val = fsub float %pX1_load, %pX2_load


 <State 9>: 3.51ns
ST_9: val [4/9] 3.51ns
:11  %val = fsub float %pX1_load, %pX2_load


 <State 10>: 3.51ns
ST_10: val [3/9] 3.51ns
:11  %val = fsub float %pX1_load, %pX2_load


 <State 11>: 3.51ns
ST_11: val [2/9] 3.51ns
:11  %val = fsub float %pX1_load, %pX2_load


 <State 12>: 3.51ns
ST_12: val [1/9] 3.51ns
:11  %val = fsub float %pX1_load, %pX2_load


 <State 13>: 3.66ns
ST_13: tmp_3 [5/5] 3.66ns
:12  %tmp_3 = fmul float %val, %val


 <State 14>: 3.66ns
ST_14: tmp_3 [4/5] 3.66ns
:12  %tmp_3 = fmul float %val, %val


 <State 15>: 3.66ns
ST_15: tmp_3 [3/5] 3.66ns
:12  %tmp_3 = fmul float %val, %val


 <State 16>: 3.66ns
ST_16: tmp_3 [2/5] 3.66ns
:12  %tmp_3 = fmul float %val, %val


 <State 17>: 3.66ns
ST_17: tmp_3 [1/5] 3.66ns
:12  %tmp_3 = fmul float %val, %val


 <State 18>: 3.51ns
ST_18: sum_1 [9/9] 3.51ns
:13  %sum_1 = fadd float %sum, %tmp_3


 <State 19>: 3.51ns
ST_19: sum_1 [8/9] 3.51ns
:13  %sum_1 = fadd float %sum, %tmp_3


 <State 20>: 3.51ns
ST_20: sum_1 [7/9] 3.51ns
:13  %sum_1 = fadd float %sum, %tmp_3


 <State 21>: 3.51ns
ST_21: sum_1 [6/9] 3.51ns
:13  %sum_1 = fadd float %sum, %tmp_3


 <State 22>: 3.51ns
ST_22: sum_1 [5/9] 3.51ns
:13  %sum_1 = fadd float %sum, %tmp_3


 <State 23>: 3.51ns
ST_23: sum_1 [4/9] 3.51ns
:13  %sum_1 = fadd float %sum, %tmp_3


 <State 24>: 3.51ns
ST_24: sum_1 [3/9] 3.51ns
:13  %sum_1 = fadd float %sum, %tmp_3


 <State 25>: 3.51ns
ST_25: sum_1 [2/9] 3.51ns
:13  %sum_1 = fadd float %sum, %tmp_3


 <State 26>: 3.51ns
ST_26: stg_91 [1/1] 0.00ns
:0  call void (...)* @_ssdm_op_SpecLoopTripCount(i64 21, i64 21, i64 21)

ST_26: tmp_s [1/1] 0.00ns
:1  %tmp_s = call i32 (...)* @_ssdm_op_SpecRegionBegin([12 x i8]* @p_str)

ST_26: stg_93 [1/1] 0.00ns
:2  call void (...)* @_ssdm_op_SpecPipeline(i32 1, i32 1, i32 1, i32 0, [1 x i8]* @p_str1) nounwind

ST_26: sum_1 [1/9] 3.51ns
:13  %sum_1 = fadd float %sum, %tmp_3

ST_26: empty_23 [1/1] 0.00ns
:14  %empty_23 = call i32 (...)* @_ssdm_op_SpecRegionEnd([12 x i8]* @p_str, i32 %tmp_s)

ST_26: stg_96 [1/1] 0.00ns
:15  br label %1


 <State 27>: 3.66ns
ST_27: p_x_assign [5/5] 3.66ns
:0  %p_x_assign = fmul float %sum, -5.000000e-01


 <State 28>: 3.66ns
ST_28: p_x_assign [4/5] 3.66ns
:0  %p_x_assign = fmul float %sum, -5.000000e-01


 <State 29>: 3.66ns
ST_29: p_x_assign [3/5] 3.66ns
:0  %p_x_assign = fmul float %sum, -5.000000e-01


 <State 30>: 3.66ns
ST_30: p_x_assign [2/5] 3.66ns
:0  %p_x_assign = fmul float %sum, -5.000000e-01


 <State 31>: 3.66ns
ST_31: p_x_assign [1/5] 3.66ns
:0  %p_x_assign = fmul float %sum, -5.000000e-01


 <State 32>: 3.59ns
ST_32: tmp_i [18/18] 3.59ns
:1  %tmp_i = call float @llvm.exp.f32(float %p_x_assign) nounwind


 <State 33>: 3.59ns
ST_33: tmp_i [17/18] 3.59ns
:1  %tmp_i = call float @llvm.exp.f32(float %p_x_assign) nounwind


 <State 34>: 3.59ns
ST_34: tmp_i [16/18] 3.59ns
:1  %tmp_i = call float @llvm.exp.f32(float %p_x_assign) nounwind


 <State 35>: 3.59ns
ST_35: tmp_i [15/18] 3.59ns
:1  %tmp_i = call float @llvm.exp.f32(float %p_x_assign) nounwind


 <State 36>: 3.59ns
ST_36: tmp_i [14/18] 3.59ns
:1  %tmp_i = call float @llvm.exp.f32(float %p_x_assign) nounwind


 <State 37>: 3.59ns
ST_37: tmp_i [13/18] 3.59ns
:1  %tmp_i = call float @llvm.exp.f32(float %p_x_assign) nounwind


 <State 38>: 3.59ns
ST_38: tmp_i [12/18] 3.59ns
:1  %tmp_i = call float @llvm.exp.f32(float %p_x_assign) nounwind


 <State 39>: 3.59ns
ST_39: tmp_i [11/18] 3.59ns
:1  %tmp_i = call float @llvm.exp.f32(float %p_x_assign) nounwind


 <State 40>: 3.59ns
ST_40: tmp_i [10/18] 3.59ns
:1  %tmp_i = call float @llvm.exp.f32(float %p_x_assign) nounwind


 <State 41>: 3.59ns
ST_41: tmp_i [9/18] 3.59ns
:1  %tmp_i = call float @llvm.exp.f32(float %p_x_assign) nounwind


 <State 42>: 3.59ns
ST_42: tmp_i [8/18] 3.59ns
:1  %tmp_i = call float @llvm.exp.f32(float %p_x_assign) nounwind


 <State 43>: 3.59ns
ST_43: tmp_i [7/18] 3.59ns
:1  %tmp_i = call float @llvm.exp.f32(float %p_x_assign) nounwind


 <State 44>: 3.59ns
ST_44: tmp_i [6/18] 3.59ns
:1  %tmp_i = call float @llvm.exp.f32(float %p_x_assign) nounwind


 <State 45>: 3.59ns
ST_45: tmp_i [5/18] 3.59ns
:1  %tmp_i = call float @llvm.exp.f32(float %p_x_assign) nounwind


 <State 46>: 3.59ns
ST_46: tmp_i [4/18] 3.59ns
:1  %tmp_i = call float @llvm.exp.f32(float %p_x_assign) nounwind


 <State 47>: 3.59ns
ST_47: tmp_i [3/18] 3.59ns
:1  %tmp_i = call float @llvm.exp.f32(float %p_x_assign) nounwind


 <State 48>: 3.59ns
ST_48: tmp_i [2/18] 3.59ns
:1  %tmp_i = call float @llvm.exp.f32(float %p_x_assign) nounwind


 <State 49>: 3.59ns
ST_49: tmp_i [1/18] 3.59ns
:1  %tmp_i = call float @llvm.exp.f32(float %p_x_assign) nounwind

ST_49: stg_120 [1/1] 0.00ns
:2  ret float %tmp_i



============================================================
+ Verbose Summary: Binding
============================================================
N/A
* FSMD analyzer results:
  - Output states:
  - Chain level:
	State 1
	State 2
	State 3
	State 4
	State 5
	State 6
	State 7
	State 8
	State 9
	State 10
	State 11
	State 12
	State 13
	State 14
	State 15
	State 16
	State 17
	State 18
	State 19
	State 20
	State 21
	State 22
	State 23
	State 24
	State 25
	State 26
	State 27
	State 28
	State 29
	State 30
	State 31
	State 32
	State 33
	State 34
	State 35
	State 36
	State 37
	State 38
	State 39
	State 40
	State 41
	State 42
	State 43
	State 44
	State 45
	State 46
	State 47
	State 48
	State 49


============================================================
+ Verbose Summary: Datapath Resource usage 
============================================================
N/A
