Copyright 1986-2015 Xilinx, Inc. All Rights Reserved.
---------------------------------------------------------------------------------------------------
| Tool Version      : Vivado v.2015.2 (lin64) Build 1266856 Fri Jun 26 16:35:25 MDT 2015
| Date              : Sun Jan 17 11:08:42 2016
| Host              : kimme running 64-bit Ubuntu 14.04.3 LTS
| Command           : report_clock_utilization -file design_1_wrapper_clock_utilization_routed.rpt
| Design            : design_1_wrapper
| Device            : 7a200t-fbg676
| Speed File        : -2  PRODUCTION 1.14 2014-09-11
| Temperature Grade : C
---------------------------------------------------------------------------------------------------

Clock Utilization Report

Table of Contents
-----------------
1. Clock Primitive Utilization
2. Details of Global Clocks
3. Details of Regional Clocks
4. Details of Multi-Regional Clocks
5. Details of I/O Clocks
6. Details of Local Clocks
7. Clock Regions : Key Resource Utilization
8. Net wise resources used in clock region X0Y0
9. Net wise resources used in clock region X1Y0
10. Net wise resources used in clock region X0Y1
11. Net wise resources used in clock region X1Y1
12. Net wise resources used in clock region X0Y2
13. Net wise resources used in clock region X1Y2

1. Clock Primitive Utilization
------------------------------

+-------+------+-----------+-----------+
| Type  | Used | Available | Num Fixed |
+-------+------+-----------+-----------+
| BUFG  |    7 |        32 |         0 |
| BUFH  |    0 |       120 |         0 |
| BUFIO |    1 |        40 |         1 |
| MMCM  |    2 |        10 |         0 |
| PLL   |    0 |        10 |         0 |
| BUFR  |    1 |        40 |         0 |
| BUFMR |    0 |        20 |         0 |
+-------+------+-----------+-----------+


2. Details of Global Clocks
---------------------------

+-------+--------------------------------------------------------------------------------------------------+-----------------------------------------------------------------------------------------------+--------------+-------+
|       |                                                                                                  |                                                                                               |   Num Loads  |       |
+-------+--------------------------------------------------------------------------------------------------+-----------------------------------------------------------------------------------------------+------+-------+-------+
| Index | BUFG Cell                                                                                        | Net Name                                                                                      | BELs | Sites | Fixed |
+-------+--------------------------------------------------------------------------------------------------+-----------------------------------------------------------------------------------------------+------+-------+-------+
|     1 | design_1_i/clk_wiz_0/inst/clkf_buf                                                               | design_1_i/clk_wiz_0/inst/clkfbout_buf_design_1_clk_wiz_0_0                                   |    1 |     1 |    no |
|     2 | design_1_i/clk_wiz_0/inst/clkout2_buf                                                            | design_1_i/clk_wiz_0/inst/clk_out2                                                            |   11 |     4 |    no |
|     3 | design_1_i/axi_ethernet_0/inst/eth_mac/inst/tri_mode_ethernet_mac_support_clocking_i/clkout2_buf | design_1_i/axi_ethernet_0/inst/eth_mac/inst/tri_mode_ethernet_mac_support_clocking_i/clk_out2 |   37 |    13 |    no |
|     4 | design_1_i/clk_wiz_0/inst/clkout1_buf                                                            | design_1_i/clk_wiz_0/inst/clk_out1                                                            |   88 |    22 |    no |
|     5 | design_1_i/mdm_0/U0/No_Dbg_Reg_Access.BUFG_DRCK                                                  | design_1_i/mdm_0/U0/DRCK                                                                      |  228 |    79 |    no |
|     6 | design_1_i/axi_ethernet_0/inst/eth_mac/inst/tri_mode_ethernet_mac_support_clocking_i/clkout1_buf | design_1_i/axi_ethernet_0/inst/eth_mac/inst/tri_mode_ethernet_mac_support_clocking_i/clk_out1 | 1648 |   450 |    no |
|     7 | design_1_i/clk_wiz_0/inst/clkout3_buf                                                            | design_1_i/clk_wiz_0/inst/clk_out3                                                            | 4782 |  1689 |    no |
+-------+--------------------------------------------------------------------------------------------------+-----------------------------------------------------------------------------------------------+------+-------+-------+


+-------+----------------------------------------------------------------------------------------------------+-----------------------------------------------------------------------------------------------+--------------+-------+
|       |                                                                                                    |                                                                                               |   Num Loads  |       |
+-------+----------------------------------------------------------------------------------------------------+-----------------------------------------------------------------------------------------------+------+-------+-------+
| Index | MMCM Cell                                                                                          | Net Name                                                                                      | BELs | Sites | Fixed |
+-------+----------------------------------------------------------------------------------------------------+-----------------------------------------------------------------------------------------------+------+-------+-------+
|     1 | design_1_i/axi_ethernet_0/inst/eth_mac/inst/tri_mode_ethernet_mac_support_clocking_i/mmcm_adv_inst | design_1_i/axi_ethernet_0/inst/eth_mac/inst/tri_mode_ethernet_mac_support_clocking_i/clkfbout |    1 |     1 |    no |
|     2 | design_1_i/axi_ethernet_0/inst/eth_mac/inst/tri_mode_ethernet_mac_support_clocking_i/mmcm_adv_inst | design_1_i/axi_ethernet_0/inst/eth_mac/inst/tri_mode_ethernet_mac_support_clocking_i/clkout0  |    1 |     1 |    no |
|     3 | design_1_i/axi_ethernet_0/inst/eth_mac/inst/tri_mode_ethernet_mac_support_clocking_i/mmcm_adv_inst | design_1_i/axi_ethernet_0/inst/eth_mac/inst/tri_mode_ethernet_mac_support_clocking_i/clkout1  |    1 |     1 |    no |
|     4 | design_1_i/clk_wiz_0/inst/mmcm_adv_inst                                                            | design_1_i/clk_wiz_0/inst/clk_out1_design_1_clk_wiz_0_0                                       |    1 |     1 |    no |
|     5 | design_1_i/clk_wiz_0/inst/mmcm_adv_inst                                                            | design_1_i/clk_wiz_0/inst/clk_out2_design_1_clk_wiz_0_0                                       |    1 |     1 |    no |
|     6 | design_1_i/clk_wiz_0/inst/mmcm_adv_inst                                                            | design_1_i/clk_wiz_0/inst/clk_out3_design_1_clk_wiz_0_0                                       |    1 |     1 |    no |
|     7 | design_1_i/clk_wiz_0/inst/mmcm_adv_inst                                                            | design_1_i/clk_wiz_0/inst/clkfbout_design_1_clk_wiz_0_0                                       |    1 |     1 |    no |
+-------+----------------------------------------------------------------------------------------------------+-----------------------------------------------------------------------------------------------+------+-------+-------+


3. Details of Regional Clocks
-----------------------------

+-------+-------------------------------------------------------------------------------------------------------+--------------------------------------------------------------------------------------------+--------------+-------+
|       |                                                                                                       |                                                                                            |   Num Loads  |       |
+-------+-------------------------------------------------------------------------------------------------------+--------------------------------------------------------------------------------------------+------+-------+-------+
| Index | BUFR Cell                                                                                             | Net Name                                                                                   | BELs | Sites | Fixed |
+-------+-------------------------------------------------------------------------------------------------------+--------------------------------------------------------------------------------------------+------+-------+-------+
|     1 | design_1_i/axi_ethernet_0/inst/eth_mac/inst/tri_mode_ethernet_mac_i/rgmii_interface/bufr_rgmii_rx_clk | design_1_i/axi_ethernet_0/inst/eth_mac/inst/tri_mode_ethernet_mac_i/rgmii_interface/rx_clk | 1470 |   384 |    no |
+-------+-------------------------------------------------------------------------------------------------------+--------------------------------------------------------------------------------------------+------+-------+-------+


4. Details of Multi-Regional Clocks
-----------------------------------

5. Details of I/O Clocks
------------------------

+-------+--------------------------------------------------------------------------------------------------------+--------------------------------------------------------------------------------------------------------+--------------+-------+
|       |                                                                                                        |                                                                                                        |   Num Loads  |       |
+-------+--------------------------------------------------------------------------------------------------------+--------------------------------------------------------------------------------------------------------+------+-------+-------+
| Index | BUFIO Cell                                                                                             | Net Name                                                                                               | BELs | Sites | Fixed |
+-------+--------------------------------------------------------------------------------------------------------+--------------------------------------------------------------------------------------------------------+------+-------+-------+
|     1 | design_1_i/axi_ethernet_0/inst/eth_mac/inst/tri_mode_ethernet_mac_i/rgmii_interface/bufio_rgmii_rx_clk | design_1_i/axi_ethernet_0/inst/eth_mac/inst/tri_mode_ethernet_mac_i/rgmii_interface/rgmii_rx_clk_bufio |    5 |     5 |   yes |
+-------+--------------------------------------------------------------------------------------------------------+--------------------------------------------------------------------------------------------------------+------+-------+-------+


6. Details of Local Clocks
--------------------------

+-------+--------------------------------------+----------------------------+--------------+-------+
|       |                                      |                            |   Num Loads  |       |
+-------+--------------------------------------+----------------------------+------+-------+-------+
| Index | Local Clk Src                        | Net Name                   | BELs | Sites | Fixed |
+-------+--------------------------------------+----------------------------+------+-------+-------+
|     1 | design_1_i/mdm_0/U0/Use_E2.BSCANE2_I | design_1_i/mdm_0/U0/UPDATE |   39 |    16 |    no |
+-------+--------------------------------------+----------------------------+------+-------+-------+


7. Clock Regions : Key Resource Utilization
-------------------------------------------

+-------------------+--------------+--------------+--------------+--------------+--------------+--------------+--------------+--------------+--------------+--------------+--------------+--------------+--------------+--------------+--------------+
|                   | Global Clock |     BUFRs    |    BUFMRs    |    BUFIOs    |     MMCM     |      PLL     |      GT      |      PCI     |    ILOGIC    |    OLOGIC    |      FF      |     LUTM     |    RAMB18    |    RAMB36    |    DSP48E1   |
+-------------------+------+-------+------+-------+------+-------+------+-------+------+-------+------+-------+------+-------+------+-------+------+-------+------+-------+------+-------+------+-------+------+-------+------+-------+------+-------+
| Clock Region Name | Used | Avail | Used | Avail | Used | Avail | Used | Avail | Used | Avail | Used | Avail | Used | Avail | Used | Avail | Used | Avail | Used | Avail | Used | Avail | Used | Avail | Used | Avail | Used | Avail | Used | Avail |
+-------------------+------+-------+------+-------+------+-------+------+-------+------+-------+------+-------+------+-------+------+-------+------+-------+------+-------+------+-------+------+-------+------+-------+------+-------+------+-------+
| X0Y0              |    6 |    12 |    0 |     4 |    0 |     2 |    0 |     4 |    0 |     1 |    0 |     1 |    0 |     5 |    0 |     0 |    0 |    50 |    0 |    50 | 4284 | 21600 |  536 |  3200 |    0 |    60 |   29 |    30 |    0 |    60 |
| X1Y0              |    1 |    12 |    0 |     4 |    0 |     2 |    0 |     4 |    1 |     1 |    0 |     1 |    0 |     5 |    0 |     0 |    0 |    50 |    0 |    50 |    0 | 20000 |    0 |  3200 |    0 |    40 |    0 |    20 |    0 |    40 |
| X0Y1              |    5 |    12 |    1 |     4 |    0 |     2 |    1 |     4 |    0 |     1 |    0 |     1 |    0 |     0 |    0 |     0 |    5 |    50 |    6 |    50 | 2817 | 33600 |  576 |  5600 |    0 |   100 |   41 |    50 |    0 |   100 |
| X1Y1              |    1 |    12 |    0 |     4 |    0 |     2 |    0 |     4 |    0 |     1 |    0 |     1 |    0 |     0 |    0 |     0 |    0 |    50 |    0 |    50 |    0 | 32000 |    0 |  5600 |    0 |    80 |    4 |    40 |    0 |    80 |
| X0Y2              |    1 |    12 |    0 |     4 |    0 |     2 |    0 |     4 |    0 |     1 |    0 |     1 |    0 |     0 |    0 |     0 |    0 |    50 |    0 |    50 |    0 | 28800 |    0 |  5600 |    0 |   100 |    4 |    50 |    0 |   100 |
| X1Y2              |    1 |    12 |    0 |     4 |    0 |     2 |    0 |     4 |    1 |     1 |    0 |     1 |    0 |     0 |    0 |     0 |    0 |    50 |    0 |    50 |    0 | 32000 |    0 |  5600 |    0 |    80 |    0 |    40 |    0 |    80 |
| X0Y3              |    0 |    12 |    0 |     4 |    0 |     2 |    0 |     4 |    0 |     1 |    0 |     1 |    0 |     0 |    0 |     0 |    0 |    50 |    0 |    50 |    0 | 28800 |    0 |  5600 |    0 |   100 |    0 |    50 |    0 |   100 |
| X1Y3              |    0 |    12 |    0 |     4 |    0 |     2 |    0 |     4 |    0 |     1 |    0 |     1 |    0 |     0 |    0 |     0 |    0 |    50 |    0 |    50 |    0 | 32000 |    0 |  5600 |    0 |    80 |    0 |    40 |    0 |    80 |
| X0Y4              |    0 |    12 |    0 |     4 |    0 |     2 |    0 |     4 |    0 |     1 |    0 |     1 |    0 |     5 |    0 |     1 |    0 |    50 |    0 |    50 |    0 | 20400 |    0 |  3000 |    0 |    50 |    0 |    25 |    0 |    60 |
| X1Y4              |    0 |    12 |    0 |     4 |    0 |     2 |    0 |     4 |    0 |     1 |    0 |     1 |    0 |     5 |    0 |     0 |    0 |    50 |    0 |    50 |    0 | 20000 |    0 |  3200 |    0 |    40 |    0 |    20 |    0 |    40 |
+-------------------+------+-------+------+-------+------+-------+------+-------+------+-------+------+-------+------+-------+------+-------+------+-------+------+-------+------+-------+------+-------+------+-------+------+-------+------+-------+
* RAMB36 site can be used as two RAMB18/FIFO18 sites.


8. Net wise resources used in clock region X0Y0
-----------------------------------------------

+-------------+--------------+-------+-----------+----------+---------+-----------+---------+---------+------+-------+----------+-----------------------------------------------------------------------------------------------+
| Source Type | BUFHCE Site  | Fixed | MMCM Pins | PLL Pins | GT Pins | BRAM Pins | ILOGICs | OLOGICs |  FFs | LUTMs | DSP48E1s |                                         Clock Net Name                                        |
+-------------+--------------+-------+-----------+----------+---------+-----------+---------+---------+------+-------+----------+-----------------------------------------------------------------------------------------------+
| BUFGCTRL    | BUFHCE_X0Y0  |   no  |         0 |        0 |       0 |         0 |       0 |       0 |   10 |     0 |        0 | design_1_i/axi_ethernet_0/inst/eth_mac/inst/tri_mode_ethernet_mac_support_clocking_i/clk_out2 |
| BUFG        | BUFHCE_X0Y1  |   no  |         0 |        0 |       0 |         0 |       0 |       0 |   10 |     0 |        0 | design_1_i/clk_wiz_0/inst/clk_out2                                                            |
| BUFG        | BUFHCE_X0Y10 |   no  |         0 |        0 |       0 |         0 |       0 |       0 |   12 |     0 |        0 | design_1_i/clk_wiz_0/inst/clk_out1                                                            |
| BUFG        | BUFHCE_X0Y9  |   no  |         0 |        0 |       0 |         0 |       0 |       0 |  207 |    21 |        0 | design_1_i/mdm_0/U0/DRCK                                                                      |
| BUFGCTRL    | BUFHCE_X0Y11 |   no  |         0 |        0 |       0 |         1 |       0 |       0 | 1470 |    90 |        0 | design_1_i/axi_ethernet_0/inst/eth_mac/inst/tri_mode_ethernet_mac_support_clocking_i/clk_out1 |
| BUFG        | BUFHCE_X0Y8  |   no  |         0 |        0 |       0 |        57 |       0 |       0 | 2536 |   425 |        0 | design_1_i/clk_wiz_0/inst/clk_out3                                                            |
+-------------+--------------+-------+-----------+----------+---------+-----------+---------+---------+------+-------+----------+-----------------------------------------------------------------------------------------------+


9. Net wise resources used in clock region X1Y0
-----------------------------------------------

+-------------+-------------+-------+-----------+----------+---------+-----------+---------+---------+-----+-------+----------+------------------------------------+
| Source Type | BUFHCE Site | Fixed | MMCM Pins | PLL Pins | GT Pins | BRAM Pins | ILOGICs | OLOGICs | FFs | LUTMs | DSP48E1s |           Clock Net Name           |
+-------------+-------------+-------+-----------+----------+---------+-----------+---------+---------+-----+-------+----------+------------------------------------+
| BUFG        | BUFHCE_X1Y0 |   no  |         1 |        0 |       0 |         0 |       0 |       0 |   0 |     0 |        0 | design_1_i/clk_wiz_0/inst/clk_out1 |
+-------------+-------------+-------+-----------+----------+---------+-----------+---------+---------+-----+-------+----------+------------------------------------+


10. Net wise resources used in clock region X0Y1
------------------------------------------------

+-------------+--------------+-------+-----------+----------+---------+-----------+---------+---------+------+-------+----------+--------------------------------------------------------------------------------------------------------+
| Source Type | BUFHCE Site  | Fixed | MMCM Pins | PLL Pins | GT Pins | BRAM Pins | ILOGICs | OLOGICs |  FFs | LUTMs | DSP48E1s |                                             Clock Net Name                                             |
+-------------+--------------+-------+-----------+----------+---------+-----------+---------+---------+------+-------+----------+--------------------------------------------------------------------------------------------------------+
| BUFIO       |      ---     |  yes  |         0 |        0 |       0 |         0 |       5 |       0 |    0 |     0 |        0 | design_1_i/axi_ethernet_0/inst/eth_mac/inst/tri_mode_ethernet_mac_i/rgmii_interface/rgmii_rx_clk_bufio |
| BUFGCTRL    | BUFHCE_X0Y22 |   no  |         0 |        0 |       0 |         0 |       0 |       1 |   26 |     0 |        0 | design_1_i/axi_ethernet_0/inst/eth_mac/inst/tri_mode_ethernet_mac_support_clocking_i/clk_out2          |
| BUFG        | BUFHCE_X0Y21 |   no  |         0 |        0 |       0 |         0 |       0 |       0 |   74 |     1 |        0 | design_1_i/clk_wiz_0/inst/clk_out1                                                                     |
| BUFGCTRL    | BUFHCE_X0Y23 |   no  |         0 |        0 |       0 |         1 |       0 |       5 |   81 |     0 |        0 | design_1_i/axi_ethernet_0/inst/eth_mac/inst/tri_mode_ethernet_mac_support_clocking_i/clk_out1          |
| BUFG        | BUFHCE_X0Y20 |   no  |         0 |        0 |       0 |        79 |       0 |       0 | 1205 |   538 |        0 | design_1_i/clk_wiz_0/inst/clk_out3                                                                     |
| BUFR        |      ---     |   no  |         0 |        0 |       0 |         2 |       0 |       0 | 1431 |    37 |        0 | design_1_i/axi_ethernet_0/inst/eth_mac/inst/tri_mode_ethernet_mac_i/rgmii_interface/rx_clk             |
+-------------+--------------+-------+-----------+----------+---------+-----------+---------+---------+------+-------+----------+--------------------------------------------------------------------------------------------------------+


11. Net wise resources used in clock region X1Y1
------------------------------------------------

+-------------+--------------+-------+-----------+----------+---------+-----------+---------+---------+-----+-------+----------+------------------------------------+
| Source Type | BUFHCE Site  | Fixed | MMCM Pins | PLL Pins | GT Pins | BRAM Pins | ILOGICs | OLOGICs | FFs | LUTMs | DSP48E1s |           Clock Net Name           |
+-------------+--------------+-------+-----------+----------+---------+-----------+---------+---------+-----+-------+----------+------------------------------------+
| BUFG        | BUFHCE_X1Y20 |   no  |         0 |        0 |       0 |         8 |       0 |       0 |   0 |     0 |        0 | design_1_i/clk_wiz_0/inst/clk_out3 |
+-------------+--------------+-------+-----------+----------+---------+-----------+---------+---------+-----+-------+----------+------------------------------------+


12. Net wise resources used in clock region X0Y2
------------------------------------------------

+-------------+--------------+-------+-----------+----------+---------+-----------+---------+---------+-----+-------+----------+------------------------------------+
| Source Type | BUFHCE Site  | Fixed | MMCM Pins | PLL Pins | GT Pins | BRAM Pins | ILOGICs | OLOGICs | FFs | LUTMs | DSP48E1s |           Clock Net Name           |
+-------------+--------------+-------+-----------+----------+---------+-----------+---------+---------+-----+-------+----------+------------------------------------+
| BUFG        | BUFHCE_X0Y32 |   no  |         0 |        0 |       0 |         8 |       0 |       0 |   0 |     0 |        0 | design_1_i/clk_wiz_0/inst/clk_out3 |
+-------------+--------------+-------+-----------+----------+---------+-----------+---------+---------+-----+-------+----------+------------------------------------+


13. Net wise resources used in clock region X1Y2
------------------------------------------------

+-------------+--------------+-------+-----------+----------+---------+-----------+---------+---------+-----+-------+----------+-------------------------------------------------------------+
| Source Type | BUFHCE Site  | Fixed | MMCM Pins | PLL Pins | GT Pins | BRAM Pins | ILOGICs | OLOGICs | FFs | LUTMs | DSP48E1s |                        Clock Net Name                       |
+-------------+--------------+-------+-----------+----------+---------+-----------+---------+---------+-----+-------+----------+-------------------------------------------------------------+
| BUFG        | BUFHCE_X1Y24 |   no  |         1 |        0 |       0 |         0 |       0 |       0 |   0 |     0 |        0 | design_1_i/clk_wiz_0/inst/clkfbout_buf_design_1_clk_wiz_0_0 |
+-------------+--------------+-------+-----------+----------+---------+-----------+---------+---------+-----+-------+----------+-------------------------------------------------------------+



# Location of BUFG Primitives 
set_property LOC BUFGCTRL_X0Y0 [get_cells design_1_i/axi_ethernet_0/inst/eth_mac/inst/tri_mode_ethernet_mac_support_clocking_i/clkout1_buf]
set_property LOC BUFGCTRL_X0Y1 [get_cells design_1_i/axi_ethernet_0/inst/eth_mac/inst/tri_mode_ethernet_mac_support_clocking_i/clkout2_buf]
set_property LOC BUFGCTRL_X0Y5 [get_cells design_1_i/clk_wiz_0/inst/clkout1_buf]
set_property LOC BUFGCTRL_X0Y2 [get_cells design_1_i/clk_wiz_0/inst/clkout2_buf]
set_property LOC BUFGCTRL_X0Y3 [get_cells design_1_i/clk_wiz_0/inst/clkout3_buf]
set_property LOC BUFGCTRL_X0Y6 [get_cells design_1_i/clk_wiz_0/inst/clkf_buf]
set_property LOC BUFGCTRL_X0Y4 [get_cells design_1_i/mdm_0/U0/No_Dbg_Reg_Access.BUFG_DRCK]

# Location of IO Clock Primitives
set_property LOC BUFIO_X0Y5 [get_cells design_1_i/axi_ethernet_0/inst/eth_mac/inst/tri_mode_ethernet_mac_i/rgmii_interface/bufio_rgmii_rx_clk]

# Location of MMCM Clock Primitives
set_property LOC MMCME2_ADV_X1Y0 [get_cells design_1_i/axi_ethernet_0/inst/eth_mac/inst/tri_mode_ethernet_mac_support_clocking_i/mmcm_adv_inst]
set_property LOC MMCME2_ADV_X1Y2 [get_cells design_1_i/clk_wiz_0/inst/mmcm_adv_inst]

# Location of BUFH Clock Primitives

# Location of BUFR Clock Primitives
set_property LOC BUFR_X0Y5 [get_cells design_1_i/axi_ethernet_0/inst/eth_mac/inst/tri_mode_ethernet_mac_i/rgmii_interface/bufr_rgmii_rx_clk]

# Location of BUFMR Clock Primitives

# Location of PLL Clock Primitives

# Location of IO Primitives which is load of clock spine

# Location of clock ports
set_property LOC IOB_X0Y74 [get_ports rgmii_rxc]
set_property LOC IOB_X1Y123 [get_ports sys_diff_clock_clk_n]
set_property LOC IOB_X1Y124 [get_ports sys_diff_clock_clk_p]

# Clock net "design_1_i/axi_ethernet_0/inst/eth_mac/inst/tri_mode_ethernet_mac_i/rgmii_interface/rx_clk" driven by instance "design_1_i/axi_ethernet_0/inst/eth_mac/inst/tri_mode_ethernet_mac_i/rgmii_interface/bufr_rgmii_rx_clk" located at site "BUFR_X0Y5"
#startgroup
create_pblock {CLKAG_design_1_i/axi_ethernet_0/inst/eth_mac/inst/tri_mode_ethernet_mac_i/rgmii_interface/rx_clk}
add_cells_to_pblock [get_pblocks  {CLKAG_design_1_i/axi_ethernet_0/inst/eth_mac/inst/tri_mode_ethernet_mac_i/rgmii_interface/rx_clk}] [get_cells -filter { PRIMITIVE_GROUP != I/O && IS_PRIMITIVE==1 && PRIMITIVE_LEVEL !=INTERNAL } -of_object [get_pins -filter {DIRECTION==IN} -of_objects [get_nets -hierarchical -filter {PARENT=="design_1_i/axi_ethernet_0/inst/eth_mac/inst/tri_mode_ethernet_mac_i/rgmii_interface/rx_clk"}]]]
resize_pblock [get_pblocks {CLKAG_design_1_i/axi_ethernet_0/inst/eth_mac/inst/tri_mode_ethernet_mac_i/rgmii_interface/rx_clk}] -add {CLOCKREGION_X0Y1:CLOCKREGION_X0Y1}
#endgroup

# Clock net "design_1_i/axi_ethernet_0/inst/eth_mac/inst/tri_mode_ethernet_mac_support_clocking_i/clk_out1" driven by instance "design_1_i/axi_ethernet_0/inst/eth_mac/inst/tri_mode_ethernet_mac_support_clocking_i/clkout1_buf" located at site "BUFGCTRL_X0Y0"
#startgroup
create_pblock {CLKAG_design_1_i/axi_ethernet_0/inst/eth_mac/inst/tri_mode_ethernet_mac_support_clocking_i/clk_out1}
add_cells_to_pblock [get_pblocks  {CLKAG_design_1_i/axi_ethernet_0/inst/eth_mac/inst/tri_mode_ethernet_mac_support_clocking_i/clk_out1}] [get_cells -filter { PRIMITIVE_GROUP != I/O && IS_PRIMITIVE==1 && PRIMITIVE_LEVEL !=INTERNAL } -of_object [get_pins -filter {DIRECTION==IN} -of_objects [get_nets -hierarchical -filter {PARENT=="design_1_i/axi_ethernet_0/inst/eth_mac/inst/tri_mode_ethernet_mac_support_clocking_i/clk_out1"}]]]
resize_pblock [get_pblocks {CLKAG_design_1_i/axi_ethernet_0/inst/eth_mac/inst/tri_mode_ethernet_mac_support_clocking_i/clk_out1}] -add {CLOCKREGION_X0Y0:CLOCKREGION_X0Y0 CLOCKREGION_X0Y1:CLOCKREGION_X0Y1}
#endgroup

# Clock net "design_1_i/axi_ethernet_0/inst/eth_mac/inst/tri_mode_ethernet_mac_support_clocking_i/clk_out2" driven by instance "design_1_i/axi_ethernet_0/inst/eth_mac/inst/tri_mode_ethernet_mac_support_clocking_i/clkout2_buf" located at site "BUFGCTRL_X0Y1"
#startgroup
create_pblock {CLKAG_design_1_i/axi_ethernet_0/inst/eth_mac/inst/tri_mode_ethernet_mac_support_clocking_i/clk_out2}
add_cells_to_pblock [get_pblocks  {CLKAG_design_1_i/axi_ethernet_0/inst/eth_mac/inst/tri_mode_ethernet_mac_support_clocking_i/clk_out2}] [get_cells -filter { PRIMITIVE_GROUP != I/O && IS_PRIMITIVE==1 && PRIMITIVE_LEVEL !=INTERNAL } -of_object [get_pins -filter {DIRECTION==IN} -of_objects [get_nets -hierarchical -filter {PARENT=="design_1_i/axi_ethernet_0/inst/eth_mac/inst/tri_mode_ethernet_mac_support_clocking_i/clk_out2"}]]]
resize_pblock [get_pblocks {CLKAG_design_1_i/axi_ethernet_0/inst/eth_mac/inst/tri_mode_ethernet_mac_support_clocking_i/clk_out2}] -add {CLOCKREGION_X0Y0:CLOCKREGION_X0Y0 CLOCKREGION_X0Y1:CLOCKREGION_X0Y1}
#endgroup

# Clock net "design_1_i/clk_wiz_0/inst/clk_out1" driven by instance "design_1_i/clk_wiz_0/inst/clkout1_buf" located at site "BUFGCTRL_X0Y5"
#startgroup
create_pblock {CLKAG_design_1_i/clk_wiz_0/inst/clk_out1}
add_cells_to_pblock [get_pblocks  {CLKAG_design_1_i/clk_wiz_0/inst/clk_out1}] [get_cells -filter { PRIMITIVE_GROUP != I/O && IS_PRIMITIVE==1 && PRIMITIVE_LEVEL !=INTERNAL && NAME!=design_1_i/axi_ethernet_0/inst/eth_mac/inst/tri_mode_ethernet_mac_support_clocking_i/mmcm_adv_inst} -of_object [get_pins -filter {DIRECTION==IN} -of_objects [get_nets -hierarchical -filter {PARENT=="design_1_i/clk_wiz_0/inst/clk_out1"}]]]
resize_pblock [get_pblocks {CLKAG_design_1_i/clk_wiz_0/inst/clk_out1}] -add {CLOCKREGION_X0Y0:CLOCKREGION_X0Y0 CLOCKREGION_X0Y1:CLOCKREGION_X0Y1}
#endgroup

# Clock net "design_1_i/clk_wiz_0/inst/clk_out2" driven by instance "design_1_i/clk_wiz_0/inst/clkout2_buf" located at site "BUFGCTRL_X0Y2"
#startgroup
create_pblock {CLKAG_design_1_i/clk_wiz_0/inst/clk_out2}
add_cells_to_pblock [get_pblocks  {CLKAG_design_1_i/clk_wiz_0/inst/clk_out2}] [get_cells -filter { PRIMITIVE_GROUP != I/O && IS_PRIMITIVE==1 && PRIMITIVE_LEVEL !=INTERNAL } -of_object [get_pins -filter {DIRECTION==IN} -of_objects [get_nets -hierarchical -filter {PARENT=="design_1_i/clk_wiz_0/inst/clk_out2"}]]]
resize_pblock [get_pblocks {CLKAG_design_1_i/clk_wiz_0/inst/clk_out2}] -add {CLOCKREGION_X0Y0:CLOCKREGION_X0Y0 CLOCKREGION_X0Y1:CLOCKREGION_X0Y1}
#endgroup

# Clock net "design_1_i/clk_wiz_0/inst/clk_out3" driven by instance "design_1_i/clk_wiz_0/inst/clkout3_buf" located at site "BUFGCTRL_X0Y3"
#startgroup
create_pblock {CLKAG_design_1_i/clk_wiz_0/inst/clk_out3}
add_cells_to_pblock [get_pblocks  {CLKAG_design_1_i/clk_wiz_0/inst/clk_out3}] [get_cells -filter { PRIMITIVE_GROUP != I/O && IS_PRIMITIVE==1 && PRIMITIVE_LEVEL !=INTERNAL } -of_object [get_pins -filter {DIRECTION==IN} -of_objects [get_nets -hierarchical -filter {PARENT=="design_1_i/clk_wiz_0/inst/clk_out3"}]]]
resize_pblock [get_pblocks {CLKAG_design_1_i/clk_wiz_0/inst/clk_out3}] -add {CLOCKREGION_X0Y0:CLOCKREGION_X0Y0 CLOCKREGION_X0Y1:CLOCKREGION_X0Y1 CLOCKREGION_X0Y2:CLOCKREGION_X0Y2 CLOCKREGION_X1Y1:CLOCKREGION_X1Y1}
#endgroup

# Clock net "design_1_i/mdm_0/U0/DRCK" driven by instance "design_1_i/mdm_0/U0/No_Dbg_Reg_Access.BUFG_DRCK" located at site "BUFGCTRL_X0Y4"
#startgroup
create_pblock {CLKAG_design_1_i/mdm_0/U0/DRCK}
add_cells_to_pblock [get_pblocks  {CLKAG_design_1_i/mdm_0/U0/DRCK}] [get_cells -filter { PRIMITIVE_GROUP != I/O && IS_PRIMITIVE==1 && PRIMITIVE_LEVEL !=INTERNAL } -of_object [get_pins -filter {DIRECTION==IN} -of_objects [get_nets -hierarchical -filter {PARENT=="design_1_i/mdm_0/U0/DRCK"}]]]
resize_pblock [get_pblocks {CLKAG_design_1_i/mdm_0/U0/DRCK}] -add {CLOCKREGION_X0Y0:CLOCKREGION_X0Y0}
#endgroup

# Clock net "design_1_i/mdm_0/U0/UPDATE" driven by instance "design_1_i/mdm_0/U0/Use_E2.BSCANE2_I" located at site "BSCAN_X0Y1"
#startgroup
create_pblock {CLKAG_design_1_i/mdm_0/U0/UPDATE}
add_cells_to_pblock [get_pblocks  {CLKAG_design_1_i/mdm_0/U0/UPDATE}] [get_cells -filter { PRIMITIVE_GROUP != I/O && IS_PRIMITIVE==1 && PRIMITIVE_LEVEL !=INTERNAL } -of_object [get_pins -filter {DIRECTION==IN} -of_objects [get_nets -hierarchical -filter {PARENT=="design_1_i/mdm_0/U0/UPDATE"}]]]
resize_pblock [get_pblocks {CLKAG_design_1_i/mdm_0/U0/UPDATE}] -add {CLOCKREGION_X0Y0:CLOCKREGION_X0Y0}
#endgroup
